{ "backgroundcolor":"#000000",
 "height":80,
 "infinite":false,
 "layers":[
        {
         "compression":"zlib",
         "data":"eJzt2rENwjAQQFEr27AfYwErpMoQbEND4SJVfPg4+RWviyzd11V2jtbaAQAAAAAAAAAB3ieufLMq\/fTL9Dpx5ZuV7D+SPdcsz8Bm\/VnZc9m\/Gu6BzfqzsueyfzXYvzGP79wR+rOy55rZbwuin3766VdJZL9NP\/unn36F6KeffnXdWtz9QX9W9lyzuL8a4\/7K\/mXyfmT\/\/oX38zH+39BPPwAAAAAAAABW9gGf05Bv",
         "encoding":"base64",
         "height":80,
         "id":1,
         "name":"back",
         "opacity":0.5,
         "type":"tilelayer",
         "visible":true,
         "width":80,
         "x":0,
         "y":0
        }, 
        {
         "compression":"zlib",
         "data":"eJzt2bENwCAMBEDWyX5ZK6yQObJNUqag4qHynfQdcvFygaA1AAAAAAAAAACqe770X57JM5Xcm1LFtSlV2L\/MuSlV2L\/M6r2r1l9fPEt\/2Sz9ZbP0l83SXzZLf2PuL2Or96\/a\/RkAZhybUoX3q4z304z9y\/g\/yti\/dfyfAwAAAAAAAAAw6wUMgstV",
         "encoding":"base64",
         "height":80,
         "id":2,
         "name":"front",
         "opacity":1,
         "type":"tilelayer",
         "visible":true,
         "width":80,
         "x":0,
         "y":0
        }, 
        {
         "color":"#5555ff",
         "draworder":"topdown",
         "id":3,
         "name":"mods",
         "objects":[
                {
                 "height":32,
                 "id":1634,
                 "name":"",
                 "properties":[
                        {
                         "name":"back",
                         "type":"string",
                         "value":"lightmetal"
                        }, 
                        {
                         "name":"colorVariant",
                         "type":"string",
                         "value":"8"
                        }],
                 "rotation":0,
                 "type":"",
                 "visible":true,
                 "width":144,
                 "x":248,
                 "y":280
                }, 
                {
                 "height":8,
                 "id":1636,
                 "name":"",
                 "properties":[
                        {
                         "name":"back",
                         "type":"string",
                         "value":"slopedhullpanel"
                        }, 
                        {
                         "name":"colorVariant",
                         "type":"string",
                         "value":"4"
                        }, 
                        {
                         "name":"front",
                         "type":"string",
                         "value":"slopedhullpanel"
                        }],
                 "rotation":0,
                 "type":"",
                 "visible":true,
                 "width":176,
                 "x":240,
                 "y":256
                }, 
                {
                 "height":8,
                 "id":1639,
                 "name":"",
                 "properties":[
                        {
                         "name":"back",
                         "type":"string",
                         "value":"slopedhullpanel"
                        }, 
                        {
                         "name":"colorVariant",
                         "type":"string",
                         "value":"4"
                        }, 
                        {
                         "name":"front",
                         "type":"string",
                         "value":"slopedhullpanel"
                        }],
                 "rotation":0,
                 "type":"",
                 "visible":true,
                 "width":176,
                 "x":240,
                 "y":240
                }, 
                {
                 "height":8,
                 "id":1640,
                 "name":"",
                 "properties":[
                        {
                         "name":"back",
                         "type":"string",
                         "value":"slopedhullpanel"
                        }, 
                        {
                         "name":"colorVariant",
                         "type":"string",
                         "value":"4"
                        }, 
                        {
                         "name":"front",
                         "type":"string",
                         "value":"slopedhullpanel"
                        }],
                 "rotation":0,
                 "type":"",
                 "visible":true,
                 "width":176,
                 "x":240,
                 "y":224
                }, 
                {
                 "height":8,
                 "id":1642,
                 "name":"",
                 "properties":[
                        {
                         "name":"back",
                         "type":"string",
                         "value":"heavypipe"
                        }, 
                        {
                         "name":"colorVariant",
                         "type":"string",
                         "value":"7"
                        }, 
                        {
                         "name":"front",
                         "type":"string",
                         "value":"heavypipe"
                        }],
                 "rotation":0,
                 "type":"",
                 "visible":true,
                 "width":176,
                 "x":240,
                 "y":232
                }, 
                {
                 "height":8,
                 "id":1643,
                 "name":"",
                 "properties":[
                        {
                         "name":"back",
                         "type":"string",
                         "value":"outpostwall2"
                        }, 
                        {
                         "name":"colorVariant",
                         "type":"string",
                         "value":"4"
                        }, 
                        {
                         "name":"front",
                         "type":"string",
                         "value":"outpostwall2"
                        }],
                 "rotation":0,
                 "type":"",
                 "visible":true,
                 "width":176,
                 "x":240,
                 "y":384
                }, 
                {
                 "height":8,
                 "id":1644,
                 "name":"",
                 "properties":[
                        {
                         "name":"back",
                         "type":"string",
                         "value":"slopedhullpanel"
                        }, 
                        {
                         "name":"colorVariant",
                         "type":"string",
                         "value":"4"
                        }, 
                        {
                         "name":"front",
                         "type":"string",
                         "value":"slopedhullpanel"
                        }],
                 "rotation":0,
                 "type":"",
                 "visible":true,
                 "width":176,
                 "x":240,
                 "y":408
                }, 
                {
                 "height":8,
                 "id":1645,
                 "name":"",
                 "properties":[
                        {
                         "name":"back",
                         "type":"string",
                         "value":"slopedhullpanel"
                        }, 
                        {
                         "name":"colorVariant",
                         "type":"string",
                         "value":"4"
                        }, 
                        {
                         "name":"front",
                         "type":"string",
                         "value":"slopedhullpanel"
                        }],
                 "rotation":0,
                 "type":"",
                 "visible":true,
                 "width":176,
                 "x":240,
                 "y":392
                }, 
                {
                 "height":8,
                 "id":1646,
                 "name":"",
                 "properties":[
                        {
                         "name":"back",
                         "type":"string",
                         "value":"slopedhullpanel"
                        }, 
                        {
                         "name":"colorVariant",
                         "type":"string",
                         "value":"4"
                        }, 
                        {
                         "name":"front",
                         "type":"string",
                         "value":"slopedhullpanel"
                        }],
                 "rotation":0,
                 "type":"",
                 "visible":true,
                 "width":176,
                 "x":240,
                 "y":376
                }, 
                {
                 "height":8,
                 "id":1647,
                 "name":"",
                 "properties":[
                        {
                         "name":"back",
                         "type":"string",
                         "value":"heavypipe"
                        }, 
                        {
                         "name":"colorVariant",
                         "type":"string",
                         "value":"7"
                        }, 
                        {
                         "name":"front",
                         "type":"string",
                         "value":"heavypipe"
                        }],
                 "rotation":0,
                 "type":"",
                 "visible":true,
                 "width":176,
                 "x":240,
                 "y":400
                }, 
                {
                 "height":8,
                 "id":1648,
                 "name":"",
                 "properties":[
                        {
                         "name":"back",
                         "type":"string",
                         "value":"outpostwall2"
                        }, 
                        {
                         "name":"colorVariant",
                         "type":"string",
                         "value":"4"
                        }, 
                        {
                         "name":"front",
                         "type":"string",
                         "value":"outpostwall2"
                        }],
                 "rotation":0,
                 "type":"",
                 "visible":true,
                 "width":176,
                 "x":240,
                 "y":248
                }, 
                {
                 "height":8,
                 "id":1682,
                 "name":"",
                 "properties":[
                        {
                         "name":"back",
                         "type":"string",
                         "value":"outpostwall2"
                        }, 
                        {
                         "name":"colorVariant",
                         "type":"string",
                         "value":"4"
                        }],
                 "rotation":0,
                 "type":"",
                 "visible":true,
                 "width":144,
                 "x":248,
                 "y":272
                }, 
                {
                 "height":56,
                 "id":1686,
                 "name":"",
                 "properties":[
                        {
                         "name":"back",
                         "type":"string",
                         "value":"slopedhullpanel"
                        }, 
                        {
                         "name":"colorVariant",
                         "type":"string",
                         "value":"4"
                        }, 
                        {
                         "name":"front",
                         "type":"string",
                         "value":"slopedhullpanel"
                        }],
                 "rotation":0,
                 "type":"",
                 "visible":true,
                 "width":16,
                 "x":400,
                 "y":264
                }, 
                {
                 "height":8,
                 "id":1709,
                 "name":"",
                 "properties":[
                        {
                         "name":"back",
                         "type":"string",
                         "value":"slopedhullpanel"
                        }, 
                        {
                         "name":"colorVariant",
                         "type":"string",
                         "value":"4"
                        }, 
                        {
                         "name":"front",
                         "type":"string",
                         "value":"slopedhullpanel"
                        }],
                 "rotation":0,
                 "type":"",
                 "visible":true,
                 "width":80,
                 "x":320,
                 "y":312
                }, 
                {
                 "height":56,
                 "id":1710,
                 "name":"",
                 "properties":[
                        {
                         "name":"back",
                         "type":"string",
                         "value":"lightmetal"
                        }, 
                        {
                         "name":"colorVariant",
                         "type":"string",
                         "value":"8"
                        }],
                 "rotation":0,
                 "type":"",
                 "visible":true,
                 "width":72,
                 "x":248,
                 "y":312
                }, 
                {
                 "height":48,
                 "id":1711,
                 "name":"",
                 "properties":[
                        {
                         "name":"back",
                         "type":"string",
                         "value":"lightmetal"
                        }, 
                        {
                         "name":"colorVariant",
                         "type":"string",
                         "value":"8"
                        }],
                 "rotation":0,
                 "type":"",
                 "visible":true,
                 "width":72,
                 "x":320,
                 "y":320
                }],
         "opacity":1,
         "type":"objectgroup",
         "visible":true,
         "x":0,
         "y":0
        }, 
        {
         "color":"#ff0000",
         "draworder":"topdown",
         "id":4,
         "name":"objects",
         "objects":[
                {
                 "gid":6519,
                 "height":31,
                 "id":1653,
                 "name":"",
                 "rotation":0,
                 "type":"",
                 "visible":true,
                 "width":40,
                 "x":336,
                 "y":456
                }, 
                {
                 "gid":6519,
                 "height":31,
                 "id":1654,
                 "name":"",
                 "rotation":0,
                 "type":"",
                 "visible":true,
                 "width":40,
                 "x":264,
                 "y":456
                }, 
                {
                 "gid":6524,
                 "height":29,
                 "id":1656,
                 "name":"",
                 "rotation":0,
                 "type":"",
                 "visible":true,
                 "width":40,
                 "x":336,
                 "y":216
                }, 
                {
                 "gid":6524,
                 "height":29,
                 "id":1657,
                 "name":"",
                 "rotation":0,
                 "type":"",
                 "visible":true,
                 "width":40,
                 "x":264,
                 "y":216
                }, 
                {
                 "gid":6297,
                 "height":8,
                 "id":1672,
                 "name":"",
                 "rotation":0,
                 "type":"",
                 "visible":true,
                 "width":16,
                 "x":312,
                 "y":280
                }, 
                {
                 "gid":5608,
                 "height":40,
                 "id":1687,
                 "name":"",
                 "rotation":0,
                 "type":"",
                 "visible":true,
                 "width":48,
                 "x":384,
                 "y":368
                }, 
                {
                 "gid":2147492996,
                 "height":8,
                 "id":1702,
                 "name":"",
                 "rotation":0,
                 "type":"",
                 "visible":true,
                 "width":32,
                 "x":296,
                 "y":376
                }, 
                {
                 "gid":9253,
                 "height":16,
                 "id":1712,
                 "name":"",
                 "rotation":0,
                 "type":"",
                 "visible":true,
                 "width":48,
                 "x":344,
                 "y":312
                }, 
                {
                 "gid":2147492986,
                 "height":16,
                 "id":1714,
                 "name":"",
                 "rotation":0,
                 "type":"",
                 "visible":true,
                 "width":16,
                 "x":328,
                 "y":312
                }, 
                {
                 "gid":9343,
                 "height":18,
                 "id":1715,
                 "name":"",
                 "rotation":0,
                 "type":"",
                 "visible":true,
                 "width":32,
                 "x":264,
                 "y":376
                }, 
                {
                 "gid":9310,
                 "height":24,
                 "id":1716,
                 "name":"",
                 "rotation":0,
                 "type":"",
                 "visible":true,
                 "width":16,
                 "x":272,
                 "y":328
                }, 
                {
                 "gid":9117,
                 "height":40,
                 "id":1717,
                 "name":"",
                 "rotation":0,
                 "type":"",
                 "visible":true,
                 "width":32,
                 "x":344,
                 "y":376
                }],
         "opacity":1,
         "type":"objectgroup",
         "visible":true,
         "x":0,
         "y":0
        }, 
        {
         "color":"#ffff00",
         "draworder":"topdown",
         "id":5,
         "name":"wiring - lights & guns",
         "objects":[],
         "opacity":1,
         "type":"objectgroup",
         "visible":true,
         "x":0,
         "y":0
        }, 
        {
         "color":"#ff0000",
         "draworder":"topdown",
         "id":6,
         "name":"monsters & npcs",
         "objects":[
                {
                 "height":8,
                 "id":1683,
                 "name":"",
                 "properties":[
                        {
                         "name":"npc",
                         "type":"string",
                         "value":"felin"
                        }, 
                        {
                         "name":"typeName",
                         "type":"string",
                         "value":"felintraveller"
                        }],
                 "rotation":0,
                 "type":"",
                 "visible":true,
                 "width":8,
                 "x":312,
                 "y":344
                }],
         "opacity":1,
         "type":"objectgroup",
         "visible":true,
         "x":0,
         "y":0
        }, 
        {
         "color":"#00ffff",
         "draworder":"topdown",
         "id":7,
         "name":"wiring - locked door",
         "objects":[],
         "opacity":1,
         "type":"objectgroup",
         "visible":true,
         "x":0,
         "y":0
        }, 
        {
         "draworder":"topdown",
         "id":8,
         "name":"outside the map",
         "objects":[],
         "opacity":1,
         "type":"objectgroup",
         "visible":true,
         "x":0,
         "y":0
        }, 
        {
         "draworder":"topdown",
         "id":9,
         "name":"anchors etc",
         "objects":[
                {
                 "gid":208,
                 "height":8,
                 "id":1631,
                 "name":"",
                 "rotation":0,
                 "type":"",
                 "visible":true,
                 "width":8,
                 "x":232,
                 "y":368
                }, 
                {
                 "gid":208,
                 "height":8,
                 "id":1685,
                 "name":"",
                 "rotation":0,
                 "type":"",
                 "visible":true,
                 "width":8,
                 "x":416,
                 "y":368
                }],
         "opacity":1,
         "type":"objectgroup",
         "visible":true,
         "x":0,
         "y":0
        }, 
        {
         "draworder":"topdown",
         "id":10,
         "name":"items",
         "objects":[],
         "opacity":1,
         "type":"objectgroup",
         "visible":true,
         "x":0,
         "y":0
        }],
 "nextlayerid":11,
 "nextobjectid":1718,
 "orientation":"orthogonal",
 "renderorder":"right-down",
 "tiledversion":"1.2.2",
 "tileheight":8,
 "tilesets":[
        {
         "firstgid":1,
         "source":"..\/..\/..\/tilesets\/packed\/materials.json"
        }, 
        {
         "firstgid":196,
         "source":"..\/..\/..\/tilesets\/packed\/miscellaneous.json"
        }, 
        {
         "firstgid":218,
         "source":"..\/..\/..\/tilesets\/packed\/liquids.json"
        }, 
        {
         "firstgid":246,
         "source":"..\/..\/..\/tilesets\/packed\/supports.json"
        }, 
        {
         "firstgid":282,
         "source":"..\/..\/..\/tilesets\/packed\/objects-by-race\/generic.json"
        }, 
        {
         "firstgid":2207,
         "source":"..\/..\/..\/tilesets\/packed\/objects-by-race\/ancient.json"
        }, 
        {
         "firstgid":2369,
         "source":"..\/..\/..\/tilesets\/packed\/objects-by-race\/apex.json"
        }, 
        {
         "firstgid":2740,
         "source":"..\/..\/..\/tilesets\/packed\/objects-by-race\/avian.json"
        }, 
        {
         "firstgid":3045,
         "source":"..\/..\/..\/tilesets\/packed\/objects-by-race\/floran.json"
        }, 
        {
         "firstgid":3240,
         "source":"..\/..\/..\/tilesets\/packed\/objects-by-race\/glitch.json"
        }, 
        {
         "firstgid":3466,
         "source":"..\/..\/..\/tilesets\/packed\/objects-by-race\/human.json"
        }, 
        {
         "firstgid":3747,
         "source":"..\/..\/..\/tilesets\/packed\/objects-by-race\/hylotl.json"
        }, 
        {
         "firstgid":3979,
         "source":"..\/..\/..\/tilesets\/packed\/objects-by-race\/novakid.json"
        }, 
        {
         "firstgid":4042,
         "source":"..\/..\/..\/tilesets\/packed\/objects-by-category\/crafting.json"
        }, 
        {
         "firstgid":4122,
         "source":"..\/..\/..\/tilesets\/packed\/objects-by-category\/decorative.json"
        }, 
        {
         "firstgid":5538,
         "source":"..\/..\/..\/tilesets\/packed\/objects-by-category\/door.json"
        }, 
        {
         "firstgid":5666,
         "source":"..\/..\/..\/tilesets\/packed\/objects-by-category\/farmable.json"
        }, 
        {
         "firstgid":5741,
         "source":"..\/..\/..\/tilesets\/packed\/objects-by-category\/furniture.json"
        }, 
        {
         "firstgid":6087,
         "source":"..\/..\/..\/tilesets\/packed\/objects-by-category\/light.json"
        }, 
        {
         "firstgid":6529,
         "source":"..\/..\/..\/tilesets\/packed\/objects-by-category\/other.json"
        }, 
        {
         "firstgid":6832,
         "source":"..\/..\/..\/tilesets\/packed\/objects-by-category\/pot.json"
        }, 
        {
         "firstgid":7129,
         "source":"..\/..\/..\/tilesets\/packed\/objects-by-category\/sapling.json"
        }, 
        {
         "firstgid":7130,
         "source":"..\/..\/..\/tilesets\/packed\/objects-by-category\/spawner.json"
        }, 
        {
         "firstgid":7146,
         "source":"..\/..\/..\/tilesets\/packed\/objects-by-category\/storage.json"
        }, 
        {
         "firstgid":7377,
         "source":"..\/..\/..\/tilesets\/packed\/objects-by-category\/teleporter.json"
        }, 
        {
         "firstgid":7417,
         "source":"..\/..\/..\/tilesets\/packed\/objects-by-category\/tools.json"
        }, 
        {
         "firstgid":7422,
         "source":"..\/..\/..\/tilesets\/packed\/objects-by-category\/trap.json"
        }, 
        {
         "firstgid":7626,
         "source":"..\/..\/..\/tilesets\/packed\/objects-by-category\/wire.json"
        }, 
        {
         "firstgid":7843,
         "source":"..\/..\/..\/tilesets\/packed\/objects-by-type\/container.json"
        }, 
        {
         "firstgid":8125,
         "source":"..\/..\/..\/tilesets\/packed\/objects-by-type\/farmable.json"
        }, 
        {
         "firstgid":8203,
         "source":"..\/..\/..\/tilesets\/packed\/objects-by-type\/loungeable.json"
        }, 
        {
         "firstgid":8481,
         "source":"..\/..\/..\/tilesets\/packed\/objects-by-type\/noisy.json"
        }, 
        {
         "firstgid":8522,
         "source":"..\/..\/..\/tilesets\/packed\/objects-by-type\/teleporter.json"
        }, 
        {
         "firstgid":8548,
         "source":"..\/..\/..\/tilesets\/packed\/objects-by-colonytag\/station.json"
        }, 
        {
         "firstgid":8578,
         "source":"..\/..\/..\/tilesets\/packed\/objects-by-colonytag\/mining.json"
        }, 
        {
         "firstgid":8588,
         "source":"..\/..\/..\/tilesets\/packed\/objects-by-category\/breakable.json"
        }, 
        {
         "firstgid":8896,
         "source":"..\/..\/..\/tilesets\/packed\/objects-by-colonytag\/misc.json"
        }, 
        {
         "firstgid":9054,
         "source":"..\/..\/..\/tilesets\/packed\/objects-by-colonytag\/electronic.json"
        }, 
        {
         "firstgid":9181,
         "source":"..\/..\/..\/tilesets\/packed\/objects-by-colonytag\/science.json"
        }, 
        {
         "firstgid":9199,
         "source":"..\/..\/..\/tilesets\/packed\/objects-by-colonytag\/apexresearchlab.json"
        }, 
        {
         "firstgid":9250,
         "source":"..\/..\/..\/tilesets\/packed\/felin_objects.json"
        }, 
        {
         "firstgid":9355,
         "source":"..\/..\/..\/tilesets\/packed\/felin_materials.json"
        }],
 "tilewidth":8,
 "type":"map",
 "version":1.2,
 "width":80
}