{ "backgroundcolor":"#000000",
 "height":45,
 "layers":[
        {
         "compression":"zlib",
         "data":"eJzt1zEOgCAMheEe3bvK5iWUwYXEVOS1tekb\/o3wJYShbSJb+2m7iGh5OSh\/xfpiI703roWnud6mpffkVjA9vNGlSZMmTZo0s5tV5oQos8p8G7U7RO1ICHvWWfFRVu+47pspwkS4GUyvt73PIf+RZqMtzbb2RtfLy9gJwsFg7g==",
         "encoding":"base64",
         "height":45,
         "name":"back",
         "opacity":0.5,
         "type":"tilelayer",
         "visible":true,
         "width":29,
         "x":0,
         "y":0
        },
        {
         "compression":"zlib",
         "data":"eJztzcEJACAMALHuv6pLOIGPWq0gCdz7IgAAAICfjY26f5Vv5ffiWZH9VH\/Z\/y3dv9W3Q\/fvlAmcl1R1",
         "encoding":"base64",
         "height":45,
         "name":"front",
         "opacity":1,
         "type":"tilelayer",
         "visible":true,
         "width":29,
         "x":0,
         "y":0
        },
        {
         "color":"#5555ff",
         "draworder":"topdown",
         "height":0,
         "name":"mods",
         "objects":[],
         "opacity":1,
         "type":"objectgroup",
         "visible":true,
         "width":0,
         "x":0,
         "y":0
        },
        {
         "color":"#ff0000",
         "draworder":"topdown",
         "height":0,
         "name":"objects",
         "objects":[
                {
                 "gid":3782,
                 "height":16,
                 "id":778,
                 "name":"",
                 "properties":
                    {

                    },
                 "rotation":0,
                 "type":"",
                 "visible":true,
                 "width":16,
                 "x":112,
                 "y":280
                },
                {
                 "height":8,
                 "id":779,
                 "name":"",
                 "properties":
                    {
                     "npc":"felin",
                     "typeName":"mystic"
                    },
                 "rotation":0,
                 "type":"",
                 "visible":true,
                 "width":8,
                 "x":96,
                 "y":272
                },
                {
                 "height":8,
                 "id":780,
                 "name":"",
                 "properties":
                    {
                     "npc":"felin",
                     "typeName":"mystic"
                    },
                 "rotation":0,
                 "type":"",
                 "visible":true,
                 "width":8,
                 "x":128,
                 "y":272
                }],
         "opacity":1,
         "type":"objectgroup",
         "visible":true,
         "width":0,
         "x":0,
         "y":0
        },
        {
         "color":"#ffff00",
         "draworder":"topdown",
         "height":0,
         "name":"wiring - lights & guns",
         "objects":[],
         "opacity":1,
         "type":"objectgroup",
         "visible":true,
         "width":0,
         "x":0,
         "y":0
        },
        {
         "color":"#ff0000",
         "draworder":"topdown",
         "height":0,
         "name":"monsters & npcs",
         "objects":[],
         "opacity":1,
         "type":"objectgroup",
         "visible":true,
         "width":0,
         "x":0,
         "y":0
        },
        {
         "color":"#00ffff",
         "draworder":"topdown",
         "height":0,
         "name":"wiring - locked door",
         "objects":[],
         "opacity":1,
         "type":"objectgroup",
         "visible":true,
         "width":0,
         "x":0,
         "y":0
        },
        {
         "draworder":"topdown",
         "height":0,
         "name":"outside the map",
         "objects":[],
         "opacity":1,
         "type":"objectgroup",
         "visible":true,
         "width":0,
         "x":0,
         "y":0
        },
        {
         "draworder":"topdown",
         "height":0,
         "name":"anchors etc",
         "objects":[
                {
                 "gid":232,
                 "height":8,
                 "id":713,
                 "name":"",
                 "properties":
                    {

                    },
                 "rotation":0,
                 "type":"",
                 "visible":true,
                 "width":8,
                 "x":152,
                 "y":296
                },
                {
                 "gid":232,
                 "height":8,
                 "id":714,
                 "name":"",
                 "properties":
                    {

                    },
                 "rotation":0,
                 "type":"",
                 "visible":true,
                 "width":8,
                 "x":72,
                 "y":296
                },
                {
                 "gid":243,
                 "height":8,
                 "id":720,
                 "name":"",
                 "properties":
                    {

                    },
                 "rotation":0,
                 "type":"",
                 "visible":true,
                 "width":8,
                 "x":152,
                 "y":16
                },
                {
                 "gid":243,
                 "height":8,
                 "id":724,
                 "name":"",
                 "properties":
                    {

                    },
                 "rotation":0,
                 "type":"",
                 "visible":true,
                 "width":8,
                 "x":80,
                 "y":280
                },
                {
                 "gid":243,
                 "height":8,
                 "id":725,
                 "name":"",
                 "properties":
                    {

                    },
                 "rotation":0,
                 "type":"",
                 "visible":true,
                 "width":8,
                 "x":144,
                 "y":280
                },
                {
                 "gid":231,
                 "height":8,
                 "id":726,
                 "name":"",
                 "properties":
                    {

                    },
                 "rotation":0,
                 "type":"",
                 "visible":true,
                 "width":8,
                 "x":144,
                 "y":280
                },
                {
                 "gid":231,
                 "height":8,
                 "id":729,
                 "name":"",
                 "properties":
                    {

                    },
                 "rotation":0,
                 "type":"",
                 "visible":true,
                 "width":8,
                 "x":152,
                 "y":16
                },
                {
                 "gid":231,
                 "height":8,
                 "id":732,
                 "name":"",
                 "properties":
                    {

                    },
                 "rotation":0,
                 "type":"",
                 "visible":true,
                 "width":8,
                 "x":80,
                 "y":280
                },
                {
                 "gid":243,
                 "height":8,
                 "id":734,
                 "name":"",
                 "properties":
                    {

                    },
                 "rotation":0,
                 "type":"",
                 "visible":true,
                 "width":8,
                 "x":8,
                 "y":88
                },
                {
                 "gid":243,
                 "height":8,
                 "id":735,
                 "name":"",
                 "properties":
                    {

                    },
                 "rotation":0,
                 "type":"",
                 "visible":true,
                 "width":8,
                 "x":216,
                 "y":88
                },
                {
                 "gid":231,
                 "height":8,
                 "id":736,
                 "name":"",
                 "properties":
                    {

                    },
                 "rotation":0,
                 "type":"",
                 "visible":true,
                 "width":8,
                 "x":216,
                 "y":88
                },
                {
                 "gid":231,
                 "height":8,
                 "id":737,
                 "name":"",
                 "properties":
                    {

                    },
                 "rotation":0,
                 "type":"",
                 "visible":true,
                 "width":8,
                 "x":8,
                 "y":88
                }],
         "opacity":1,
         "type":"objectgroup",
         "visible":true,
         "width":0,
         "x":0,
         "y":0
        },
        {
         "draworder":"topdown",
         "height":0,
         "name":"items",
         "objects":[],
         "opacity":1,
         "type":"objectgroup",
         "visible":true,
         "width":0,
         "x":0,
         "y":0
        }],
 "nextobjectid":781,
 "orientation":"orthogonal",
 "properties":
    {

    },
 "renderorder":"right-down",
 "tileheight":8,
 "tilesets":[
        {
         "firstgid":1,
         "source":"..\/..\/tilesets\/packed\/materials.json"
        },
        {
         "firstgid":191,
         "source":"..\/..\/tilesets\/packed\/supports.json"
        },
        {
         "firstgid":227,
         "source":"..\/..\/tilesets\/packed\/miscellaneous.json"
        },
        {
         "firstgid":246,
         "source":"..\/..\/tilesets\/packed\/liquids.json"
        },
        {
         "firstgid":274,
         "source":"..\/..\/tilesets\/packed\/objects-by-race\/generic.json"
        },
        {
         "firstgid":2001,
         "source":"..\/..\/tilesets\/packed\/objects-by-race\/ancient.json"
        },
        {
         "firstgid":2118,
         "source":"..\/..\/tilesets\/packed\/objects-by-race\/apex.json"
        },
        {
         "firstgid":2485,
         "source":"..\/..\/tilesets\/packed\/objects-by-race\/avian.json"
        },
        {
         "firstgid":2786,
         "source":"..\/..\/tilesets\/packed\/objects-by-race\/floran.json"
        },
        {
         "firstgid":2978,
         "source":"..\/..\/tilesets\/packed\/objects-by-race\/glitch.json"
        },
        {
         "firstgid":3202,
         "source":"..\/..\/tilesets\/packed\/objects-by-race\/human.json"
        },
        {
         "firstgid":3472,
         "source":"..\/..\/tilesets\/packed\/objects-by-race\/hylotl.json"
        },
        {
         "firstgid":3702,
         "source":"..\/..\/tilesets\/packed\/objects-by-race\/novakid.json"
        },
        {
         "firstgid":3727,
         "source":"..\/..\/tilesets\/packed\/objects-by-category\/crafting.json"
        },
        {
         "firstgid":3803,
         "source":"..\/..\/tilesets\/packed\/objects-by-category\/decorative.json"
        },
        {
         "firstgid":5101,
         "source":"..\/..\/tilesets\/packed\/objects-by-category\/door.json"
        },
        {
         "firstgid":5209,
         "source":"..\/..\/tilesets\/packed\/objects-by-category\/farmable.json"
        },
        {
         "firstgid":5284,
         "source":"..\/..\/tilesets\/packed\/objects-by-category\/furniture.json"
        },
        {
         "firstgid":5609,
         "source":"..\/..\/tilesets\/packed\/objects-by-category\/light.json"
        },
        {
         "firstgid":6016,
         "source":"..\/..\/tilesets\/packed\/objects-by-category\/other.json"
        },
        {
         "firstgid":6310,
         "source":"..\/..\/tilesets\/packed\/objects-by-category\/pot.json"
        },
        {
         "firstgid":6607,
         "source":"..\/..\/tilesets\/packed\/objects-by-category\/sapling.json"
        },
        {
         "firstgid":6608,
         "source":"..\/..\/tilesets\/packed\/objects-by-category\/spawner.json"
        },
        {
         "firstgid":6623,
         "source":"..\/..\/tilesets\/packed\/objects-by-category\/storage.json"
        },
        {
         "firstgid":6839,
         "source":"..\/..\/tilesets\/packed\/objects-by-category\/teleporter.json"
        },
        {
         "firstgid":6871,
         "source":"..\/..\/tilesets\/packed\/objects-by-category\/tools.json"
        },
        {
         "firstgid":6876,
         "source":"..\/..\/tilesets\/packed\/objects-by-category\/trap.json"
        },
        {
         "firstgid":7078,
         "source":"..\/..\/tilesets\/packed\/objects-by-category\/wire.json"
        },
        {
         "firstgid":7263,
         "source":"..\/..\/tilesets\/packed\/objects-by-type\/container.json"
        },
        {
         "firstgid":7530,
         "source":"..\/..\/tilesets\/packed\/objects-by-type\/farmable.json"
        },
        {
         "firstgid":7606,
         "source":"..\/..\/tilesets\/packed\/objects-by-type\/loungeable.json"
        },
        {
         "firstgid":7861,
         "source":"..\/..\/tilesets\/packed\/objects-by-type\/noisy.json"
        },
        {
         "firstgid":7902,
         "source":"..\/..\/tilesets\/packed\/objects-by-type\/teleporter.json"
        },
        {
         "firstgid":7926,
         "source":"..\/..\/tilesets\/packed\/huge-objects.json"
        }],
 "tilewidth":8,
 "version":1,
 "width":29
}