X: 1
T: Charlie Puth - Attention (Intrustment)
Z: ABC Generated by Starbound Composer v0.8.7
L: 1/4
M: 4/4
Q: 1/4=109
K: Db
E,/4 z/4 B,/4 z/4 E/4 z/4 B,/4 z/4 G/4 z/4 F/4 z/4 E/4 z/4 B,/4 z/4 
D,/4 z/4 A,/4 z/4 D/4 z/4 E/4 z/4 F/ z3/ 
B,,/4 z/4 A,/4 z/4 D/4 z/4 A,/4 z/4 F/4 z/4 E/4 z/4 D/4 z/4 A,/4 z/4 
_C,/4 z/4 G,/4 z/4 _C/4 z/4 D/4 z/4 E/ z/ D,/ =D,/ 
E,/4 z/4 B,/4 z/4 E/4 z/4 B,/4 z/4 G/4 z/4 F/4 z/4 E/4 z/4 B,/4 z/4 
_D,/4 z/4 A,/4 z/4 D/4 z/4 E/4 z/4 F/ z3/ 
B,,/4 z/4 A,/4 z/4 D/4 z/4 A,/4 z/4 F/4 z/4 E/4 z/4 D/4 z/4 A,/4 z/4 
C,/4 z/4 G,/4 z/4 C/4 z/4 D/4 z/4 E/ z/ D,/ =D,/ 
E,/4 z/4 B,/4 z/4 E/4 z/4 B,/4 z/4 G/4 z/4 F/4 z/4 E/4 z/4 B,/4 z/4 
_D,/4 z/4 A,/4 z/4 D/4 z/4 E/4 z/4 F/ z3/ 
B,,/4 z/4 A,/4 z/4 D/4 z/4 A,/4 z/4 F/4 z/4 E/4 z/4 D/4 z/4 A,/4 z/4 
C,/4 z/4 G,/4 z/4 C/4 z/4 D/4 z/4 E/ z/ D,/ =D,/ 
[E,/4B4d4e4g4] z/4 B,/4 z/4 E/4 z/4 B,/4 z/4 G/4 z/4 F/4 z/4 E/4 z/4 B,/4 z/4 
[_D,/4A4d4f4] z/4 A,/4 z/4 D/4 z/4 E/4 z/4 F/ z3/ 
[B,,/4A4B4f4] z/4 A,/4 z/4 D/4 z/4 A,/4 z/4 F/4 z/4 E/4 z/4 D/4 z/4 A,/4 z/4 
[C,/4G4_c4e4] z/4 G,/4 z/4 C/4 z/4 D/4 z/4 E/ z/ D,/ =D,/ 
[E,/4B4d4e4g4] z/4 B,/4 z/4 E/4 z/4 B,/4 z/4 G/4 z/4 F/4 z/4 E/4 z/4 B,/4 z/4 
[_D,/4A4d4f4] z/4 A,/4 z/4 D/4 z/4 E/4 z/4 F/ z3/ 
[B,,/4A4B4f4] z/4 A,/4 z/4 D/4 z/4 A,/4 z/4 F/4 z/4 E/4 z/4 D/4 z/4 A,/4 z/4 
[C,3/G,3/C3/G3c3e3] z5/ 
[E3/4E,,3/4] [E/E,/] [D/4D,/4] [E/E,/] z/ E,,/ [d/D,/] [e/E,/] 
[D3/4D,,3/4] [D/D,/] [C/4C,/4] [D/D,/] D,,/ D,/ [d/D,,/] [c/_C,,/] 
[B,3/4B,,,3/4] [B,/B,,/] [A,/4A,,/4] [B,/B,,/] z/ B,,,/ [A/A,,/] [B/B,,/] 
[C3/4C,,3/4] [C/C,/] [B,/4B,,/4] [C/C,/] C,,/ [C/C,/] [D/D,,/] [d/D,/] 
[E3/4E,,3/4] [E/E,/] [D/4D,/4] [E/E,/] z/ E,,/ [d/D,/] [e/E,/] 
[D3/4D,,3/4] [D/D,/] [C/4C,/4] [D/D,/] D,,/ D,/ [d/D,,/] [c/C,,/] 
[B,3/4B,,,3/4] [B,/B,,/] [A,/4A,,/4] [B,/B,,/] z/ B,,,/ [A/A,,/] [B/B,,/] 
C,,3/4 C,/ B,,/4 C,/ C,,/ C,/ D,,/ D,/ 
[B3/4e3/4g3/4E,,3/4] [g/E,/] [f/4D,/4] [g/E,/] z/ E,,/ [D/D,/] [E/E,/] 
[A3/4d3/4f3/4D,,3/4] [f/D,/] [e/4C,/4] [f/D,/] D,,/ D,/ [D/D,,/] [C/C,,/] 
[A3/4B3/4f3/4B,,,3/4] [f/B,,/] [e/4A,,/4] [f/B,,/] z/ B,,,/ [A/A,,/] [B/B,,/] 
[G3/4c3/4e3/4C,,3/4] [e/C,/] [d/4B,,/4] [e/C,/] C,,/ C,/ [D/D,,/] [d/D,/] 
[B3/4e3/4g3/4E,,3/4] [g/E,/] [f/4D,/4] [g/E,/] z/ E,,/ [D/D,/] [E/E,/] 
[A3/4d3/4f3/4D,,3/4] [f/D,/] [e/4C,/4] [f/D,/] D,,/ D,/ [D/D,,/] [C/C,,/] 
[A3/4B3/4f3/4B,,,3/4] [f/B,,/] [e/4A,,/4] [f/B,,/] z/ B,,,/ [A/A,,/] [B/B,,/] 
[G3/4c3/4e3/4C,,3/4] [e/C,/] [d/4B,,/4] [e/C,/] C,,/ C,/ [D/D,,/] [d/D,/] 
[E,/4B4d4e4g4] z/4 B,/4 z/4 E/4 z/4 B,/4 z/4 G/4 z/4 F/4 z/4 E/4 z/4 B,/4 z/4 
[D,/4A4d4f4] z/4 A,/4 z/4 D/4 z/4 E/4 z/4 F/ z3/ 
[B,,/4A4B4f4] z/4 A,/4 z/4 D/4 z/4 A,/4 z/4 F/4 z/4 E/4 z/4 D/4 z/4 A,/4 z/4 
[C,/4G4c4e4] z/4 G,/4 z/4 C/4 z/4 D/4 z/4 E/ z/ D,/ =D,/ 
[B3/4e3/4g3/4E,,3/4] [g/E,/] [f/4_D,/4] [g/E,/] z/ E,,/ [D/D,/] [E/E,/] 
[A3/4d3/4f3/4D,,3/4] [f/D,/] [e/4C,/4] [f/D,/] D,,/ D,/ [D/D,,/] [C/C,,/] 
[A3/4B3/4f3/4B,,,3/4] [f/B,,/] [e/4A,,/4] [f/B,,/] z/ B,,,/ [A/A,,/] [B/B,,/] 
[G3/4c3/4e3/4C,,3/4] [e/C,/] [d/4B,,/4] [e/C,/] C,,/ C,/ [D/D,,/] [d/D,/] 
[E,/4B4d4e4g4] z/4 B,/4 z/4 E/4 z/4 B,/4 z/4 G/4 z/4 F/4 z/4 E/4 z/4 B,/4 z/4 
[D,/4A4d4f4] z/4 A,/4 z/4 D/4 z/4 E/4 z/4 F/ z3/ 
[B,,/4A4B4f4] z/4 A,/4 z/4 D/4 z/4 A,/4 z/4 F/4 z/4 E/4 z/4 D/4 z/4 A,/4 z/4 
[C,3/G,3/C3/G3c3e3] z5/ 
[E3/4E,,3/4] [E/E,/] [D/4D,/4] [E/E,/] z/ E,,/ [d/D,/] [e/E,/] 
[D3/4D,,3/4] [D/D,/] [C/4C,/4] [D/D,/] D,,/ D,/ [d/D,,/] [c/C,,/] 
[B,3/4B,,,3/4] [B,/B,,/] [A,/4A,,/4] [B,/B,,/] z/ B,,,/ [A/A,,/] [B/B,,/] 
[C3/4C,,3/4] [C/C,/] [B,/4B,,/4] [C/C,/] C,,/ [C/C,/] [D/D,,/] [d/D,/] 
[E3/4E,,3/4] [E/E,/] [D/4D,/4] [E/E,/] z/ E,,/ [d/D,/] [e/E,/] 
[D3/4D,,3/4] [D/D,/] [C/4C,/4] [D/D,/] D,,/ D,/ [d/D,,/] [c/C,,/] 
[B,3/4B,,,3/4] [B,/B,,/] [A,/4A,,/4] [B,/B,,/] z/ B,,,/ [A/A,,/] [B/B,,/] 
[C3/4C,,3/4] [C/C,/] [B,/4B,,/4] [C/C,/] C,,/ [C/C,/] [D/D,,/] [d/D,/] 
[B/d/e/g/E,,3/4] z/4 [g/E,/] [f/4D,/4] [g/E,/] g/ [g/E,,/] D,/ [z/4E,/] [z/4A/d/f/] 
[z/4D,,3/4] e/4 [z/4f/] [z/4D,/] [z/4f/] C,/4 [f/D,/] D,,/ D,/ [D,,/e] C,,/ 
[G3/4d3/4e3/4B,,,3/4] [f/4B,,/] [z/4f/] A,,/4 [e/4B,,/] [z3/4f5/4] B,,,/ [A,,/f] B,,/ 
[C,,3/4G4c4e4] C,/ B,,/4 C,/ C,,/ C,/ D,,/ D,/ 
[B/d/e/g/E,,3/4] z/4 [g/E,/] [f/4D,/4] [g/E,/] g/ [g/E,,/] D,/ [z/4E,/] [z/4A/d/f/] 
[z/4D,,3/4] e/4 [z/4f/] [z/4D,/] [z/4f/] C,/4 [f/D,/] D,,/ D,/ [D,,/e] C,,/ 
[G3/4d3/4e3/4B,,,3/4] [f/4B,,/] [z/4f/] A,,/4 [e/4B,,/] [z3/4f5/4] B,,,/ [A,,/f] B,,/ 
[C,,3/4G4c4e4] C,/ B,,/4 C,/ C,,/ C,/ D,,/ D,/ 
E,/4 z/4 B,/4 z/4 E/4 z/4 B,/4 z/4 G/4 z/4 F/4 z/4 E/4 z/4 B,/4 z/4 
D,/4 z/4 A,/4 z/4 D/4 z/4 E/4 z/4 F/ z3/ 
B,,/4 z/4 A,/4 z/4 D/4 z/4 A,/4 z/4 F/4 z/4 E/4 z/4 D/4 z/4 A,/4 z/4 
C,/4 z/4 G,/4 z/4 C/4 z/4 D/4 z/4 E/ z/ D,/ =D,/ 
[B/d/e/g/E,,3/4] z/4 [g/E,/] [f/4_D,/4] [g/E,/] g/ [g/E,,/] D,/ [z/4E,/] [z/4A/d/f/] 
[z/4D,,3/4] e/4 [z/4f/] [z/4D,/] [z/4f/] C,/4 [f/D,/] D,,/ D,/ [D,,/e] C,,/ 
[G3/4d3/4e3/4B,,,3/4] [f/4B,,/] [z/4f/] A,,/4 [e/4B,,/] [z3/4f5/4] B,,,/ [A,,/f] B,,/ 
[C,,3/4G4c4e4] C,/ B,,/4 C,/ C,,/ C,/ D,,/ D,/ 
E,/4 z/4 B,/4 z/4 E/4 z/4 B,/4 z/4 G/4 z/4 F/4 z/4 E/4 z/4 B,/4 z/4 
D,/4 z/4 A,/4 z/4 D/4 z/4 E/4 z/4 F/ z3/ 
B,,/4 z/4 A,/4 z/4 D/4 z/4 A,/4 z/4 F/4 z/4 E/4 z/4 D/4 z/4 A,/4 z/4 
[C,3/G,3/C3/G3c3e3] z13/ 
[B3/4e3/4g3/4E,,3/4] [g/E,/] [f/4D,/4] [g/E,/] z/ E,,/ [D/D,/] [E/E,/] 
[A3/4d3/4f3/4D,,3/4] [f/D,/] [e/4C,/4] [f/D,/] D,,/ D,/ [D/D,,/] [C/C,,/] 
[A3/4B3/4f3/4B,,,3/4] [f/B,,/] [e/4A,,/4] [f/B,,/] z/ B,,,/ [A/A,,/] [B/B,,/] 
[G3/4c3/4e3/4C,,3/4] [e/C,/] [d/4B,,/4] [e/C,/] C,,/ C,/ [D/D,,/] [d/D,/] 
[B3/4e3/4g3/4E,,3/4] [g/E,/] [f/4D,/4] [g/E,/] z/ E,,/ [D/D,/] [E/E,/] 
[A3/4d3/4f3/4D,,3/4] [f/D,/] [e/4C,/4] [f/D,/] D,,/ D,/ [D/D,,/] [C/C,,/] 
[A3/4B3/4f3/4B,,,3/4] [f/B,,/] [e/4A,,/4] [f/B,,/] z/ B,,,/ [A/A,,/] [B/B,,/] 
[G3/4c3/4e3/4C,,3/4] [e/C,/] [d/4B,,/4] [e/C,/] C,,/ C,/ [D/D,,/] [d/D,/] 
[B/d/e/g/E,,3/4] z/4 [g/E,/] [f/4D,/4] [g/E,/] g/ [g/E,,/] D,/ [z/4E,/] [z/4A/d/f/] 
[z/4D,,3/4] e/4 [z/4f/] [z/4D,/] [z/4f/] C,/4 [f/D,/] D,,/ D,/ [f/D,,/] [e/4C,,/] d/4 
[G3/4d3/4e3/4B,,,3/4] [f/4B,,/] [z/4f/] A,,/4 [e/4B,,/] f3/4 [e/B,,,/] [f/A,,/] [z/4B,,/] e/4 
[C,,3/4G4c4e4] C,/ B,,/4 C,/ C,,/ C,/ D,,/ D,/ 
[B/d/e/g/E,,3/4] z/4 [g/E,/] [f/4D,/4] [g/E,/] g/ [g/E,,/] D,/ [z/4E,/] [z/4A/d/f/] 
[z/4D,,3/4] e/4 [z/4f/] [z/4D,/] [z/4f/] C,/4 [f/D,/] D,,/ D,/ [f/D,,/] [e/4C,,/] d/4 
[G3/4d3/4e3/4B,,,3/4] [f/4B,,/] [z/4f/] A,,/4 [e/4B,,/] f3/4 [e/B,,,/] [f/A,,/] [z/4B,,/] e/4 
[C,,3/4G4c4e4] C,/ B,,/4 C,/ C,,/ C,/ D,,/ D,/ 
E,, 
