X: 1
T: Doom E1M9 - Hiding the Secrets (Violin)
Z: ABC Generated by Starbound Composer v0.8.7
L: 1/4
Q: 1/4=95
K: C
z825/7 
[^D13/42_B13/42] [^C29/96^G29/96] z89/288 [C91/288G91/288] [B,67/224^F67/224] [C43/140G43/140] z3/10 [C5/16G5/16] [D43/144B43/144] [C11/36G11/36] z11/36 [D23/72B23/72] [E29/96=B29/96] [D5/16_B5/16] 
[C29/96G29/96] [B,23/72F23/72] [D11/36B11/36] [C11/36G11/36] z43/144 [C5/16G5/16] [B,3/10F3/10] [C43/140G43/140] z13/42 [C11/36G11/36] [D89/288B89/288] [C5/16G5/16] z67/224 [D43/140B43/140] 
[E87/140=B87/140] [B,17/28F17/28] [D9/28_B9/28] [C7/24G7/24] z29/96 [C5/16G5/16] [B,69/224F69/224] [C71/224G71/224] z29/96 [C13/42G13/42] [D33/112B33/112] [C5/16G5/16] z11/36 
[D19/63B19/63] [E9/28=B9/28] [D65/224_B65/224] [C5/16G5/16] [B,29/96F29/96] [D19/60B19/60] [C3/10G3/10] z3/10 [C9/28G9/28] [B,17/56F17/56] [C17/56G17/56] z9/28 [C7/24G7/24] [D37/120B37/120] 
[C19/60G19/60] z25/84 [D79/252B79/252] [E11/18=B11/18] [B,83/180F83/180] z3/20 [G5/16^d5/16c5/16] [F43/144^c43/144_B43/144] z20/63 [F37/126c37/126B37/126] [E79/252=B79/252G79/252] [F25/84c25/84_B25/84] z19/60 
[F37/120c37/120B37/120] [G7/24d7/24=c7/24] [F9/28^c9/28B9/28] z17/56 [G17/56d17/56=c17/56] [A9/28e9/28^c9/28] [G3/10d3/10=c3/10] [F3/10^c3/10B3/10] [E19/60=B19/60G19/60] [G29/96d29/96=c29/96] [F5/16^c5/16_B5/16] z29/96 [F13/42c13/42B13/42] [E19/63=B19/63G19/63] 
[F11/36c11/36_B11/36] z5/16 [F33/112c33/112B33/112] [G13/42d13/42=c13/42] [F29/96^c29/96B29/96] z71/224 [G69/224d69/224=c69/224] [A59/96e59/96^c59/96] [E103/168=B103/168G103/168] [G17/56d17/56=c17/56] [F17/56^c17/56_B17/56] z9/28 
[F3/10c3/10B3/10] [E43/140=B43/140G43/140] [F13/42c13/42_B13/42] z29/96 [F89/288c89/288B89/288] [G91/288d91/288=c91/288] [F67/224^c67/224B67/224] z43/140 [G3/10d3/10=c3/10] [A5/16e5/16^c5/16] [G43/144d43/144=c43/144] [F11/36^c11/36B11/36] [E11/36=B11/36G11/36] [G23/72d23/72=c23/72] 
[F29/96^c29/96_B29/96] z5/16 [F29/96c29/96B29/96] [E23/72=B23/72G23/72] [F11/36c11/36_B11/36] z11/36 [F43/144c43/144B43/144] [G9/32=c9/32d5/16] z/32 [F3/10^c3/10B3/10] z43/140 [G13/42d13/42=c13/42] [G37/84c37/84e59/96] [z39/224A27/140^c27/140] [=F23/288A23/288=B137/224] 
[E4/9G4/9] z11/126 [D43/140_B43/140=G43/140] [C3/10^G3/10F3/10] z9/28 [C17/56G17/56F17/56] [B,17/56^F17/56D17/56] [C9/28G9/28=F9/28] z7/24 [C29/96G29/96F29/96] [D5/16B5/16=G5/16] [C69/224^G69/224F69/224] z71/224 [D29/96B29/96=G29/96] 
[E13/42=B13/42^G13/42] [D33/112_B33/112=G33/112] [C5/16^G5/16F5/16] [B,11/36^F11/36D11/36] [D19/63B19/63=G19/63] [C9/28^G9/28=F9/28] z65/224 [C5/16G5/16F5/16] [B,5/16^F5/16D5/16] [C49/160G49/160=F49/160] z3/10 [C3/10G3/10F3/10] [D9/28B9/28=G9/28] [C17/56^G17/56F17/56] z17/56 
[D9/28B9/28=G9/28] [E3/5=B3/5^G3/5] [B,43/70^F43/70D43/70] [D79/252_B79/252=G79/252] [C11/36^G11/36=F11/36] z11/36 [C43/144G43/144F43/144] [B,5/16^F5/16D5/16] [C5/16G5/16=F5/16] z43/144 [C20/63G20/63F20/63] 
[D37/126B37/126=G37/126] [C79/252^G79/252F79/252] z25/84 [D19/60B19/60=G19/60] [E37/120=B37/120^G37/120] [D7/24_B7/24=G7/24] [C9/28^G9/28F9/28] [B,17/56^F17/56D17/56] [D17/56B17/56=G17/56] [C9/28^G9/28=F9/28] z3/10 [C3/10G3/10F3/10] [B,19/60^F19/60D19/60] [C29/96G29/96=F29/96] z5/16 
[C29/96G29/96F29/96] [D13/42B13/42=G13/42] [C19/63^G19/63F19/63] z11/36 [D5/16B5/16=G5/16] [E69/112=B69/112^G69/112] [B,17/28^F17/28D17/28] [^G,69/224D69/224=C69/224] [A,5/16E5/16^C5/16] z29/96 [B,7/24F7/24D7/24] [A,9/28E9/28C9/28] 
[G,17/56D17/56=C17/56] z17/56 [B,9/28F9/28D9/28] [^C3/10G3/10=F3/10] [D43/140_B43/140=G43/140] z13/42 [E29/96=B29/96^G29/96] [D5/8_B5/8=G5/8] [C97/160^G97/160F97/160] [G,3/10D3/10=C3/10] [A,5/16E5/16^C5/16] z43/144 
[B,11/36^F11/36D11/36] [A,11/36E11/36C11/36] [G,23/72D23/72=C23/72] z29/96 [B,5/16F5/16D5/16] [^C29/96G29/96=F29/96] [D23/72B23/72=G23/72] z11/36 [E11/36=B11/36^G11/36] [C11/18G11/18F11/18] [B,17/28^F17/28D17/28] [G,13/42D13/42=C13/42] 
[A,11/36E11/36^C11/36] z89/288 [B,5/16F5/16D5/16] [A,67/224E67/224C67/224] [G,43/140D43/140=C43/140] z59/180 [B,37/126F37/126D37/126] [^C17/56G17/56=F17/56] [D17/56_B17/56=G17/56] z9/28 [E7/24=B7/24^G7/24] [C59/96G59/96F59/96] [E5/8B5/8G5/8] 
[G,29/96D29/96=C29/96] [A,13/42E13/42^C13/42] z33/112 [B,5/16^F5/16D5/16] [A,11/36E11/36C11/36] [G,137/288D137/288=C137/288] z33/224 [B,65/224F65/224D65/224] [^C5/16G5/16=F5/16] [D5/16_B5/16=G5/16] z49/160 [E3/10=B3/10^G3/10] [C87/140G87/140F87/140] 
[E17/28B17/28G17/28] [C13/84G13/84] z/6 [C7/24G7/24] [D37/120_B37/120] [E19/60=B19/60] [D7/48_B7/48] z17/112 [D79/252B79/252] [C11/36G11/36] [B,11/36^F11/36] [G,11/72D11/72] z7/48 [G,5/16D5/16] [A,5/16E5/16] [B,43/144F43/144] 
[A,11/18E11/18] [G,113/180D113/180] [C3/20G3/20] z3/20 [C37/120G37/120] [D7/24B7/24] [E9/28=B9/28] [F17/56c17/56] [E17/56B17/56] [D9/28_B9/28] [C3/10G3/10] [G,19/120D19/120] z17/120 [G,19/60D19/60] 
[A,29/96E29/96] [B,5/16F5/16] [A,137/224E137/224] [G,17/28D17/28] [C5/16G5/16] [G33/112d33/112] [=G9/28=d9/28] [^G65/224^d65/224] [A71/224e71/224] [G69/224d69/224] [E5/16=B5/16] [G29/96d29/96] 
[G,7/24D7/24] [D9/28_B9/28] [=D17/56A17/56] [^D17/56B17/56] [E87/140=B87/140] [A,37/60E37/60] [C29/96G29/96] [G89/288d89/288] [=G91/288=d91/288] [^G67/224^d67/224] [E43/140B43/140] [G3/10d3/10] 
[D5/16_B5/16] [G43/144d43/144] [G,20/63D20/63] [D37/126B37/126] [=D23/72A23/72] [^D29/96B29/96] [E59/96=B59/96] [A,5/8E5/8] 
