X: 1
T: Doom E1M6 - On The Hunt (Bass Guitar)
Z: ABC Generated by Starbound Composer v0.8.7
L: 1/4
Q: 1/4=95
K: C
z151/8 
b7/24 c'7/24 b7/24 c'11/36 b53/180 c'41/140 b2/7 c'37/126 b89/288 c'65/224 b73/252 c'11/36 b7/24 c'7/24 
b7/24 c'29/96 b85/288 c'73/252 b65/224 c'89/288 b37/126 c'2/7 b41/140 c'37/120 b7/24 c'7/24 b7/24 c'13/42 
b2/7 c'65/224 b9/32 c'5/16 b33/112 c'41/140 b23/80 c'5/16 b2/7 c'25/84 b7/24 c'17/56 b2/7 c'2/7 
b3/10 c'43/140 b2/7 c'33/112 b41/144 c'79/252 b2/7 c'73/252 b85/288 c'69/224 b2/7 c'3/10 b47/160 c'67/224 
b33/112 c'9/32 b89/288 c'37/126 b2/7 c'67/224 b47/160 c'3/10 e'7/24 f'7/24 e'7/24 f'17/56 e'37/126 f'89/288 
e'9/32 f'43/144 e'85/288 f'47/160 e'3/10 f'7/24 e'7/24 f'7/24 e'7/24 f'29/96 e'89/288 f'5/18 e'53/180 f'3/10 
e'53/180 f'5/18 e'89/288 f'29/96 e'7/24 f'7/24 e'7/24 f'7/24 e'3/10 f'47/160 e'85/288 f'43/144 b9/32 c'89/288 
b37/126 c'17/56 b7/24 c'7/24 b7/24 c'3/10 b47/160 c'67/224 b2/7 c'37/126 b89/288 c'9/32 b33/112 c'67/224 
b47/160 c'3/10 b2/7 c'69/224 b85/288 c'73/252 b2/7 c'79/252 b41/144 c'33/112 b2/7 c'43/140 b3/10 c'2/7 
b2/7 c'17/56 ^f7/24 g25/84 f2/7 g5/16 f23/80 g41/140 f33/112 g5/16 f9/32 g65/224 f2/7 g13/42 
f7/24 g7/24 f7/24 g37/120 e41/140 =f2/7 e37/126 f89/288 e65/224 f73/252 e85/288 f29/96 e7/24 f7/24 
e7/24 f11/36 e73/252 f65/224 e89/288 f37/126 b2/7 c'41/140 b53/180 c'11/36 b7/24 c'7/24 b7/24 c'17/56 
b65/224 c'9/32 b3/10 c'43/140 b41/140 c'23/80 b9/32 c'71/224 b25/84 c'7/24 b7/24 c'25/84 b2/7 c'3/10 
b47/160 c'67/224 b33/112 c'41/144 b89/288 c'65/224 b73/252 c'85/288 b47/160 c'3/10 b3/10 c'47/160 b85/288 c'43/144 
b9/32 c'89/288 b41/144 c'33/112 b67/224 c'47/160 b3/10 c'7/24 b7/24 c'7/24 b7/24 c'11/36 b89/288 c'9/32 
b23/80 c'49/160 b47/160 c'3/10 b9/32 c'29/96 b7/24 c'7/24 b7/24 c'23/72 b5/18 c'53/180 b41/140 c'19/63 
b5/18 c'89/288 b65/224 c'17/56 b7/24 c'7/24 b7/24 c'3/10 b47/160 c'85/288 b73/252 c'65/224 b89/288 c'37/126 
b2/7 c'13/42 b7/24 c'7/24 b7/24 c'29/96 b67/224 c'2/7 b65/224 c'5/16 b9/32 c'33/112 b41/140 c'3/10 
b3/10 c'2/7 b25/84 c'11/36 e'73/252 f'2/7 e'2/7 f'5/16 e'33/112 f'2/7 e'33/112 f'5/16 e'2/7 f'2/7 
e'73/252 f'11/36 e'25/84 f'2/7 e'3/10 f'3/10 e'41/140 f'33/112 e'9/32 f'5/16 e'65/224 f'2/7 e'67/224 f'29/96 
e'7/24 f'7/24 e'7/24 f'13/42 e'2/7 f'37/126 e'89/288 f'65/224 b73/252 c'85/288 b47/160 c'3/10 b7/24 c'7/24 
b7/24 c'17/56 b65/224 c'89/288 b5/18 c'19/63 b41/140 c'53/180 b5/18 c'23/72 b7/24 c'7/24 b7/24 c'29/96 
b9/32 c'3/10 b47/160 c'49/160 b23/80 c'9/32 b89/288 c'11/36 b7/24 c'7/24 b7/24 c'7/24 ^f3/10 g47/160 
f67/224 g33/112 f41/144 g89/288 f9/32 g43/144 f85/288 g47/160 f3/10 g3/10 f47/160 g85/288 f73/252 g65/224 
e89/288 =f41/144 e33/112 f67/224 e47/160 f3/10 e2/7 f25/84 e7/24 f7/24 e25/84 f71/224 e9/32 f23/80 
e41/140 f43/140 b3/10 c'9/32 b65/224 c'17/56 b7/24 c'7/24 b7/24 c'11/36 b53/180 c'41/140 b2/7 c'37/126 
b89/288 c'65/224 b73/252 c'11/36 b7/24 c'7/24 b7/24 c'29/96 b85/288 c'73/252 b65/224 c'89/288 b37/126 c'2/7 
b41/140 c'37/120 b7/24 c'7/24 b7/24 c'13/42 
