X: 1
T: Doom E1M5 - Suspense (Bass Guitar)
Z: ABC Generated by Starbound Composer v0.8.7
L: 1/4
Q: 1/4=95
K: C
z151/12 
D,,,113/36 E,,,227/72 
F,,,101/32 G,,,301/96 
D,,,151/48 E,,,151/48 
F,,,529/168 G,,,33/14 
A,,,11/14 D,,,63/20 E,,,377/120 
F,,,151/48 G,,,151/48 
_B,,,301/96 A,,,101/32 
G,,,227/72 F,,,283/180 
E,,,47/30 D,,,529/84 z44/7 
D,,,63/20 E,,,63/20 
F,,,283/90 G,,,907/288 
D,,,901/288 E,,,227/72 z/72 
F,,,905/288 G,,,679/288 
A,,,199/252 D,,,22/7 E,,,22/7 
F,,,793/252 G,,,113/36 
B,,,101/32 A,,,503/160 
G,,,63/20 F,,,71/45 
E,,,451/288 D,,,1411/224 z44/7 
D,,,22/7 E,,,705/224 
F,,,703/224 G,,,22/7 
D,,,101/32 E,,,503/160 
F,,,63/20 G,,,189/80 
A,,,25/32 D,,,101/32 E,,,113/36 
F,,,793/252 G,,,22/7 
B,,,22/7 A,,,705/224 
G,,,905/288 F,,,227/144 
E,,,229/144 D,,,113/18 z1133/180 
D,,,111/140 z33/14 E,,,25/32 z529/224 
F,,,11/14 z33/14 G,,,11/14 z33/14 
D,,,177/224 z227/96 E,,,65/84 z149/63 
F,,,7/9 z19/8 G,,,25/32 z451/288 
A,,,233/288 D,,,123/160 z71/30 E,,,47/60 z189/80 
F,,,25/32 z227/96 G,,,19/24 z47/20 
B,,,71/90 z85/36 A,,,11/14 z33/14 
G,,,11/14 z397/168 F,,,113/72 
E,,,227/144 D,,,201/32 
