X: 1
T: Doom E1M4 - Kitchen Ace (Lead Guitar)
Z: ABC Generated by Starbound Composer v0.8.7
L: 1/4
Q: 1/4=95
K: C
[^C,13/10^F,,21/16] [z/80B,,19/70] E,,29/112 z11/42 [B,,25/96E,,4/15] [z/160C,21/16] F,,209/160 [B,,25/96E,,61/224] z11/42 [E,,29/112B,,29/112] 
[F,,21/16C,21/16] [E,,5/18B,,5/18] z73/288 [z/224B,,25/96] E,,43/168 [C,25/48F,,89/168] [z/112D,25/48] G,,43/84 [F,,11/21C,11/21] [B,,67/126E,,15/28] 
[z/252C,59/45] F,,183/140 [B,,31/120E,,37/140] z19/72 [E,,71/288B,,71/288] [F,,213/160C,213/160] [E,,23/90B,,23/90] z37/144 [z/112B,,13/48] E,,11/42 
[C,47/36F,,79/60] [z/90B,,77/288] E,,41/160 z25/96 [B,,11/42E,,13/48] [z/112C,73/140] F,,41/80 [G,,47/90D,47/90] [F,,19/36C,19/36] [E,,19/36B,,19/36] 
[F,,379/288C,379/288] [E,,41/160B,,41/160] z9/35 [z/252B,,15/56] E,,19/72 [C,73/56F,,21/16] [z/112B,,19/70] E,,21/80 z31/120 [B,,43/168E,,25/96] 
[z/224C,295/224] F,,21/16 [B,,25/96E,,43/160] z13/48 [E,,29/112B,,29/112] [F,,117/224C,117/224] [D,149/288G,,17/32] [z/72C,67/126] F,,29/56 [E,,11/21B,,11/21] 
[F,,125/96C,125/96] [E,,9/32B,,9/32] z/4 [B,,/4E,,5/18] [z/36C,37/28] F,,163/126 [B,,11/42E,,61/224] z4/15 [E,,9/35B,,9/35] 
[F,,37/28C,37/28] [E,,/4B,,/4] z29/112 [z/80B,,13/48] E,,31/120 [F,,25/96C,25/96] z29521/288 
[F,,95/72C,95/72] [B,,31/120E,,13/48] z19/70 [E,,/4B,,/4] [F,,37/28C,37/28] [E,,9/35B,,9/35] z41/160 [z/96B,,61/224] E,,11/42 
[C,163/126F,,37/28] [z/36B,,5/18] E,,/4 z/4 [E,,9/32B,,9/32] [F,,49/96C,49/96] [G,,89/168D,89/168] [C,117/224F,,37/70] [z/160B,,149/288] E,,23/45 
[F,,83/63C,83/63] [E,,29/112B,,29/112] z21/80 [z/120B,,43/160] E,,25/96 [C,21/16F,,295/224] [z/224B,,25/96] E,,43/168 z31/120 [B,,21/80E,,19/70] 
[z/112C,21/16] F,,73/56 [B,,19/72E,,15/56] z47/180 [E,,41/160B,,41/160] [F,,17/32C,17/32] [D,25/48G,,59/112] [z/168C,49/96] F,,113/224 [E,,17/32B,,17/32] 
[C,21/16F,,37/28] [z/112B,,13/48] E,,11/42 z25/96 [B,,41/160E,,77/288] [z/90C,79/60] F,,47/36 [B,,11/42E,,13/48] z67/252 [E,,23/90B,,23/90] 
[F,,213/160C,213/160] [E,,71/288B,,71/288] z65/252 [z/168B,,37/140] E,,31/120 [C,73/140F,,8/15] [z/84D,37/70] G,,31/60 [F,,21/40C,21/40] [B,,29/56E,,17/32] 
[z3/224C,221/168] F,,125/96 [B,,43/168E,,25/96] z65/252 [E,,5/18B,,5/18] [F,,21/16C,21/16] [E,,29/112B,,29/112] z/4 [z/84B,,61/224] E,,25/96 
[C,209/160F,,21/16] [z/160B,,4/15] E,,25/96 z11/42 [B,,29/112E,,19/70] [z/80C,13/48] F,,31/120 
