X: 1
T: Doom E1M8 - Sign of Evil (Space Synth 2)
Z: ABC Generated by Starbound Composer v0.8.7
L: 1/4
Q: 1/4=95
K: C
z25/16 c3/16 z171/28 
c31/168 z1025/168 
c4/21 z293/48 
c3/16 z439/72 
c7/36 z587/96 
c41/224 z241/35 
c23/120 z71/24 c3/16 z331/112 
c4/21 z71/24 c13/72 z427/144 
c3/16 z71/24 c19/96 z47/16 
c19/96 z71/24 c3/16 z427/144 
c13/72 z71/24 c4/21 z331/112 
c3/16 z71/24 c23/120 z207/70 
c31/168 z71/24 c3/16 z331/112 
c4/21 z71/24 c17/96 z349/160 
c31/160 z1757/288 
c25/126 z383/63 
c13/63 z1367/224 
c3/16 z1367/224 
c5/28 z55/9 
c17/90 z977/160 
c3/16 z977/160 
c17/90 z55/9 
c5/28 z1367/224 
c3/16 z1367/224 
c13/63 z383/63 
c25/126 z1757/288 
c31/160 z61/10 
c27/140 z171/28 
c5/28 z171/28 
c47/252 z1537/252 
c47/224 z1751/288 
c29/144 z195/32 
c31/160 z61/10 
c27/140 z171/28 
c3/16 z683/112 
c41/224 z587/96 
c7/36 z439/72 
c3/16 
