X: 1
T: Doom E1M3 - Dark Halls
L: 1/4
Q: 1/4=95
Z: ABC Generated by Starbound Composer v0.8.7
K: C
[^D,,3/16C,,3/16] D,,23/112 D,,4/21 D,,17/84 D,,41/224 D,,47/224 [D,,11/56C,,11/56] D,,11/56 [D,,13/63E,,13/63] D,,47/252 D,,43/224 D,,45/224 D,,27/140 D,,/5 D,,7/36 D,,25/126 [D,,4/21C,,4/21] D,,5/24 D,,13/72 D,,13/63 D,,11/56 
D,,11/56 [D,,47/224C,,47/224] D,,3/16 [D,,3/16E,,3/16] D,,59/288 D,,17/90 D,,/5 D,,/5 D,,/5 D,,31/160 D,,19/96 [D,,17/96C,,17/96] D,,7/32 D,,3/16 D,,5/24 D,,7/36 D,,55/288 [D,,19/96C,,19/96] D,,4/21 [D,,25/126E,,25/126] D,,7/36 
D,,/5 D,,/5 D,,31/160 D,,19/96 D,,13/72 D,,31/144 [D,,3/16C,,3/16] D,,5/24 D,,19/96 D,,55/288 D,,7/36 [z7/36D,,5/24] [D,,29/144C,,29/144] D,,3/16 [D,,/5E,,/5] D,,33/160 D,,3/16 D,,33/160 D,,/5 D,,3/16 D,,3/16 z/72 
D,,7/36 [D,,7/36C,,7/36^D151/12] D,,55/288 D,,19/96 D,,5/24 D,,3/16 D,,31/144 [D,,13/72C,,13/72] D,,19/96 [D,,31/160E,,31/160] D,,/5 D,,/5 D,,7/36 D,,25/126 D,,4/21 D,,19/96 D,,55/288 [D,,7/36C,,7/36^C1817/288] D,,5/24 D,,3/16 D,,7/32 
D,,17/96 D,,19/96 [D,,31/160C,,31/160] D,,/5 [D,,/5E,,/5] D,,/5 D,,17/90 D,,59/288 D,,3/16 D,,3/16 D,,47/224 D,,11/56 [D,,11/56C,,11/56G101/32] D,,13/63 D,,13/72 D,,5/24 D,,4/21 D,,25/126 [D,,7/36C,,7/36] D,,/5 [D,,27/140E,,27/140] 
D,,45/224 D,,43/224 D,,47/252 D,,13/63 D,,11/56 D,,11/56 D,,47/224 [D,,41/224C,,41/224=C301/96^F301/96] D,,17/84 D,,4/21 D,,23/112 D,,3/16 D,,/5 [D,,27/140C,,27/140] D,,45/224 [D,,43/224E,,43/224] D,,3/14 D,,5/28 D,,53/252 D,,23/126 D,,13/63 
D,,47/252 D,,17/84 [D,,4/21C,,4/21D151/12] D,,23/112 D,,3/16 D,,5/24 D,,31/168 D,,29/140 [D,,23/120C,,23/120] D,,5/24 [D,,5/28E,,5/28] D,,3/14 D,,5/28 D,,47/224 D,,3/16 D,,19/96 [D,,7/36C,,7/36] D,,29/144 [D,,3/16^C705/112] D,,5/24 [D,,23/120C,,23/120] 
D,,/5 D,,23/120 [D,,5/24C,,5/24] D,,3/16 D,,29/144 [D,,7/36E,,7/36] D,,19/96 D,,3/16 D,,47/224 D,,5/28 D,,3/14 D,,5/28 D,,5/24 [D,,23/120C,,23/120G529/168] D,,29/140 D,,31/168 D,,5/24 D,,3/16 D,,23/112 [D,,4/21C,,4/21] D,,17/84 
[D,,47/252E,,47/252] D,,13/63 D,,23/126 D,,53/252 D,,5/28 D,,3/14 [D,,43/224C,,43/224] D,,45/224 [D,,27/140=C22/7F22/7] D,,/5 [D,,3/16C,,3/16] D,,23/112 D,,4/21 [D,,17/84C,,17/84] D,,41/224 D,,47/224 [D,,11/56E,,11/56] D,,11/56 D,,13/63 D,,47/252 D,,43/224 
D,,45/224 D,,27/140 D,,/5 [D,,7/36C,,7/36D151/12] D,,25/126 D,,4/21 D,,5/24 D,,13/72 D,,13/63 [D,,11/56C,,11/56] D,,11/56 [D,,47/224E,,47/224] D,,3/16 D,,3/16 D,,59/288 D,,17/90 D,,/5 [D,,/5C,,/5] D,,/5 [D,,31/160^C503/80] D,,19/96 
[D,,17/96C,,17/96] D,,7/32 D,,3/16 [D,,5/24C,,5/24] D,,7/36 D,,55/288 [D,,19/96E,,19/96] D,,4/21 D,,25/126 D,,7/36 D,,/5 D,,/5 D,,31/160 D,,19/96 [D,,13/72C,,13/72G151/48] D,,31/144 D,,3/16 D,,5/24 D,,19/96 D,,55/288 [D,,7/36C,,7/36] 
[z7/36D,,5/24] [D,,29/144E,,29/144] D,,3/16 D,,/5 D,,33/160 D,,3/16 D,,33/160 [D,,/5C,,/5] D,,3/16 [D,,3/16=C151/48F151/48] z/72 D,,7/36 [D,,7/36C,,7/36] D,,55/288 D,,19/96 [D,,5/24C,,5/24] D,,3/16 D,,31/144 [D,,13/72E,,13/72] D,,19/96 D,,31/160 D,,/5 
D,,/5 D,,7/36 D,,25/126 D,,4/21 [D,,19/96C,,19/96D151/12] D,,55/288 D,,7/36 D,,5/24 D,,3/16 D,,7/32 [D,,17/96C,,17/96] D,,19/96 [D,,31/160E,,31/160] D,,/5 D,,/5 D,,/5 D,,17/90 D,,59/288 [D,,3/16C,,3/16] [D,,3/16C,,3/16] [D,,47/224C,,47/224^C1817/288] 
D,,11/56 [D,,11/56C,,11/56] D,,13/63 D,,13/72 [D,,5/24C,,5/24] D,,4/21 D,,25/126 [D,,7/36E,,7/36] D,,/5 D,,27/140 D,,45/224 D,,43/224 D,,47/252 D,,13/63 D,,11/56 [D,,11/56C,,11/56G227/72] D,,47/224 D,,41/224 D,,17/84 D,,4/21 D,,23/112 
[D,,3/16C,,3/16] D,,/5 [D,,27/140E,,27/140] D,,45/224 D,,43/224 D,,3/14 D,,5/28 D,,53/252 [D,,23/126C,,23/126] [D,,13/63C,,13/63] [D,,47/252C,,47/252=C113/36F113/36] D,,17/84 [D,,4/21C,,4/21] D,,23/112 D,,3/16 [D,,5/24C,,5/24] D,,31/168 D,,29/140 [D,,23/120E,,23/120] D,,5/24 D,,5/28 
D,,3/14 D,,5/28 D,,47/224 D,,3/16 D,,19/96 [^G,,,7/36C,,7/36^G151/12] G,,,29/144 G,,,3/16 G,,,5/24 G,,,23/120 G,,,/5 [G,,,23/120C,,23/120] G,,,5/24 [G,,,3/16E,,3/16] G,,,29/144 G,,,7/36 G,,,19/96 G,,,3/16 G,,,47/224 [G,,,5/28C,,5/28] [G,,,3/14C,,3/14] 
[G,,,5/28C,,5/28F44/7] G,,,5/24 [G,,,23/120C,,23/120] G,,,29/140 G,,,31/168 [G,,,5/24C,,5/24] G,,,3/16 G,,,23/112 [G,,,4/21E,,4/21] G,,,17/84 G,,,47/252 G,,,13/63 G,,,23/126 G,,,53/252 G,,,5/28 G,,,3/14 [G,,,43/224C,,43/224c22/7] G,,,45/224 G,,,27/140 G,,,/5 G,,,3/16 
G,,,23/112 [G,,,4/21C,,4/21] G,,,17/84 [G,,,41/224E,,41/224] G,,,47/224 G,,,11/56 G,,,11/56 G,,,13/63 G,,,47/252 [G,,,43/224C,,43/224] [G,,,45/224C,,45/224] [G,,,27/140C,,27/140=F22/7B22/7] G,,,/5 [G,,,7/36C,,7/36] G,,,25/126 G,,,4/21 [G,,,5/24C,,5/24] G,,,13/72 G,,,13/63 [G,,,11/56E,,11/56] G,,,11/56 
G,,,47/224 G,,,3/16 G,,,3/16 G,,,59/288 G,,,17/90 G,,,/5 [G,,,/5C,,/5G403/32] G,,,/5 G,,,31/160 G,,,19/96 G,,,17/96 G,,,7/32 [G,,,3/16C,,3/16] G,,,5/24 [G,,,7/36E,,7/36] G,,,55/288 G,,,19/96 G,,,4/21 G,,,25/126 G,,,7/36 [G,,,/5C,,/5] 
[G,,,/5C,,/5] [G,,,31/160C,,31/160^F1133/180] G,,,19/96 [G,,,13/72C,,13/72] G,,,31/144 G,,,3/16 [G,,,5/24C,,5/24] G,,,19/96 G,,,55/288 [G,,,7/36E,,7/36] [z7/36G,,,5/24] G,,,29/144 G,,,3/16 G,,,/5 G,,,33/160 G,,,3/16 G,,,33/160 [G,,,/5C,,/5c283/90] G,,,3/16 G,,,3/16 z/72 G,,,7/36 
G,,,7/36 G,,,55/288 [G,,,19/96C,,19/96] G,,,5/24 [G,,,3/16E,,3/16] G,,,31/144 G,,,13/72 G,,,19/96 G,,,31/160 G,,,/5 [G,,,/5C,,/5] [G,,,7/36C,,7/36] [G,,,25/126C,,25/126=F907/288B907/288] G,,,4/21 [G,,,19/96C,,19/96] G,,,55/288 G,,,7/36 [G,,,5/24C,,5/24] G,,,3/16 G,,,7/32 [G,,,17/96E,,17/96] 
G,,,19/96 G,,,31/160 G,,,/5 G,,,/5 G,,,/5 G,,,17/90 G,,,59/288 [D,,3/16C,,3/16D2819/224] D,,3/16 D,,47/224 D,,11/56 D,,11/56 D,,13/63 [D,,13/72C,,13/72] D,,5/24 [D,,4/21E,,4/21] D,,25/126 D,,7/36 D,,/5 D,,27/140 D,,45/224 
[D,,43/224C,,43/224] D,,47/252 [D,,13/63^C1817/288] D,,11/56 [D,,11/56C,,11/56] D,,47/224 D,,41/224 [D,,17/84C,,17/84] D,,4/21 D,,23/112 [D,,3/16E,,3/16] D,,/5 D,,27/140 D,,45/224 D,,43/224 D,,3/14 D,,5/28 D,,53/252 [D,,23/126C,,23/126=G905/288] D,,13/63 D,,47/252 
D,,17/84 D,,4/21 D,,23/112 [D,,3/16C,,3/16] D,,5/24 [D,,31/168E,,31/168] D,,29/140 D,,23/120 D,,5/24 D,,5/28 D,,3/14 [D,,5/28C,,5/28] D,,47/224 [D,,3/16=C705/224^F705/224] D,,19/96 [D,,7/36C,,7/36] D,,29/144 D,,3/16 [D,,5/24C,,5/24] D,,23/120 D,,/5 
[D,,23/120E,,23/120] D,,5/24 D,,3/16 D,,29/144 D,,7/36 D,,19/96 D,,3/16 D,,47/224 [D,,5/28C,,5/28D88/7] D,,3/14 D,,5/28 D,,5/24 D,,23/120 D,,29/140 [D,,31/168C,,31/168] D,,5/24 [D,,3/16E,,3/16] D,,23/112 D,,4/21 D,,17/84 D,,47/252 
D,,13/63 [D,,23/126C,,23/126] D,,53/252 [D,,5/28^C1585/252] D,,3/14 [D,,43/224C,,43/224] D,,45/224 D,,27/140 [D,,/5C,,/5] D,,3/16 D,,23/112 [D,,4/21E,,4/21] D,,17/84 D,,41/224 D,,47/224 D,,11/56 D,,11/56 D,,13/63 D,,47/252 [D,,43/224C,,43/224G793/252] D,,45/224 
D,,27/140 D,,/5 D,,7/36 D,,25/126 [D,,4/21C,,4/21] D,,5/24 [D,,13/72E,,13/72] D,,13/63 D,,11/56 D,,11/56 D,,47/224 D,,3/16 [D,,3/16C,,3/16] D,,59/288 [D,,17/90=C113/36F113/36] D,,/5 [D,,/5C,,/5] D,,/5 D,,31/160 [D,,19/96C,,19/96] D,,17/96 
D,,7/32 [D,,3/16E,,3/16] D,,5/24 D,,7/36 D,,55/288 D,,19/96 D,,4/21 D,,25/126 D,,7/36 [_B,,,/5C,,/5_B,189/20] B,,,/5 B,,,31/160 B,,,19/96 B,,,13/72 B,,,31/144 [B,,,3/16C,,3/16] B,,,5/24 [B,,,19/96E,,19/96] B,,,55/288 B,,,7/36 [z7/36B,,,5/24] 
B,,,29/144 B,,,3/16 [B,,,/5C,,/5] [B,,,33/160C,,33/160] [B,,,3/16C,,3/16^G,1007/160] B,,,33/160 [B,,,/5C,,/5] B,,,3/16 B,,,3/16 z/72 [B,,,7/36C,,7/36] B,,,7/36 B,,,55/288 [B,,,19/96E,,19/96] B,,,5/24 B,,,3/16 B,,,31/144 B,,,13/72 B,,,19/96 B,,,31/160 B,,,/5 [^C,,/5=C,,/5=F63/20] 
^C,,7/36 C,,25/126 C,,4/21 C,,19/96 C,,55/288 [C,,7/36=C,,7/36] ^C,,5/24 [C,,3/16E,,3/16] C,,7/32 C,,17/96 C,,19/96 C,,31/160 C,,/5 [C,,/5=C,,/5] [^C,,/5=C,,/5] [D,,17/90C,,17/90=G,503/160D503/160] D,,59/288 [D,,3/16C,,3/16] D,,3/16 D,,47/224 [D,,11/56C,,11/56] 
D,,11/56 D,,13/63 [D,,13/72E,,13/72] D,,5/24 D,,4/21 D,,25/126 D,,7/36 D,,/5 D,,27/140 D,,45/224 [D,,43/224C,,43/224D2819/224] D,,47/252 D,,13/63 D,,11/56 D,,11/56 D,,47/224 [D,,41/224C,,41/224] D,,17/84 [D,,4/21E,,4/21] D,,23/112 D,,3/16 
D,,/5 D,,27/140 D,,45/224 D,,43/224 D,,3/14 [D,,5/28C,,5/28^C201/32] D,,53/252 D,,23/126 D,,13/63 D,,47/252 D,,17/84 [D,,4/21C,,4/21] D,,23/112 [D,,3/16E,,3/16] D,,5/24 D,,31/168 D,,29/140 D,,23/120 D,,5/24 D,,5/28 D,,3/14 
[D,,5/28C,,5/28G703/224] D,,47/224 D,,3/16 D,,19/96 D,,7/36 D,,29/144 [D,,3/16C,,3/16] D,,5/24 [D,,23/120E,,23/120] D,,/5 D,,23/120 D,,5/24 D,,3/16 D,,29/144 D,,7/36 D,,19/96 [G,,,3/16C,,3/16=C705/224^F705/224] G,,,47/224 G,,,5/28 G,,,3/14 G,,,5/28 
G,,,5/24 [G,,,23/120C,,23/120] G,,,29/140 [G,,,31/168E,,31/168] G,,,5/24 G,,,3/16 G,,,23/112 G,,,4/21 G,,,17/84 G,,,47/252 G,,,13/63 [D,,23/126C,,23/126D88/7] D,,53/252 D,,5/28 D,,3/14 D,,43/224 D,,45/224 [D,,27/140C,,27/140] D,,/5 [D,,3/16E,,3/16] D,,23/112 
D,,4/21 D,,17/84 D,,41/224 D,,47/224 [D,,11/56C,,11/56] [D,,11/56C,,11/56] [D,,13/63C,,13/63^C44/7] D,,47/252 [D,,43/224C,,43/224] D,,45/224 D,,27/140 [D,,/5C,,/5] D,,7/36 D,,25/126 [D,,4/21E,,4/21] D,,5/24 D,,13/72 D,,13/63 D,,11/56 D,,11/56 D,,47/224 
D,,3/16 [D,,3/16C,,3/16G703/224] D,,59/288 D,,17/90 D,,/5 D,,/5 D,,/5 [D,,31/160C,,31/160] D,,19/96 [D,,17/96E,,17/96] D,,7/32 D,,3/16 D,,5/24 D,,7/36 D,,55/288 [D,,19/96C,,19/96] [D,,4/21C,,4/21] [G,,,25/126C,,25/126=C22/7F22/7] G,,,7/36 [G,,,/5C,,/5] G,,,/5 
G,,,31/160 [G,,,19/96C,,19/96] G,,,13/72 G,,,31/144 [G,,,3/16E,,3/16] G,,,5/24 G,,,19/96 G,,,55/288 G,,,7/36 [z7/36G,,,5/24] G,,,29/144 G,,,3/16 [^F,,/8D,,/5C,,/5D403/32] z3/40 [F,,9/80D,,33/160] z3/32 D,,3/16 [F,,19/224D,,33/160] z17/140 [F,,7/60D,,/5] z/12 [F,,/10D,,3/16] z7/80 [F,,5/48D,,3/16C,,3/16] z7/72 [F,,/9D,,7/36] z/12 [F,,13/96D,,7/36E,,7/36] z17/288 
[F,,19/288D,,55/288] z/8 [F,,/8D,,19/96] z7/96 [F,,/9D,,5/24] z7/72 [F,,/8D,,3/16] z/16 [F,,7/80D,,31/144] z23/180 [F,,5/63D,,13/72] z17/168 [F,,7/72D,,19/96] z29/288 [F,,/8D,,31/160C,,31/160^C1007/160] z11/160 [F,,7/80D,,/5] z9/80 [F,,7/60D,,/5] z/12 [F,,3/32D,,7/36] z29/288 [F,,43/288D,,25/126] z11/224 [F,,/14D,,4/21] z5/42 [F,,7/60D,,19/96C,,19/96] z13/160 [F,,3/32D,,55/288] z7/72 [F,,17/126D,,7/36E,,7/36] z5/84 [F,,/12D,,5/24] z/8 [F,,7/72D,,3/16] z13/144 [F,,3/32D,,7/32] z/8 [F,,13/96D,,17/96] z/24 [F,,19/168D,,19/96] z19/224 
[F,,3/32D,,31/160] z/10 [F,,7/80D,,/5] z9/80 [F,,11/80D,,/5C,,/5G63/20] z/16 [F,,3/32D,,/5] z17/160 [F,,/10D,,17/90] z4/45 [F,,23/288D,,59/288] z/8 [F,,37/288D,,3/16] z17/288 [F,,3/32D,,3/16] z3/32 [F,,11/96D,,47/224C,,47/224] z2/21 [F,,25/252D,,11/56] z7/72 [F,,/8D,,11/56E,,11/56] z/14 [F,,3/28D,,13/63] z25/252 [F,,/9D,,13/72] z5/72 [F,,5/48D,,5/24] z5/48 [F,,2/15D,,4/21] z2/35 [F,,25/224D,,25/126] z25/288 [F,,11/126D,,7/36] z3/28 [F,,/12D,,/5] z7/60 [F,,17/140D,,27/140C,,27/140=C503/160F503/160] z/14 [F,,5/63D,,45/224] z35/288 [F,,29/288D,,43/224] z23/252 
[F,,3/28D,,47/252] z5/63 [F,,11/72D,,13/63] z3/56 [F,,17/140D,,11/56] z3/40 [F,,7/72D,,11/56C,,11/56] z25/252 [F,,19/224D,,47/224] z/8 [F,,25/224D,,41/224E,,41/224] z/14 [F,,3/28D,,17/84] z2/21 [F,,11/96D,,4/21] z17/224 [F,,13/140D,,23/112] z9/80 [F,,19/144D,,3/16] z/18 [F,,/10D,,/5] z/10 [F,,9/80D,,27/140] z9/112 [F,,3/28D,,45/224] z3/32 [F,,/8D,,43/224C,,43/224D2819/224] z15/224 [F,,13/126D,,3/14] z/9 [F,,3/32D,,5/28] z19/224 [F,,23/224D,,53/252] z31/288 [F,,41/288D,,23/126] z9/224 [F,,13/112D,,13/63] z13/144 [F,,7/72D,,47/252C,,47/252] z5/56 [F,,3/28D,,17/84] z2/21 
[F,,/8D,,4/21E,,4/21] z11/168 [F,,13/140D,,23/112] z9/80 [F,,13/112D,,3/16] z/14 [F,,3/28D,,5/24] z17/168 [F,,13/96D,,31/168] z11/224 [F,,3/28D,,29/140] z/10 [F,,/10D,,23/120C,,23/120] z11/120 [F,,/12D,,5/24] z/8 [F,,/8D,,5/28^C44/7] z3/56 [F,,3/28D,,3/14] z3/28 [F,,3/28D,,5/28C,,5/28] z/14 [F,,9/70D,,47/224] z13/160 [F,,33/224D,,3/16] z9/224 [F,,/8D,,19/96C,,19/96] z7/96 [F,,5/42D,,7/36] z19/252 [F,,4/45D,,29/144] z9/80 [F,,11/80D,,3/16E,,3/16] z/20 [F,,3/32D,,5/24] z11/96 [F,,19/168D,,23/120] z11/140 [F,,/10D,,/5] z/10 [F,,3/20D,,23/120] z/24 
[F,,7/72D,,5/24] z/9 [F,,3/28D,,3/16] z9/112 [F,,9/80D,,29/144] z4/45 [F,,/9D,,7/36C,,7/36G793/252] z/12 [F,,/12D,,19/96] z11/96 [F,,25/224D,,3/16] z17/224 [F,,23/224D,,47/224] z3/28 [F,,/7D,,5/28] z/28 [F,,3/28D,,3/14] z3/28 [F,,2/21D,,5/28C,,5/28] z/12 [F,,3/28D,,5/24] z17/168 [F,,13/96D,,23/120E,,23/120] z9/160 [F,,/10D,,29/140] z3/28 [F,,17/168D,,31/168] z/12 [F,,11/96D,,5/24] z3/32 [F,,5/36D,,3/16] z7/144 [F,,9/80D,,23/112] z13/140 [F,,3/28D,,4/21C,,4/21] z/12 [F,,2/21D,,17/84] z3/28 [F,,11/84D,,47/252=C22/7F22/7] z/18 [F,,25/252D,,13/63] z3/28 
[F,,23/224D,,23/126C,,23/126] z23/288 [F,,5/36D,,53/252] z/14 [F,,23/168D,,5/28] z/24 [F,,/9D,,3/14C,,3/14] z13/126 [F,,11/112D,,43/224] z3/32 [F,,/8D,,45/224] z17/224 [F,,25/224D,,27/140E,,27/140] z13/160 [F,,17/160D,,/5] z3/32 [F,,/9D,,3/16] z11/144 [F,,/8D,,23/112] z9/112 [F,,25/168D,,4/21] z/24 [F,,/8D,,17/84] z13/168 [F,,13/126D,,41/224] z23/288 [F,,11/96D,,47/224] z2/21 [F,,17/140D,,11/56C,,11/56D3175/252] z3/40 [F,,3/32D,,11/56] z23/224 [F,,3/28D,,13/63] z25/252 [F,,5/63D,,47/252] z3/28 [F,,19/140D,,43/224] z9/160 [F,,35/288D,,45/224] z5/63 [F,,25/224D,,27/140C,,27/140] z13/160 
[F,,/10D,,/5] z/10 [F,,/8D,,7/36E,,7/36] z5/72 [F,,8/63D,,25/126] z/14 [F,,3/28D,,4/21] z/12 [F,,7/60D,,5/24] z11/120 [F,,23/168D,,13/72] z11/252 [F,,17/126D,,13/63] z/14 [F,,19/168D,,11/56C,,11/56] z/12 [F,,7/72D,,11/56] z25/252 [F,,9/70D,,47/224^C1585/252] z13/160 [F,,23/288D,,3/16] z31/288 [F,,23/224D,,3/16C,,3/16] z19/224 [F,,/8D,,59/288] z23/288 [F,,5/36D,,17/90] z/20 [F,,17/160D,,/5C,,/5] z3/32 [F,,3/32D,,/5] z17/160 [F,,9/80D,,/5] z7/80 [F,,19/140D,,31/160E,,31/160] z13/224 [F,,3/32D,,19/96] z5/48 [F,,/8D,,17/96] z5/96 [F,,31/224D,,7/32] z9/112 
[F,,/8D,,3/16] z/16 [F,,/8D,,5/24] z/12 [F,,5/48D,,7/36] z13/144 [F,,7/72D,,55/288] z3/32 [F,,31/224D,,19/96C,,19/96G905/288] z5/84 [F,,/12D,,4/21] z3/28 [F,,25/224D,,25/126] z25/288 [F,,29/288D,,7/36] z3/32 [F,,/7D,,/5] z2/35 [F,,17/140D,,/5] z11/140 [F,,/10D,,31/160C,,31/160] z3/32 [F,,29/288D,,19/96] z7/72 [F,,23/168D,,13/72E,,13/72] z11/252 [F,,17/126D,,31/144] z9/112 [F,,9/80D,,3/16] z3/40 [F,,/8D,,5/24] z/12 [F,,11/84D,,19/96] z15/224 [F,,25/224D,,55/288] z5/63 [F,,/9D,,7/36C,,7/36] z/12 [F,,11/96D,,5/24] z23/288 [F,,5/36D,,29/144=C19/6F19/6] z/16 
[F,,5/48D,,3/16] z/12 [F,,/7D,,/5C,,/5] z2/35 [F,,9/80D,,33/160] z3/32 [F,,23/160D,,3/16] z7/160 [F,,11/96D,,33/160C,,33/160] z11/120 [F,,4/45D,,/5] z/9 [F,,3/32D,,3/16] z3/32 [F,,15/112D,,3/16E,,3/16] z17/252 [F,,/9D,,7/36] z/12 [F,,7/60D,,7/36] z7/90 [F,,11/90D,,55/288] z11/160 [F,,41/288D,,19/96] z/18 [F,,11/96D,,5/24] z3/32 [F,,3/32D,,3/16] z3/32 [F,,13/112D,,31/144] z25/252 [F,,11/90D,,13/72C,,13/72D2263/180] z7/120 [F,,7/72D,,19/96] z29/288 [F,,35/288D,,31/160] z13/180 [F,,13/120D,,/5] z11/120 [F,,11/80D,,/5] z/16 [F,,3/32D,,7/36] z29/288 
[F,,7/72D,,25/126C,,25/126] z17/168 [F,,5/63D,,4/21] z/9 [F,,/8D,,19/96E,,19/96] z7/96 [F,,3/32D,,55/288] z7/72 [F,,35/288D,,7/36] z7/96 [F,,11/96D,,5/24] z3/32 [F,,/8D,,3/16] z/16 [F,,5/48D,,7/32] z11/96 [F,,25/224D,,17/96C,,17/96] z11/168 [F,,/8D,,19/96C,,19/96] z7/96 [F,,13/96D,,31/160C,,31/160^C1007/160] z7/120 [F,,4/35D,,/5] z3/35 [F,,7/60D,,/5C,,/5] z/12 [F,,3/32D,,/5] z17/160 [F,,23/160D,,17/90] z13/288 [F,,/9D,,59/288C,,59/288] z3/32 [F,,/16D,,3/16] z/8 [F,,/8D,,3/16] z/16 [F,,31/224D,,47/224E,,47/224] z/14 [F,,17/140D,,11/56] z3/40 [F,,3/32D,,11/56] z23/224 
[F,,13/112D,,13/63] z13/144 [F,,37/288D,,13/72] z5/96 [F,,5/48D,,5/24] z5/48 [F,,/9D,,4/21] z5/63 [F,,17/168D,,25/126] z7/72 [F,,31/252D,,7/36C,,7/36G283/90] z/14 [F,,/8D,,/5] z3/40 [F,,9/80D,,27/140] z9/112 [F,,3/28D,,45/224] z3/32 [F,,/8D,,43/224] z15/224 [F,,3/28D,,47/252] z5/63 [F,,25/252D,,13/63C,,13/63] z3/28 [F,,19/168D,,11/56] z/12 [F,,/8D,,11/56E,,11/56] z/14 [F,,31/252D,,47/224] z25/288 [F,,23/288D,,41/224] z13/126 [F,,11/112D,,17/84] z5/48 [F,,2/15D,,4/21] z2/35 [F,,17/168D,,23/112] z5/48 [F,,3/32D,,3/16C,,3/16] z3/32 [F,,/8D,,/5C,,/5] z3/40 
[F,,9/80D,,27/140C,,27/140=C63/20F63/20] z9/112 [F,,3/28D,,45/224] z3/32 [F,,17/160D,,43/224C,,43/224] z3/35 [F,,27/224D,,3/14] z3/32 [F,,/8D,,5/28] z3/56 [F,,17/140D,,53/252C,,53/252] z4/45 [F,,23/288D,,23/126] z23/224 [F,,3/28D,,13/63] z25/252 [F,,/9D,,47/252E,,47/252] z19/252 [F,,3/28D,,17/84] z2/21 [F,,11/96D,,4/21] z17/224 [F,,25/224D,,23/112] z3/32 [F,,/8D,,3/16] z/16 [F,,3/28D,,5/24] z17/168 [F,,7/72D,,31/168] z11/126 [F,,17/126D,,29/140] z13/180 [F,,19/160G,,,23/120C,,23/120^G1761/140] z7/96 [F,,17/168G,,,5/24] z3/28 [F,,3/32G,,,5/28] z19/224 [F,,3/28G,,,3/14] z3/28 [F,,3/28G,,,5/28] z/14 
[F,,13/112G,,,47/224] z3/32 [F,,23/288G,,,3/16C,,3/16] z31/288 [F,,23/224G,,,19/96] z2/21 [F,,5/42G,,,7/36E,,7/36] z19/252 [F,,13/126G,,,29/144] z11/112 [F,,5/48G,,,3/16] z/12 [F,,3/28G,,,5/24] z17/168 [F,,13/96G,,,23/120] z9/160 [F,,/10G,,,/5] z/10 [F,,7/80G,,,23/120C,,23/120] z5/48 [F,,/8G,,,5/24C,,5/24] z/12 [F,,3/28G,,,3/16C,,3/16F44/7] z9/112 [F,,9/80G,,,29/144] z4/45 [F,,23/288G,,,7/36C,,7/36] z11/96 [F,,2/21G,,,19/96] z23/224 [G,,,3/16F,,43/160] [G,,,47/224C,,47/224] [F,,25/252G,,,5/28] z5/63 [F,,3/28G,,,3/14] z3/28 [F,,13/112G,,,5/28E,,5/28] z/16 [F,,3/28G,,,5/24] z17/168 
[F,,19/168G,,,23/120] z11/140 [F,,/10G,,,29/140] z3/28 [F,,/7G,,,31/168] z/24 [F,,17/168G,,,5/24] z3/28 [F,,/10G,,,3/16] z7/80 [F,,5/48G,,,23/112] z17/168 [F,,17/126G,,,4/21C,,4/21c22/7] z/18 [F,,/12G,,,17/84] z5/42 [F,,3/28G,,,47/252] z5/63 [F,,25/252G,,,13/63] z3/28 [F,,15/112G,,,23/126] z7/144 [F,,/9G,,,53/252] z25/252 [F,,19/224G,,,5/28C,,5/28] z3/32 [F,,/9G,,,3/14] z13/126 [F,,3/28G,,,43/224E,,43/224] z19/224 [F,,3/32G,,,45/224] z3/28 [F,,25/224G,,,27/140] z13/160 [F,,17/160G,,,/5] z3/32 [F,,/8G,,,3/16] z/16 [F,,5/48G,,,23/112] z17/168 [F,,3/28G,,,4/21C,,4/21] z/12 
[F,,7/60G,,,17/84C,,17/84] z3/35 [F,,27/224G,,,41/224C,,41/224=F22/7B22/7] z/16 [F,,23/224G,,,47/224] z3/28 [F,,19/168G,,,11/56C,,11/56] z/12 [F,,3/32G,,,11/56] z23/224 [G,,,13/63F,,61/224] [G,,,47/252C,,47/252] [F,,3/28G,,,43/224] z19/224 [F,,3/32G,,,45/224] z3/28 [F,,25/224G,,,27/140E,,27/140] z13/160 [F,,/10G,,,/5] z/10 [F,,3/28G,,,7/36] z11/126 [F,,23/252G,,,25/126] z3/28 [F,,31/224G,,,4/21] z5/96 [F,,5/48G,,,5/24] z5/48 [F,,17/168G,,,13/72] z5/63 [F,,/9G,,,13/63] z2/21 [F,,8/63G,,,11/56C,,11/56G2823/224] z5/72 [F,,7/72G,,,11/56] z25/252 [F,,13/112G,,,47/224] z3/32 [F,,23/288G,,,3/16] z31/288 
[F,,31/224G,,,3/16] z11/224 [F,,3/32G,,,59/288] z/9 [F,,4/45G,,,17/90C,,17/90] z/10 [F,,13/140G,,,/5] z3/28 [F,,/8G,,,/5E,,/5] z3/40 [F,,/10G,,,/5] z/10 [F,,/10G,,,31/160] z3/32 [F,,19/224G,,,19/96] z19/168 [F,,11/96G,,,17/96] z/16 [F,,11/96G,,,7/32] z5/48 [F,,13/144G,,,3/16C,,3/16] z7/72 [F,,3/32G,,,5/24C,,5/24] z11/96 [F,,5/48G,,,7/36C,,7/36^F151/24] z13/144 [F,,/9G,,,55/288] z23/288 [G,,,19/96C,,19/96] [F,,/12G,,,4/21] z3/28 [F,,/7G,,,25/126] z/18 [F,,/9G,,,7/36C,,7/36] z/12 [F,,3/28G,,,/5] z13/140 [F,,9/80G,,,/5] z7/80 [F,,19/140G,,,31/160E,,31/160] z13/224 
[F,,/16G,,,19/96] z13/96 [F,,11/96G,,,13/72] z19/288 [F,,/9G,,,31/144] z5/48 [F,,15/112G,,,3/16] z3/56 [F,,3/32G,,,5/24] z11/96 [F,,/12G,,,19/96] z11/96 [F,,3/32G,,,55/288] z7/72 [F,,23/180G,,,7/36C,,7/36c227/72] z/15 [F,,/12G,,,5/24] z/9 [F,,/9G,,,29/144] z13/144 [F,,3/32G,,,3/16] z3/32 [F,,5/32G,,,/5] z7/160 [F,,13/160G,,,33/160] z/8 [F,,/8G,,,3/16C,,3/16] z/16 [F,,17/160G,,,33/160] z/10 [F,,7/60G,,,/5E,,/5] z/12 [F,,/14G,,,3/16] z13/112 [F,,9/80G,,,3/16] z4/45 [F,,23/288G,,,7/36] z11/96 [F,,5/36G,,,7/36] z/18 [F,,/9G,,,55/288] z23/288 
[F,,11/96G,,,19/96C,,19/96] z/12 [F,,/12G,,,5/24C,,5/24] z/8 [F,,/8G,,,3/16C,,3/16=F101/32B101/32] z/16 [F,,5/48G,,,31/144] z/9 [F,,5/63G,,,13/72C,,13/72] z17/168 [F,,/12G,,,19/96] z11/96 [F,,23/160G,,,31/160] z/20 [F,,/10G,,,/5C,,/5] z/10 [F,,/10G,,,/5] z/10 [F,,3/32G,,,7/36] z29/288 [F,,8/63G,,,25/126E,,25/126] z/14 [F,,3/28G,,,4/21] z/12 [F,,7/60G,,,19/96] z13/160 [F,,3/32G,,,55/288] z7/72 [F,,17/126G,,,7/36] z5/84 [F,,/8G,,,5/24] z/12 [F,,5/56G,,,3/16] z11/112 [F,,3/32G,,,7/32] z/8 [F,,25/224D,,17/96C,,17/96D2011/160] z11/168 [F,,11/120D,,19/96] z17/160 [F,,3/32D,,31/160] z/10 
[F,,/10D,,/5] z/10 [F,,11/80D,,/5] z/16 [F,,/9D,,/5] z4/45 [F,,/10D,,17/90C,,17/90] z4/45 [F,,23/288D,,59/288] z/8 [F,,27/224D,,3/16E,,3/16] z15/224 [F,,25/224D,,3/16] z17/224 [F,,/8D,,47/224] z19/224 [F,,25/252D,,11/56] z7/72 [F,,/8D,,11/56] z/14 [F,,2/21D,,13/63] z/9 [F,,/9D,,13/72C,,13/72] z5/72 [F,,19/168D,,5/24] z2/21 [F,,5/42D,,4/21^C151/24] z/14 [F,,17/168D,,25/126] z7/72 [F,,29/288D,,7/36C,,7/36] z3/32 [F,,/10D,,/5] z/10 [F,,2/15D,,27/140] z5/84 [F,,3/28D,,45/224C,,45/224] z3/32 [F,,29/288D,,43/224] z23/252 [F,,3/28D,,47/252] z5/63 
[F,,17/126D,,13/63E,,13/63] z/14 [F,,23/224D,,11/56] z3/32 [F,,/8D,,11/56] z/14 [F,,3/28D,,47/224] z23/224 [F,,/8D,,41/224] z13/224 [F,,11/112D,,17/84] z5/48 [F,,11/96D,,4/21] z17/224 [F,,13/140D,,23/112] z9/80 [F,,19/144D,,3/16C,,3/16=G151/48] z/18 [F,,/10D,,/5] z/10 [F,,9/80D,,27/140] z9/112 [F,,31/224D,,45/224] z/16 [F,,5/32D,,43/224] z/28 [F,,27/224D,,3/14] z3/32 [F,,/10D,,5/28C,,5/28] z11/140 [F,,25/252D,,53/252] z/9 [F,,41/288D,,23/126E,,23/126] z9/224 [F,,2/21D,,13/63] z/9 [F,,/9D,,47/252] z19/252 [F,,5/42D,,17/84] z/12 [F,,7/48D,,4/21] z5/112 
[F,,13/140D,,23/112] z9/80 [F,,13/112D,,3/16C,,3/16] z/14 [F,,3/28D,,5/24] z17/168 [F,,19/168D,,31/168=C377/120^F377/120] z/14 [F,,5/63D,,29/140] z23/180 [F,,13/120D,,23/120C,,23/120] z/12 [F,,17/168D,,5/24] z3/28 [F,,5/36D,,5/28] z5/126 [F,,3/28D,,3/14C,,3/14] z3/28 [F,,5/63D,,5/28] z25/252 [F,,3/28D,,47/224] z23/224 [F,,13/96D,,3/16E,,3/16] z5/96 [F,,23/224D,,19/96] z2/21 [F,,11/96D,,7/36] z23/288 [F,,/9D,,29/144] z13/144 [F,,11/80D,,3/16] z/20 [F,,/8D,,5/24] z/12 [F,,19/168D,,23/120] z11/140 [F,,/10D,,/5] z/10 [F,,11/90D,,23/120C,,23/120D1007/80] z5/72 [F,,17/168D,,5/24] z3/28 
[F,,3/32D,,3/16] z3/32 [F,,/8D,,29/144] z11/144 [F,,41/288D,,7/36] z5/96 [F,,2/21D,,19/96] z23/224 [F,,3/32D,,3/16C,,3/16] z3/32 [F,,/8D,,47/224] z19/224 [F,,3/28D,,5/28E,,5/28] z/14 [F,,25/224D,,3/14] z23/224 [F,,3/28D,,5/28] z/14 [F,,5/36D,,5/24] z5/72 [F,,25/168D,,23/120] z3/70 [F,,23/180D,,29/140] z5/63 [F,,17/168D,,31/168C,,31/168] z/12 [F,,17/168D,,5/24] z3/28 [F,,/8D,,3/16^C151/24] z/16 [F,,5/48D,,23/112] z17/168 [F,,3/28D,,4/21C,,4/21] z/12 [F,,2/21D,,17/84] z3/28 [F,,11/84D,,47/252] z/18 [F,,/9D,,13/63C,,13/63] z2/21 [F,,19/168D,,23/126] z5/72 
[F,,31/288D,,53/252] z23/224 [F,,31/252D,,5/28E,,5/28] z/18 [F,,/7D,,3/14] z/14 [F,,11/112D,,43/224] z3/32 [F,,/8D,,45/224] z17/224 [F,,/7D,,27/140] z/20 [F,,7/60D,,/5] z/12 [F,,/9D,,3/16] z11/144 [F,,5/48D,,23/112] z17/168 [F,,31/224D,,4/21C,,4/21G529/168] z5/96 [F,,5/48D,,17/84] z11/112 [F,,13/126D,,41/224] z23/288 [F,,/8D,,47/224] z19/224 [F,,15/112D,,11/56] z/16 [F,,3/32D,,11/56] z23/224 [F,,2/21D,,13/63C,,13/63] z/9 [F,,7/72D,,47/252] z5/56 [F,,19/140D,,43/224E,,43/224] z9/160 [F,,3/32D,,45/224] z3/28 [F,,25/224D,,27/140] z13/160 [F,,9/70D,,/5] z/14 
[F,,/8D,,7/36] z5/72 [F,,/9D,,25/126] z11/126 [F,,3/28D,,4/21C,,4/21] z/12 [F,,5/48D,,5/24] z5/48 [F,,23/168D,,13/72=C151/48F151/48] z11/252 [F,,25/252D,,13/63] z3/28 [F,,19/168D,,11/56C,,11/56] z/12 [F,,7/72D,,11/56] z25/252 [F,,23/168D,,47/224] z7/96 [F,,25/224D,,3/16C,,3/16] z17/224 [F,,3/32D,,3/16] z3/32 [F,,3/32D,,59/288] z/9 [F,,5/36D,,17/90E,,17/90] z/20 [F,,9/70D,,/5] z/14 [F,,/8D,,/5] z3/40 [F,,9/80D,,/5] z7/80 [F,,19/140D,,31/160] z13/224 [F,,27/224D,,19/96] z13/168 [F,,11/96D,,17/96] z/16 [F,,11/96D,,7/32] z5/48 [F,,15/112B,,,3/16C,,3/16B,151/16] z3/56 
[F,,/8B,,,5/24] z/12 [F,,11/84B,,,7/36] z4/63 [F,,/9B,,,55/288] z23/288 [F,,41/288B,,,19/96] z/18 [F,,/9B,,,4/21] z5/63 [F,,17/168B,,,25/126C,,25/126] z7/72 [F,,29/288B,,,7/36] z3/32 [F,,/7B,,,/5E,,/5] z2/35 [F,,9/80B,,,/5] z7/80 [F,,23/180B,,,31/160] z19/288 [F,,27/224B,,,19/96] z13/168 [F,,23/168B,,,13/72] z11/252 [F,,23/180B,,,31/144] z7/80 [F,,5/48B,,,3/16C,,3/16] z/12 [F,,/8B,,,5/24C,,5/24] z/12 [F,,11/84B,,,19/96C,,19/96^G,151/24] z15/224 [F,,3/32B,,,55/288] z7/72 [F,,/9B,,,7/36C,,7/36] z/12 [F,,11/96B,,,5/24] z23/288 [F,,5/36B,,,29/144] z/16 [F,,3/32B,,,3/16C,,3/16] z3/32 
[F,,/9B,,,/5] z4/45 [F,,/10B,,,33/160] z17/160 [F,,/8B,,,3/16E,,3/16] z/16 [F,,17/160B,,,33/160] z/10 [F,,17/160B,,,/5] z3/32 [F,,3/32B,,,3/16] z3/32 [F,,15/112B,,,3/16] z17/252 [F,,23/288B,,,7/36] z11/96 [F,,/8B,,,7/36] z5/72 [F,,11/90B,,,55/288] z11/160 [F,,41/288^C,,19/96=C,,19/96=F101/32] z/18 [F,,11/96^C,,5/24] z3/32 [F,,3/32C,,3/16] z3/32 [F,,5/48C,,31/144] z/9 [F,,37/288C,,13/72] z5/96 [F,,19/168C,,19/96] z19/224 [F,,19/288C,,31/160=C,,31/160] z23/180 [F,,19/160^C,,/5] z13/160 [F,,9/70C,,/5E,,/5] z/14 [F,,3/28C,,7/36] z11/126 [F,,7/72C,,25/126] z17/168 
[F,,3/28C,,4/21] z/12 [F,,13/96C,,19/96] z/16 [F,,3/32C,,55/288] z7/72 [F,,/9C,,7/36=C,,7/36] z/12 [F,,11/96^C,,5/24=C,,5/24] z3/32 [F,,/8D,,3/16C,,3/16=G,227/72D227/72] z/16 [F,,/8D,,7/32] z3/32 [F,,3/32D,,17/96C,,17/96] z/12 [F,,19/168D,,19/96] z19/224 [F,,13/96D,,31/160] z7/120 [F,,4/35D,,/5C,,/5] z3/35 [F,,13/140D,,/5] z3/28 [F,,3/28D,,/5] z13/140 [F,,9/80D,,17/90E,,17/90] z11/144 [F,,/9D,,59/288] z3/32 [F,,19/224D,,3/16] z23/224 [F,,3/32D,,3/16] z3/32 [F,,41/288D,,47/224] z17/252 [F,,25/252D,,11/56] z7/72 [F,,3/32D,,11/56] z23/224 [F,,13/112D,,13/63] z13/144 
[F,,/9D,,13/72C,,13/72D1585/126] z5/72 [F,,19/168D,,5/24] z2/21 [F,,/9D,,4/21] z5/63 [F,,25/224D,,25/126] z25/288 [F,,19/144D,,7/36] z/16 [F,,/8D,,/5] z3/40 [F,,/10D,,27/140C,,27/140] z13/140 [F,,3/28D,,45/224] z3/32 [F,,11/96D,,43/224E,,43/224] z13/168 [F,,3/28D,,47/252] z5/63 [F,,23/180D,,13/63] z11/140 [F,,17/140D,,11/56] z3/40 [F,,/8D,,11/56] z/14 [F,,3/28D,,47/224] z23/224 [F,,3/32D,,41/224] z5/56 [F,,5/42D,,17/84] z/12 [F,,/8D,,4/21C,,4/21^C151/24] z11/168 [F,,17/168D,,23/112] z5/48 [F,,3/32D,,3/16] z3/32 [F,,/10D,,/5] z/10 [F,,17/140D,,27/140] z/14 
[F,,3/28D,,45/224] z3/32 [F,,3/32D,,43/224C,,43/224] z11/112 [F,,13/126D,,3/14] z/9 [F,,/10D,,5/28E,,5/28] z11/140 [F,,23/224D,,53/252] z31/288 [F,,23/288D,,23/126] z23/224 [F,,3/28D,,13/63] z25/252 [F,,37/288D,,47/252] z13/224 [F,,3/28D,,17/84] z2/21 [F,,/12D,,4/21] z3/28 [F,,25/224D,,23/112] z3/32 [F,,13/112D,,3/16C,,3/16G151/48] z/14 [F,,3/28D,,5/24] z17/168 [F,,/12D,,31/168] z17/168 [F,,3/28D,,29/140] z/10 [D,,23/120F,,47/180] D,,5/24 [F,,3/32D,,5/28C,,5/28] z19/224 [F,,3/28D,,3/14] z3/28 [F,,3/28D,,5/28E,,5/28] z/14 [F,,3/28D,,47/224] z23/224 
[F,,25/224D,,3/16] z17/224 [F,,23/224D,,19/96] z2/21 [F,,13/84D,,7/36] z5/126 [F,,4/45D,,29/144] z9/80 [F,,5/48D,,3/16] z/12 [F,,3/28D,,5/24] z17/168 [F,,/8G,,,23/120C,,23/120=C529/168^F529/168] z/15 [F,,/10G,,,/5] z/10 [F,,/10G,,,23/120] z11/120 [F,,17/168G,,,5/24] z3/28 [F,,/8G,,,3/16] z/16 [F,,9/80G,,,29/144] z4/45 [F,,23/288G,,,7/36C,,7/36] z11/96 [F,,2/21G,,,19/96] z23/224 [F,,25/224G,,,3/16E,,3/16] z17/224 [F,,23/224G,,,47/224] z3/28 [F,,3/28G,,,5/28] z/14 [F,,25/224G,,,3/14] z23/224 [F,,13/112G,,,5/28] z/16 [F,,3/28G,,,5/24] z17/168 [F,,5/48G,,,23/120] z7/80 
[F,,23/180G,,,29/140] z5/63 [F,,25/224D,,31/168C,,31/168D1409/112] z7/96 [F,,17/168D,,5/24] z3/28 [F,,3/28D,,3/16] z9/112 [F,,9/80D,,23/112] z13/140 [D,,4/21F,,59/224] D,,17/84 [F,,3/28D,,47/252C,,47/252] z5/63 [F,,25/252D,,13/63] z3/28 [F,,19/168D,,23/126E,,23/126] z5/72 [F,,31/288D,,53/252] z23/224 [F,,2/21D,,5/28] z/12 [F,,/10D,,3/14] z4/35 [F,,19/140D,,43/224] z9/160 [F,,3/32D,,45/224] z3/28 [F,,17/168D,,27/140C,,27/140] z11/120 [F,,/10D,,/5C,,/5] z/10 [F,,/8D,,3/16C,,3/16^C151/24] z/16 [F,,5/48D,,23/112] z17/168 [F,,3/28D,,4/21C,,4/21] z/12 [F,,5/48D,,17/84] z11/112 
[F,,11/84D,,41/224] z5/96 [F,,11/96D,,47/224C,,47/224] z2/21 [F,,25/252D,,11/56] z7/72 [F,,/12D,,11/56] z19/168 [F,,13/112D,,13/63E,,13/63] z13/144 [F,,5/63D,,47/252] z3/28 [F,,5/42D,,43/224] z7/96 [F,,3/32D,,45/224] z3/28 [F,,25/224D,,27/140] z13/160 [F,,/10D,,/5] z/10 [F,,3/32D,,7/36] z29/288 [F,,7/72D,,25/126] z17/168 [F,,3/28D,,4/21C,,4/21G529/168] z/12 [F,,7/60D,,5/24] z11/120 [F,,/12D,,13/72] z7/72 [F,,/9D,,13/63] z2/21 [D,,11/56F,,19/70] D,,11/56 [F,,3/28D,,47/224C,,47/224] z23/224 [F,,23/288D,,3/16] z31/288 [F,,/8D,,3/16E,,3/16] z/16 
[F,,3/32D,,59/288] z/9 [F,,/9D,,17/90] z7/90 [F,,17/160D,,/5] z3/32 [F,,3/20D,,/5] z/20 [F,,3/35D,,/5] z4/35 [F,,/10D,,31/160C,,31/160] z3/32 [F,,3/32D,,19/96C,,19/96] z5/48 [F,,/8G,,,17/96C,,17/96=C151/48F151/48] z5/96 [F,,23/224G,,,7/32] z13/112 [F,,11/112G,,,3/16C,,3/16] z5/56 [F,,3/32G,,,5/24] z11/96 [F,,11/84G,,,7/36] z4/63 [F,,/9G,,,55/288C,,55/288] z23/288 [F,,3/32G,,,19/96] z5/48 [F,,/9G,,,4/21] z5/63 [F,,25/224G,,,25/126E,,25/126] z25/288 [F,,29/288G,,,7/36] z3/32 [F,,/8G,,,/5] z3/40 [F,,9/80G,,,/5] z7/80 [F,,23/180G,,,31/160] z19/288 [F,,29/288G,,,19/96] z7/72 
[F,,17/168G,,,13/72] z5/63 [F,,23/180G,,,31/144] z7/80 [=B,15/112D,,3/16C,,3/16D403/32] z3/56 D,,5/24 D,,19/96 D,,55/288 [B,11/72D,,7/36] z/24 [z7/36D,,5/24] [D,,29/144C,,29/144] D,,3/16 [B,/7D,,/5E,,/5] z2/35 D,,33/160 D,,3/16 D,,33/160 [B,13/90D,,/5] z/18 D,,3/16 D,,3/16 z/72 D,,7/36 [B,5/36D,,7/36C,,7/36^C151/24] z/18 D,,55/288 D,,19/96 
D,,5/24 [B,5/32D,,3/16] z/32 D,,31/144 [D,,13/72C,,13/72] D,,19/96 [B,23/160D,,31/160E,,31/160] z/20 D,,/5 D,,/5 D,,7/36 [B,43/288D,,25/126] z11/224 D,,4/21 D,,19/96 D,,55/288 [B,17/126D,,7/36C,,7/36G227/72] z5/84 D,,5/24 D,,3/16 D,,7/32 [B,13/96D,,17/96] z/24 D,,19/96 [D,,31/160C,,31/160] D,,/5 
[B,3/20D,,/5E,,/5] z/20 D,,/5 D,,17/90 D,,59/288 [B,37/288D,,3/16] z17/288 D,,3/16 D,,47/224 D,,11/56 [B,5/32D,,11/56C,,11/56=C101/32F101/32] z9/224 D,,13/63 D,,13/72 D,,5/24 [B,13/84D,,4/21] z/28 D,,25/126 [D,,7/36C,,7/36] D,,/5 [B,7/40D,,27/140E,,27/140] z/56 D,,45/224 D,,43/224 [B,9/140D,,47/252] z11/90 [B,11/72D,,13/63] z3/56 
D,,11/56 D,,11/56 D,,47/224 [B,/8D,,41/224C,,41/224D2817/224] z13/224 D,,17/84 D,,4/21 D,,23/112 [B,7/48D,,3/16] z/24 D,,/5 [D,,27/140C,,27/140] D,,45/224 [B,37/288D,,43/224E,,43/224] z4/63 D,,3/14 D,,5/28 D,,53/252 [B,41/288D,,23/126] z9/224 D,,13/63 [D,,47/252C,,47/252] D,,17/84 [B,7/48D,,4/21^C151/24] z5/112 D,,23/112 
[D,,3/16C,,3/16] D,,5/24 [B,13/96D,,31/168] z11/224 [D,,29/140C,,29/140] D,,23/120 D,,5/24 [B,5/36D,,5/28E,,5/28] z5/126 D,,3/14 D,,5/28 D,,47/224 [B,5/32D,,3/16] z/32 D,,19/96 D,,7/36 [B,/18D,,29/144] z7/48 [B,7/48D,,3/16C,,3/16G151/48] z/24 D,,5/24 D,,23/120 D,,/5 [B,3/20D,,23/120] z/24 D,,5/24 [D,,3/16C,,3/16] 
D,,29/144 [B,37/252D,,7/36E,,7/36] z/21 D,,19/96 D,,3/16 D,,47/224 [B,/7D,,5/28] z/28 D,,3/14 [D,,5/28C,,5/28] D,,5/24 [B,25/168D,,23/120=C529/168F529/168] z3/70 D,,29/140 [D,,31/168C,,31/168] [B,17/168D,,5/24] z3/28 [B,5/36D,,3/16] z7/144 [D,,23/112C,,23/112] D,,4/21 D,,17/84 [B,3/28D,,47/252E,,47/252] z5/63 D,,13/63 [B,/14D,,23/126] z/9 D,,53/252 
[B,31/252D,,5/28] z/18 D,,3/14 D,,43/224 D,,45/224 [B,/7D,,27/140C,,27/140D1409/112] z/20 D,,/5 D,,3/16 D,,23/112 [B,31/224D,,4/21] z5/96 D,,17/84 [D,,41/224C,,41/224] D,,47/224 [B,17/140D,,11/56E,,11/56] z3/40 D,,11/56 D,,13/63 D,,47/252 [B,29/224D,,43/224] z/16 D,,45/224 [D,,27/140C,,27/140] D,,/5 [B,/8D,,7/36^C151/24] z5/72 
D,,25/126 [D,,4/21C,,4/21] D,,5/24 [B,23/168D,,13/72] z11/252 [D,,13/63C,,13/63] D,,11/56 [B,3/56D,,11/56] z/7 [B,23/168D,,47/224E,,47/224] z7/96 D,,3/16 D,,3/16 D,,59/288 [B,/9D,,17/90] z7/90 D,,/5 D,,/5 D,,/5 [B,/10D,,31/160C,,31/160G377/120] z3/32 D,,19/96 D,,17/96 D,,7/32 [B,9/80D,,3/16] z3/40 D,,5/24 
[D,,7/36C,,7/36] D,,55/288 [B,/8D,,19/96E,,19/96] z7/96 D,,4/21 D,,25/126 D,,7/36 [B,5/36D,,/5] z11/180 D,,/5 [D,,31/160C,,31/160] D,,19/96 [B,11/96D,,13/72=C151/48F151/48] z19/288 D,,31/144 [B,9/80D,,3/16C,,3/16] z3/40 D,,5/24 [B,11/84D,,19/96] z15/224 [D,,55/288C,,55/288] D,,7/36 [z7/36D,,5/24] [B,5/36D,,29/144E,,29/144] z/16 D,,3/16 D,,/5 
D,,33/160 [B,/8D,,3/16] z/16 D,,33/160 D,,/5 D,,3/16 [B,9/80D,,3/16C,,3/16D1813/144] z4/45 D,,7/36 D,,7/36 D,,55/288 [B,/8D,,19/96] z7/96 D,,5/24 [D,,3/16C,,3/16] D,,31/144 [B,5/63D,,13/72E,,13/72] z17/168 D,,19/96 D,,31/160 D,,/5 [B,7/60D,,/5] z/12 D,,7/36 [D,,25/126C,,25/126] [D,,4/21C,,4/21] 
[B,7/60D,,19/96C,,19/96^C151/24] z13/160 D,,55/288 [D,,7/36C,,7/36] D,,5/24 [B,7/72D,,3/16] z13/144 [D,,7/32C,,7/32] D,,17/96 D,,19/96 [B,/8D,,31/160E,,31/160] z11/160 D,,/5 [B,17/160D,,/5] z3/32 D,,/5 [B,17/140D,,17/90] z17/252 D,,59/288 D,,3/16 D,,3/16 [B,/8D,,47/224C,,47/224G101/32] z19/224 D,,11/56 D,,11/56 D,,13/63 [B,/9D,,13/72] z5/72 
D,,5/24 [D,,4/21C,,4/21] D,,25/126 [B,/9D,,7/36E,,7/36] z/12 D,,/5 D,,27/140 D,,45/224 [B,11/96D,,43/224] z13/168 D,,47/252 [D,,13/63C,,13/63] [D,,11/56C,,11/56] [B,/8D,,11/56C,,11/56=C227/72F227/72] z/14 D,,47/224 [D,,41/224C,,41/224] D,,17/84 [B,11/96D,,4/21] z17/224 [D,,23/112C,,23/112] D,,3/16 D,,/5 [B,17/140D,,27/140E,,27/140] z/14 D,,45/224 
D,,43/224 [B,13/224D,,3/14] z5/32 [B,/10D,,5/28] z11/140 D,,53/252 D,,23/126 D,,13/63 [F,/9G,,,47/252C,,47/252^G1585/126] z19/252 G,,,17/84 G,,,4/21 G,,,23/112 [F,11/80G,,,3/16] z/20 G,,,5/24 [G,,,31/168C,,31/168] G,,,29/140 [F,19/160G,,,23/120E,,23/120] z7/96 G,,,5/24 G,,,5/28 G,,,3/14 [F,31/224G,,,5/28] z9/224 G,,,47/224 [G,,,3/16C,,3/16] 
[G,,,19/96C,,19/96] [F,5/36G,,,7/36C,,7/36F529/84] z/18 G,,,29/144 [G,,,3/16C,,3/16] G,,,5/24 [F,/8G,,,23/120] z/15 [G,,,/5C,,/5] G,,,23/120 G,,,5/24 [F,/9G,,,3/16E,,3/16] z11/144 G,,,29/144 G,,,7/36 G,,,19/96 [F,13/96G,,,3/16] z5/96 G,,,47/224 G,,,5/28 G,,,3/14 [F,9/70G,,,5/28C,,5/28c22/7] z/20 G,,,5/24 G,,,23/120 G,,,29/140 
[F,/7G,,,31/168] z/24 G,,,5/24 [G,,,3/16C,,3/16] G,,,23/112 [F,/7G,,,4/21E,,4/21] z/21 G,,,17/84 G,,,47/252 G,,,13/63 [F,13/84G,,,23/126] z/36 G,,,53/252 [G,,,5/28C,,5/28] [G,,,3/14C,,3/14] [F,19/140G,,,43/224C,,43/224=F22/7B22/7] z9/160 G,,,45/224 [G,,,27/140C,,27/140] G,,,/5 [F,/7G,,,3/16] z5/112 [G,,,23/112C,,23/112] G,,,4/21 G,,,17/84 [F,/7G,,,41/224E,,41/224] z9/224 
G,,,47/224 G,,,11/56 G,,,11/56 [F,19/126G,,,13/63] z/18 G,,,47/252 G,,,43/224 G,,,45/224 [F,39/224G,,,27/140C,,27/140G793/63] z3/160 G,,,/5 G,,,7/36 G,,,25/126 [F,11/70G,,,4/21] z/30 G,,,5/24 [G,,,13/72C,,13/72] G,,,13/63 [F,/7G,,,11/56E,,11/56] z3/56 G,,,11/56 G,,,47/224 G,,,3/16 [F,31/224G,,,3/16] z11/224 G,,,59/288 
[G,,,17/90C,,17/90] [G,,,/5C,,/5] [F,/7G,,,/5C,,/5^F63/10] z2/35 G,,,/5 [G,,,31/160C,,31/160] G,,,19/96 [F,7/48G,,,17/96] z/32 [G,,,7/32C,,7/32] G,,,3/16 G,,,5/24 [F,5/36G,,,7/36E,,7/36] z/18 G,,,55/288 G,,,19/96 G,,,4/21 [F,/7G,,,25/126] z/18 G,,,7/36 G,,,/5 G,,,/5 [F,3/20G,,,31/160C,,31/160c63/20] z7/160 G,,,19/96 G,,,13/72 
G,,,31/144 [F,7/48G,,,3/16] z/24 G,,,5/24 [G,,,19/96C,,19/96] G,,,55/288 [F,11/72G,,,7/36E,,7/36] z/24 [z7/36G,,,5/24] G,,,29/144 G,,,3/16 [F,5/32G,,,/5] z7/160 G,,,33/160 [G,,,3/16C,,3/16] [G,,,33/160C,,33/160] [F,9/70G,,,/5C,,/5=F283/90B283/90] z/14 G,,,3/16 [G,,,3/16C,,3/16] z/72 G,,,7/36 [F,5/36G,,,7/36] z/18 [G,,,55/288C,,55/288] G,,,19/96 G,,,5/24 
[F,/8G,,,3/16E,,3/16] z/16 G,,,31/144 G,,,13/72 G,,,19/96 [F,23/160G,,,31/160] z/20 G,,,/5 G,,,/5 G,,,7/36 [B,5/36D,,25/126C,,25/126D3625/288] z5/84 D,,4/21 D,,19/96 D,,55/288 [B,17/126D,,7/36] z5/84 D,,5/24 [D,,3/16C,,3/16] D,,7/32 [B,25/224D,,17/96E,,17/96] z11/168 D,,19/96 D,,31/160 D,,/5 [B,7/60D,,/5] z/12 
D,,/5 [D,,17/90C,,17/90] D,,59/288 [B,37/288D,,3/16^C1813/288] z17/288 D,,3/16 [D,,47/224C,,47/224] D,,11/56 [B,/8D,,11/56] z/14 [D,,13/63C,,13/63] D,,13/72 D,,5/24 [B,7/48D,,4/21E,,4/21] z5/112 D,,25/126 D,,7/36 [B,/20D,,/5] z3/20 [B,2/15D,,27/140] z5/84 D,,45/224 D,,43/224 D,,47/252 [B,23/180D,,13/63C,,13/63=G227/72] z11/140 D,,11/56 
D,,11/56 D,,47/224 [B,25/224D,,41/224] z/14 D,,17/84 [D,,4/21C,,4/21] D,,23/112 [B,5/48D,,3/16E,,3/16] z/12 D,,/5 [B,/10D,,27/140] z13/140 D,,45/224 [B,/8D,,43/224] z15/224 D,,3/14 [D,,5/28C,,5/28] D,,53/252 [B,/9D,,23/126=C905/288^F905/288] z/14 D,,13/63 [D,,47/252C,,47/252] D,,17/84 [B,2/15D,,4/21] z2/35 [D,,23/112C,,23/112] D,,3/16 
D,,5/24 [B,19/168D,,31/168E,,31/168] z/14 D,,29/140 [B,/10D,,23/120] z11/120 D,,5/24 [B,3/28D,,5/28] z/14 D,,3/14 D,,5/28 D,,47/224 [B,19/160D,,3/16C,,3/16D3623/288] z11/160 D,,19/96 D,,7/36 D,,29/144 [B,/8D,,3/16] z/16 D,,5/24 [D,,23/120C,,23/120] D,,/5 [B,11/90D,,23/120E,,23/120] z5/72 D,,5/24 D,,3/16 D,,29/144 
[B,/9D,,7/36] z/12 D,,19/96 [D,,3/16C,,3/16] D,,47/224 [B,3/28D,,5/28^C44/7] z/14 D,,3/14 [D,,5/28C,,5/28] D,,5/24 [B,/8D,,23/120] z/15 [D,,29/140C,,29/140] D,,31/168 D,,5/24 [B,3/28D,,3/16E,,3/16] z9/112 D,,23/112 D,,4/21 D,,17/84 [B,3/28D,,47/252] z5/63 D,,13/63 D,,23/126 D,,53/252 [B,3/28D,,5/28C,,5/28G22/7] z/14 
D,,3/14 D,,43/224 D,,45/224 [B,17/168D,,27/140] z11/120 D,,/5 [D,,3/16C,,3/16] D,,23/112 [B,3/28D,,4/21E,,4/21] z/12 D,,17/84 D,,41/224 D,,47/224 [B,19/168D,,11/56] z/12 D,,11/56 [D,,13/63C,,13/63] D,,47/252 [B,23/252D,,43/224=C793/252F793/252] z29/288 D,,45/224 [B,/7D,,27/140C,,27/140] z/20 D,,/5 D,,7/36 [B,/9D,,25/126C,,25/126] z11/126 
D,,4/21 D,,5/24 [B,13/120D,,13/72E,,13/72] z13/180 D,,13/63 [B,3/28D,,11/56] z5/56 D,,11/56 [B,3/28D,,47/224] z23/224 D,,3/16 D,,3/16 D,,59/288 [B,13/126B,,,17/90C,,17/90_B,1699/180] z3/35 B,,,/5 B,,,/5 B,,,/5 [=B,/10B,,,31/160] z3/32 B,,,19/96 [B,,,17/96C,,17/96] B,,,7/32 [B,11/112B,,,3/16E,,3/16] z5/56 B,,,5/24 B,,,7/36 
B,,,55/288 [B,23/224B,,,19/96] z2/21 B,,,4/21 [B,,,25/126C,,25/126] [B,,,7/36C,,7/36] [B,3/28B,,,/5C,,/5^G,63/10] z13/140 B,,,/5 [B,,,31/160C,,31/160] B,,,19/96 [B,17/168B,,,13/72] z5/63 [B,,,31/144C,,31/144] B,,,3/16 B,,,5/24 [B,2/21B,,,19/96E,,19/96] z23/224 B,,,55/288 B,,,7/36 [z7/36B,,,5/24] [B,/9B,,,29/144] z13/144 B,,,3/16 B,,,/5 B,,,33/160 
[B,/8^C,,3/16=C,,3/16=F503/160] z/16 ^C,,33/160 C,,/5 C,,3/16 [B,9/80C,,3/16] z4/45 C,,7/36 [C,,7/36=C,,7/36] ^C,,55/288 [B,11/96C,,19/96E,,19/96] z/12 C,,5/24 C,,3/16 C,,31/144 [B,5/63C,,13/72] z17/168 C,,19/96 [C,,31/160=C,,31/160] [^C,,/5=C,,/5] [B,7/60D,,/5C,,/5=G,63/20D63/20] z/12 D,,7/36 [D,,25/126C,,25/126] D,,4/21 [B,5/48D,,19/96] z3/32 
[D,,55/288C,,55/288] D,,7/36 D,,5/24 [B,7/72D,,3/16E,,3/16] z13/144 D,,7/32 D,,17/96 D,,19/96 [B,/8D,,31/160] z11/160 D,,/5 D,,/5 D,,/5 [F,/10D,,17/90C,,17/90D2013/160] z4/45 D,,59/288 D,,3/16 D,,3/16 [F,11/96D,,47/224] z2/21 D,,11/56 [D,,11/56C,,11/56] D,,13/63 [F,/9D,,13/72E,,13/72] z5/72 D,,5/24 
D,,4/21 D,,25/126 [F,/9D,,7/36] z/12 D,,/5 D,,27/140 D,,45/224 [F,11/96D,,43/224C,,43/224^C1411/224] z13/168 D,,47/252 D,,13/63 D,,11/56 [F,/8D,,11/56] z/14 D,,47/224 [D,,41/224C,,41/224] D,,17/84 [F,11/96D,,4/21E,,4/21] z17/224 D,,23/112 D,,3/16 D,,/5 [F,17/140D,,27/140] z/14 D,,45/224 D,,43/224 
D,,3/14 [F,/10D,,5/28C,,5/28G22/7] z11/140 D,,53/252 D,,23/126 D,,13/63 [F,/9D,,47/252] z19/252 D,,17/84 [D,,4/21C,,4/21] D,,23/112 [F,/8D,,3/16E,,3/16] z/16 D,,5/24 D,,31/168 D,,29/140 [F,19/160D,,23/120] z7/96 D,,5/24 D,,5/28 D,,3/14 [F,3/28G,,,5/28C,,5/28=C703/224^F703/224] z/14 G,,,47/224 G,,,3/16 G,,,19/96 
[F,/8G,,,7/36] z5/72 G,,,29/144 [G,,,3/16C,,3/16] G,,,5/24 [F,19/168G,,,23/120E,,23/120] z11/140 G,,,/5 G,,,23/120 G,,,5/24 [F,/9G,,,3/16] z11/144 G,,,29/144 G,,,7/36 G,,,19/96 [F,/8D,,3/16C,,3/16D2817/224] z/16 D,,47/224 D,,5/28 D,,3/14 [F,13/112D,,5/28] z/16 D,,5/24 [D,,23/120C,,23/120] D,,29/140 [F,25/224D,,31/168E,,31/168] z7/96 
D,,5/24 D,,3/16 D,,23/112 [F,17/126D,,4/21] z/18 D,,17/84 [D,,47/252C,,47/252] [D,,13/63C,,13/63] [F,17/140D,,23/126C,,23/126^C1409/224] z11/180 D,,53/252 [D,,5/28C,,5/28] D,,3/14 [F,3/28D,,43/224] z19/224 [D,,45/224C,,45/224] D,,27/140 D,,/5 [F,/9D,,3/16E,,3/16] z11/144 D,,23/112 D,,4/21 D,,17/84 [F,4/35D,,41/224] z11/160 D,,47/224 
D,,11/56 D,,11/56 [F,13/112D,,13/63C,,13/63G705/224] z13/144 D,,47/252 D,,43/224 D,,45/224 [F,25/224D,,27/140] z13/160 D,,/5 [D,,7/36C,,7/36] D,,25/126 [F,3/28D,,4/21E,,4/21] z/12 D,,5/24 D,,13/72 D,,13/63 [F,19/168D,,11/56] z/12 D,,11/56 [D,,47/224C,,47/224] [D,,3/16C,,3/16] [F,11/96G,,,3/16C,,3/16=C703/224F703/224] z7/96 G,,,59/288 [G,,,17/90C,,17/90] 
G,,,/5 [F,/8G,,,/5] z3/40 [G,,,/5C,,/5] G,,,31/160 G,,,19/96 [F,11/96G,,,17/96E,,17/96] z/16 G,,,7/32 G,,,3/16 G,,,5/24 [F,5/48G,,,7/36] z13/144 G,,,55/288 G,,,19/96 G,,,4/21 
