X: 1
T: Drifters OP - Gospel of the Throttle (Lyric)
Z: ABC Generated by Starbound Composer v0.8.7
L: 1/4
M: 4/4
Q: 1/4=96
K: C
z8 
G/ G/ G/ E/4 G3/4 E/ E/ E/ 
D/ E/ E/ D/4 E D3/4 z/ 
G/ G/ G/ E/4 G3/4 E/ E/ E/ 
D/ E/ E/ D/4 E3/4 z/ E/4 E/4 D/ 
[G/E/] z/ [E/G/] E/4 [E/G/] E/ E/4 E/ z/ 
[G/E/] [G/E/] [G/4E/4] E/ E5/4 z 
[G/E/] z/ [E/G/] E/4 [G/E/] E/ E/4 E/ z/ 
[G/E/] [E/G/] [G/4E/4] E/ E5/4 z 
[EG] E E/ E/ E/ D/ 
[GE] E E/ E/ E/ E/ 
[G/E/] [G/E/] [G/4E/4] E/4 E z/ E/ E/ 
[B,G] [B,/G/] E/ [GD] [G/D/] E z 
E/4 [G/E/] [G/E/] [G3/4E3/4] G/8 ^F/8 =F/8 E5/8 z 
E/4 [G/D/] [G/D/] [G3/4D3/4] G/8 ^F/8 =F/8 E5/8 z 
E/4 [G/E/] [G/E/] [G/E/] G/8 ^F/8 =F/8 E3/8 [C/E/] E/4 G/4 G3/4 
A/4 A3/4 B/4 B/4 B/8 G/8 E/4 D/4 [G/E/] G/ G/4 E/ 
G3/4 E/ F/ E/ D/ E/ E/ D/4 
E5/4 D/ z/ G/ G/ G/ E/4 
G3/4 E/ E/4 E/4 E/ D/ E/ E/ D/4 
E3/4 z/ E/4 E/4 D/4 D/4 [G/E/] z/ [E/G/] E/4 
[G/E/] E/ E/4 E/ z/ [E/G/] [G/E/] [G/4E/4] E/ 
E5/4 z [g/e/] z/ [e/g/] e/4 
[g/e/] e/ e/4 e/ z/ [g/e/] [g/e/] [g/4e/4] e/ 
e5/4 z [EG] E 
E/ E/ E/ D/ [GE] E 
E/ E/ E/ E/ [G/E/] [G/E/] [G/4E/4] E/4 E z/ 
E/ E/ [G/C/] C/ [G/C/] [E/C/] [D/G/] D/ 
[D/G/] [D/E/] z3/ E/4 [G/E/] [G/E/] [G3/4E3/4] 
G/8 ^F/8 =F/8 E5/8 z E/4 [G/D/] [G/D/] [G3/4D3/4] 
G/8 ^F/8 =F/8 E5/8 z E/4 [G/E/] [G/E/] [G/E/] G/8 ^F/8 
=F/8 E3/8 [E/C/] E/4 G/4 G/ G/4 A/4 A/ A/4 B/4 B/ 
B,/8 C/8 D/8 ^D/8 E3/4 =D3/4 B,3/4 A,3/4 G,/ 
