X: 1
T: Fall Out Boy - My Songs Know What You Did in the Dark (Lyric)
Z: ABC Generated by Starbound Composer v0.8.7
L: 1/4
M: 4/4
Q: 1/4=160
K: C
z8 
M: 4/4
M: 4/4
z24 
D3/ A3/ G/ F/ 
G3/ A3/ G/ F/ 
G3/ A F/ E/ D5/ z/ 
F/3 z/6 F/3 z/6 F/3 z/6 F/ E/ D/ E/ F/ 
E/ D/ E/ F F z2 
F/ E/ D F/ E/ D/ E/ 
[Dd] [Dd] z F/ F/ 
F F/ F/ F F 
F/ D F/ D E 
F/ E/ D F/ E/ D/ C/ 
D2 z/ F/ F/ F/ 
F F F F/ E/ 
[df] [df] z/ D/ D/ E/ 
F/ E/ D/ E/ F/ E/ D/ E/ 
[_Bd] [Bd] z D/ E/ 
F/ E/ D/ E/ F/4 z/4 E/4 z/4 D 
F/ E/ D/ E/ F/4 z/4 E/4 z/4 D 
F/ E/ D/ E/ F/ E/ D/ C/ 
D2 D E 
F E D F 
F E D A3/ 
B/ A5 z/ 
C/ C/ D/ D D D 
C/ D/ D D D 
C/ D/ D D D/ D/ 
D/ [f/d] f/ [d2f2] C/ 
C/ D/ D D D 
C/ D/ D D D 
C/ D/ D D D/ D/ 
D/ [f/d] f/ [d3f3] z/ 
D3/ A3/ G/ F/ 
G3/ A3/ G/ F/ 
G3/ A F/ E/ D3/ 
D/3 z/6 D/3 z/6 D D D3/ 
A3/ G/ F/ G3/ 
A3/ G/ F/ G3/ 
A F/ E/ D3/ D/3 z/6 
D/3 z/6 D D F/ F/ F 
F/ F/ E/ D/ z [df] z/ 
F/ F/ F/ F/ E/ D/ E/ F 
D z F z/ F/ 
F/ D/ F F/ F/ F/ F/ 
E/ D/ F/ F/ D/ F D/ 
D/ E/ F/ E/ D/ E/ F/ E/ 
D/ E/ F/4 z/4 E/4 z/4 D/ z D/ 
D/ E/ F/ F/ F F 
E/ D/ [df] [df] z 
D F/ F/ F/ F/ F/ F/ 
E/ D/ z2 F 
E F/ F/ F F/ F/ 
F/ E/ F F F/ E/ 
D F/ E/ D/ E/ F/ E/ 
D/ C/ D2 D 
E F E D 
F F E D 
A3/ B/ A5 z/ 
C/ C/ D/ D D D 
C/ D/ D D D 
C/ D/ D D D/ D/ 
D/ [f/d] f/ [d3f3] z/ 
D3/ A3/ G/ F/ 
G3/ A3/ G/ F/ 
G3/ A F/ E/ D3/ 
D/3 z/6 D/3 z/6 D D z14 
D E F E 
F F G F 
E A3/ B/ A5 
D E F E 
F F G F 
E A3/ B/ A5 
D E [Aa] [Aa] z9/ 
c/ c/ d/ d d d 
c/ d/ d d d 
c/ d/ d d d/ d/ 
d/ [df] [d2f2] c/ 
c/ d/ d d d 
c/ d/ d d d 
c/ d/ d d d/ d/ 
d/ [df] [d3f3] z/ 
[D3/d3/] [A3/a3/] [G/g/] [F/f/] 
[G3/g3/] [A3/a3/] [G/g/] [F/f/] 
[G3/g3/] [A3/a3/] [E/e/] [D3/d3/] 
D/3 z/6 D/3 z/6 D D [D3/d3/] 
[A3/a3/] [G/g/] [F/f/] [G3/g3/] 
[A3/a3/] [G/g/] [F/f/] [G3/g3/] 
[A3/a3/] [E/e/] [D3/d3/] D/3 z/6 
D/3 z/6 D D 
