X: 1
T: Jaskier - Toss A Coin To Your Witcher
Z: ABC Generated by Starbound Composer v0.8.7
L: 1/4
M: 4/4
Q: 1/4=97
K: Db
[z/7B,4] [z17/126D27/7] [z19/126F67/18] [z11/7B18/7] d15/32 z/32 c15/32 z/32 [z/B] A15/32 z/32 
[z/10B19/10B,4] [z13/120E39/10] [z43/24=G91/24] e15/32 z/32 e15/32 z/32 d15/32 z/32 c15/32 z/32 
[z/10B10/7B,4] [z13/120E39/10] [z31/24_G91/24] B15/32 z/32 e15/32 z/32 e15/32 z/32 [zf17/16] 
[z/10A,4] [z/40C39/10] [z/12d11/32] [z7/24F91/24] B19/20 z/20 B15/32 z/32 e5/8 z/24 d19/30 z/30 e53/84 z/28 
[z/10B,4] [z13/120E39/10] [z43/24F91/24] e15/32 z/32 f10/7 z/14 
Q: 1/4=100
[z/12A,2] [z2/21C23/12] F51/28 
Q: 1/4=103
[z3/32=A,2] [z19/224C61/32] F51/28 
Q: 1/4=104
B,15/32 z/32 F15/32 z/32 B,15/32 z/32 [B15/32E15/32] z/32 [B,15/32d17/24] z/32 [z/4E15/32] c/4 [B15/32B,15/32] z/32 [A15/32E15/32] z/32 
[=G,15/32B10/7] z/32 F15/32 z/32 G,15/32 z/32 [B15/32E15/32] z/32 [d15/32G,15/32] z/32 [e15/32E15/32] z/32 [G,15/32c19/20] z/32 E15/32 z/32 
[A15/32_G,15/32] z/32 [F15/32B19/20] z/32 G,15/32 z/32 [B15/32E15/32] z/32 [e15/32G,15/32] z/32 [e15/32E15/32] z/32 [f15/32G,15/32] z/32 [E15/32d19/20] z/32 
_A,15/32 z/32 [F15/32B19/20] z/32 A,15/32 z/32 [B15/32E15/32] z/32 [e15/32A,15/32] z/32 [e15/32E15/32] z/32 [e15/32A,15/32] z/32 [E15/32f93/28] z/32 
=G,15/32 z/32 F15/32 z/32 G,15/32 z/32 E15/32 z/32 G,15/32 z/32 E15/32 z/32 [d15/32G,15/32] z/32 [B15/32E15/32] z/32 
A,15/32 z/32 F15/32 z/32 A,15/32 z/32 E15/32 z/32 A,15/32 z/32 E15/32 z/32 =A,15/32 z/32 E15/32 z/32 
B,15/32 z/32 F15/32 z/32 B,15/32 z/32 E15/32 z/32 [d15/32B,15/32] z/32 [c15/32E15/32] z/32 [B15/32B,15/32] z/32 [A15/32E15/32] z/32 
[G,15/32B10/7] z/32 F15/32 z/32 G,15/32 z/32 [B15/32E15/32] z/32 [d15/32G,15/32] z/32 [e15/32E15/32] z/32 [c15/32G,15/32] z/32 [c15/32E15/32] z/32 
[_G,15/32B19/10] z/32 F15/32 z/32 G,15/32 z/32 E15/32 z/32 [e15/32G,15/32] z/32 [e15/32E15/32] z/32 [f15/32G,15/32] z/32 [E15/32d19/20] z/32 
_A,15/32 z/32 [F15/32B19/20] z/32 A,15/32 z/32 [B15/32E15/32] z/32 [a15/32A,15/32] z/32 [f15/32E15/32] z/32 [d15/32=A,15/32] z/32 [e15/32E15/32] z/32 
[B,15/32f19/10] z/32 F15/32 z/32 B,15/32 z/32 E15/32 z/32 [B,15/32d17/24] z/32 [z/4E15/32] c/4 [B2/9B,15/32] z/36 [z/4A17/24] E15/32 z/32 
[=G,15/32B19/10] z/32 F15/32 z/32 G,15/32 z/32 E15/32 z/32 [d15/32G,15/32] z/32 [e15/32E15/32] z/32 [c15/32G,15/32] z/32 [c15/32E15/32] z/32 
[_G,15/32B10/7] z/32 F15/32 z/32 G,15/32 z/32 [B15/32E15/32] z/32 [e15/32G,15/32] z/32 [e15/32E15/32] z/32 [f15/32G,15/32] z/32 [d15/32E15/32] z/32 
[_A,15/32B19/10] z/32 F15/32 z/32 A,15/32 z/32 E15/32 z/32 [e15/32A,15/32] z/32 [d15/32E15/32] z/32 [e15/32A,15/32] z/32 [e15/32E15/32] z/32 
[z/16A,/f19/5] [z/16C7/16] [z/16E3/8] A5/16 C15/32 z/32 C15/32 z/32 C15/32 z/32 C15/32 z/32 C15/32 z/32 [C15/32F15/32] z/32 C15/32 z/32 
[z3/32B,2] [z3/32D61/32] [z13/144F29/16] B13/18 [z/B] d15/32 z/32 [f19/20C19/10F19/10=A19/10] z/20 e15/32 z/32 d15/32 z/32 
[e15/32D19/20F19/20_A19/20] z/32 f19/20 z/20 [f15/32B,19/8D19/8=G19/8] z/32 e15/32 z/32 d15/32 z/32 c15/32 z/32 [z/d19/20] 
B,,15/32 z/32 [F,15/32B19/20] z/32 D15/32 z/32 [f15/32B,15/32] z/32 [e15/32F15/32] z/32 [d15/32B,15/32] z/32 [c15/32D15/32] z/32 [F,15/32d19/20] z/32 
B,,15/32 z/32 [F,15/32B19/20] z/32 B,15/32 z/32 [A15/32C15/32] z/32 [B15/32D15/32] z/32 [C15/32d10/7] z/32 B,15/32 z17/32 
[z/BD3/F19/10] F,15/32 z/32 [B,15/32B9/10] z/32 [d15/32D15/32] z/32 [z/f19/20CF19/10=A19/10] =A,15/32 z/32 [e15/32C9/10] z/32 [d15/32A,15/32] z/32 
[e15/32D/F_A3/] z/32 [z/f19/20D7/5] [z/F9/10] [f15/32A15/32] z/32 [a15/32B,10/7D10/7G10/7] z/32 f15/32 z/32 e15/32 z/32 [z/16B,/f19/20] [z/16D7/16] [z/16F3/8] B5/16 z/ 
[F,15/32f93/28] z/32 B,15/32 z/32 F,15/32 z/32 F15/32 z/32 F,15/32 z/32 B,15/32 z/32 _A,15/32 z/32 [=A,15/32C15/32F15/32=A15/32c19/5f19/5=a19/5] z/32 
[A,15/32C15/32F15/32A15/32] z/32 [A,15/32C15/32F15/32A15/32] z/32 [A,15/32C15/32F15/32A15/32] z/32 [A,15/32C15/32F15/32A15/32] z49/32 [z3b19/5] 
E/9 z/72 F/8 E/4 D2/9 z/36 C/4 [z/16B,/] [z/16D7/16] [z/16F3/8] B5/16 F15/32 z/32 B,15/32 z/32 [B15/32E15/32] z/32 [d15/32B,15/32] z/32 [c15/32E15/32] z/32 
[B15/32B,15/32] z/32 [_A15/32E15/32] z/32 [=G,15/32B,15/32E15/32G15/32B19/10] z/32 F15/32 z/32 G,15/32 z/32 E15/32 z/32 [e15/32G,15/32] z/32 [e15/32E15/32] z/32 
[d15/32G,15/32] z/32 [c15/32E15/32] z/32 [_G,15/32B,15/32E15/32_G15/32B10/7] z/32 F15/32 z/32 G,15/32 z/32 [B15/32E15/32] z/32 [e15/32G,15/32] z/32 [e15/32E15/32] z/32 
[f15/32G,15/32] z/32 [E15/32d19/20] z/32 [_A,15/32C15/32F15/32A15/32] z/32 [F15/32B19/20] z/32 A,15/32 z/32 [B15/32E15/32] z/32 [e15/32A,15/32] z/32 [d15/32E15/32] z/32 
[e15/32A,15/32] z/32 [e15/32E15/32] z/32 [=G,15/32B,15/32E15/32=G15/32f19/5] z/32 F15/32 z/32 G,15/32 z/32 E15/32 z/32 G,15/32 z/32 E15/32 z/32 
G,15/32 z/32 E15/32 z/32 [C15/32F15/32A15/32c15/32] z/32 F15/32 z/32 A,15/32 z/32 E15/32 z/32 [C15/32F15/32=A15/32c15/32] z/32 E15/32 z/32 
E/9 z/72 F/8 E/4 D2/9 z/36 C/4 [B15/32B,,15/32D,15/32F,15/32B,15/32] z/32 [f15/32F15/32] z/32 [e15/32E15/32] z/32 [f15/32F15/32] z/32 [d15/32D15/32] z/32 [c15/32F15/32] z/32 
[B15/32C15/32] z/32 [_A15/32F15/32] z/32 [B15/32G,15/32B,15/32E15/32G15/32] z/32 [f15/32F15/32] z/32 [e15/32E15/32] z/32 [f15/32F15/32] z/32 [d15/32D15/32] z/32 [e15/32F15/32] z/32 
[c15/32C15/32] z/32 [c15/32F15/32] z/32 [B15/32_G,15/32B,15/32E15/32_G15/32] z/32 [f15/32F15/32] z/32 [e15/32E15/32] z/32 [B15/32F15/32] z/32 [e15/32D15/32] z/32 [e15/32F15/32] z/32 
[f15/32C15/32] z/32 [F15/32d19/20] z/32 [A,15/32C15/32F15/32A15/32] z/32 [F15/32B10/7] z/32 E15/32 z/32 F15/32 z/32 [e15/32D15/32] z/32 [d15/32F15/32] z/32 
[e15/32C15/32] z/32 [e15/32F15/32] z/32 [f15/32=G,15/32B,15/32E15/32=G15/32] z/32 [e15/32F15/32] z/32 [G15/32G,15/32] z/32 [e15/32E15/32] z/32 [G15/32G,15/32] z/32 [e15/32E15/32] z/32 
[G15/32G,15/32] z/32 [e15/32E15/32] z/32 [A15/32C,15/32F,15/32A,15/32C15/32] z/32 [f15/32F15/32] z/32 [A15/32A,15/32] z/32 [e15/32E15/32] z/32 [=A15/32C,15/32F,15/32=A,15/32C15/32] z/32 [f15/32F15/32] z/32 
[A15/32a15/32A,15/32] z/32 [B15/32b15/32E15/32] z/32 [B,/32B,,15/32F,15/32B,/] z/32 [z/16D7/16] [z/16F3/8] B5/16 [f15/32F15/32] z/32 [e15/32F,15/32B,15/32] z/32 [f15/32E15/32] z/32 [d15/32F,15/32B,15/32] z/32 [c15/32E15/32] z/32 
[B15/32F,15/32B,15/32] z/32 [_A15/32E15/32] z/32 [B,15/32E15/32G15/32B15/32=G,,15/32E,15/32G,15/32] z/32 [f15/32F15/32] z/32 [e15/32E,15/32G,15/32] z/32 [f15/32E15/32] z/32 [d15/32E,15/32G,15/32] z/32 [e15/32E15/32] z/32 
[c15/32E,15/32G,15/32] z/32 [c15/32E15/32] z/32 [_G,,15/32E,15/32_G,15/32B,19/20E19/20_G19/20B19/20] z/32 F15/32 z/32 [B15/32E,15/32G,15/32] z/32 [B15/32E15/32] z/32 [e15/32E,15/32G,15/32] z/32 [e15/32E15/32] z/32 
[f15/32E,15/32G,15/32] z/32 [E15/32d17/24] z/32 [D2/9F2/9A2/9A,,15/32F,15/32_A,15/32] z/36 B/4 [F15/32B19/20] z/32 [F,15/32A,15/32] z/32 [B15/32E15/32] z/32 [F15/32=A15/32c15/32e15/32=A,,15/32F,15/32=A,15/32] z/32 [d15/32F15/32] z/32 
[e15/32F,15/32A,15/32] z/32 [e15/32E15/32] z/32 [F15/32B15/32d15/32f15/32B,,15/32F,15/32B,15/32] z/32 [f15/32F15/32] z/32 [e15/32F,15/32B,15/32] z/32 [f15/32E15/32] z/32 [d15/32F,15/32B,15/32] z/32 [c15/32E15/32] z/32 
[B2/9F,15/32B,15/32] z/36 [z/4_A17/24] E15/32 z/32 [B,15/32E15/32=G15/32B15/32=G,,15/32E,15/32=G,15/32] z/32 [f15/32F15/32] z/32 [e15/32E,15/32G,15/32] z/32 [B15/32E15/32] z/32 [d15/32E,15/32G,15/32] z/32 [e15/32E15/32] z/32 
[c15/32E,15/32G,15/32] z/32 [c15/32E15/32] z/32 [B,15/32E15/32_G15/32B15/32_G,,15/32E,15/32_G,15/32] z/32 [f15/32F15/32] z/32 [e15/32E,15/32G,15/32] z/32 [B15/32E15/32] z/32 [e15/32E,15/32G,15/32] z/32 [e15/32E15/32] z/32 
[f15/32E,15/32G,15/32] z/32 [E15/32d19/20] z/32 [D15/32F15/32A15/32_A,,15/32F,15/32_A,15/32] z/32 [F15/32B19/20] z/32 [F,15/32A,15/32] z/32 [B15/32E15/32] z/32 [A15/32_a15/32F,15/32A,15/32] z/32 [F15/32f15/32E15/32] z/32 
[E15/32e15/32F,15/32A,15/32] z/32 [e15/32E15/32] z/32 
M: 3/4
[A,15/32C15/32E15/32A15/32F2f57/20] z/32 [A,15/32C15/32E15/32A15/32] z/32 [A,15/32C15/32E15/32A15/32] z/32 [A,15/32C15/32E15/32A15/32] z/32 [=A,15/32C15/32=A15/32F/] z/32 [A,15/32C15/32F15/32A15/32] z/32 
M: 4/4
[D/BFB,19/10] [z/D] [z/B9/10F9/10] [d15/32D15/32] z/32 [z/c19/20f19/20FA,19/10C19/10A19/10] E15/32 z/32 [e15/32F9/10] z/32 [d15/32E15/32] z/32 
[d15/32e15/32D/F_A3/_A,19/10] z/32 [z/f19/20D7/5] [z/F9/10] [f15/32A15/32] z/32 [e15/32B,/D=G,19/10=G19/10] z/32 [d15/32B,] z/32 [c15/32D9/10] z/32 [B,15/32d19/20] z/32 
[F,/B,D19/10F19/10] [z/B19/20F,7/5] [z/B,9/10] [f15/32C15/32] z/32 [e15/32B,G,19/10D19/10G19/10] z/32 [d15/32C15/32] z/32 [c15/32B,9/10] z/32 [F,15/32d19/20] z/32 
[F,/B,D19/10F19/10] [z/B19/20F,7/5] [z/B,9/10] [A15/32C15/32] z/32 [B15/32B,G,19/10D19/10G19/10] z/32 [F,15/32d10/7] z/32 [z/B,9/10] F,15/32 z/32 
[z/BB,D3/F19/10] F,15/32 z/32 [z/B9/10B,9/10] [d15/32D15/32] z/32 [=A,/c19/20f19/20CF19/10=A19/10] [z/A,] [e15/32C9/10] z/32 [d15/32A,15/32] z/32 
[d15/32e15/32D/F_A3/_A,19/10] z/32 [z/f19/20D7/5] [z/F9/10] [f15/32A15/32] z/32 [a15/32B,19/10D19/10G19/10] z/32 [f15/32B15/32] z/32 [e15/32d15/32] z/32 [B15/32f17/24] z/32 
[z/4B,F2D19/5B19/5] f/4 [F,15/32f93/28] z/32 [z/B,2] F,15/32 z/32 [z/F9/5] F,15/32 z/32 [z/B,4/5] A,15/32 z/32 
[=A,15/32C15/32F15/32=A15/32c93/28f93/28=a93/28] z/32 [A,15/32C15/32F15/32A15/32] z/32 [A,15/32C15/32F15/32A15/32] z/32 [A,15/32C15/32F15/32A15/32] z/32 [A,15/32C15/32F15/32A15/32] z/32 F15/32 z/32 A15/32 z/32 [B15/32b15/32c15/32] z/32 
[F/BB,19/10D19/10] [z/F] [E15/32B9/10] z/32 [d15/32F15/32] z/32 [F/c19/20f19/20CA,19/10A19/10] [z/F] [e15/32C9/10] z/32 [d15/32F15/32] z/32 
[d15/32e15/32F/_A,19/10D19/10_A19/10] z/32 [z/f19/20F] E15/32 z/32 [f15/32F15/32] z/32 [e15/32G,19/10B,19/10D19/10G19/10] z/32 [d15/32F15/32] z/32 [c15/32C15/32] z/32 [F15/32d19/20] z/32 
[F/B,19/10D19/10] [z/B19/20F] E15/32 z/32 [f15/32F15/32] z/32 [e15/32B,19/10D19/10G19/10] z/32 [d15/32F15/32] z/32 [c15/32C15/32] z/32 [F15/32d19/20] z/32 
[F/B,19/10D19/10] [z/B19/20F] E15/32 z/32 [A15/32F15/32] z/32 [B15/32B,19/10D19/10G19/10] z/32 [F15/32d10/7] z/32 C15/32 z/32 F15/32 z/32 
[F/BB,19/10D19/10] [z/F] [E15/32B9/10] z/32 [d15/32F15/32] z/32 [F/c19/20f19/20C=A,19/10=A19/10] [z/F] [e15/32C9/10] z/32 [d15/32F15/32] z/32 
[d15/32e15/32F/_A,19/10D19/10_A19/10] z/32 [z/f19/20F] E15/32 z/32 [f15/32F15/32] z/32 [_a15/32B,19/10D19/10G19/10] z/32 [f15/32F15/32] z/32 [e15/32C15/32] z/32 [F15/32f17/24] z/32 
[z/4F/D2B,3B19/5] f/4 [z/Ff93/28] C15/32 z/32 [z/F] [z/D9/5] [z/F] [z/B,4/5] F15/32 z/32 
[f/F/c57/20=a57/20=A,19/5C19/5=A19/5] [z/fF] [e15/32E15/32] z/32 [z/fF] [e15/32E15/32] z/32 [f15/32F13/10] z/32 [c15/32f15/32a15/32e15/32E15/32] z/32 [B15/32b15/32d15/32D15/32] z/32 
[D/BFB,19/10] [z/D] [b15/32B9/10F9/10] z/32 [d15/32_a15/32D15/32] z/32 [z/c19/20f19/20b19/20FA,19/10C19/10A19/10] E15/32 z/32 [e15/32b15/32F9/10] z/32 [d15/32a15/32E15/32] z/32 
[d15/32e15/32b15/32D/F_A3/_A,19/10] z/32 [z/f19/20d'19/20D7/5] [z/F9/10] [f15/32A15/32] z/32 [e15/32B,/DG19/10] z/32 [d15/32B,] z/32 [c15/32D9/10] z/32 [B,15/32d19/20] z/32 
[z/B,D19/10F19/10] [F,15/32B19/20] z/32 [z/B,9/10] [f15/32C15/32] z/32 [e15/32B,D19/10G19/10] z/32 [d15/32C15/32] z/32 [c15/32B,9/10] z/32 [F,15/32d19/20] z/32 
[z/B,D19/10F19/10] [F,15/32B19/20] z/32 [z/B,9/10] [A15/32C15/32] z/32 [B15/32B,D19/10G19/10] z/32 [F,15/32d10/7] z/32 [z/B,9/10] F,15/32 z/32 
[z/BB,D3/F19/10] F,15/32 z/32 [b15/32B9/10B,9/10] z/32 [d15/32a15/32D15/32] z/32 [=A,/c19/20f19/20b19/20CF19/10=A19/10] [z/A,] [e15/32b15/32C9/10] z/32 [d15/32a15/32A,15/32] z/32 
[d15/32e15/32b15/32D/F_A3/_A,19/10] z/32 [z/f19/20d'19/20D7/5] [z/F9/10] [f15/32A15/32] z/32 [f15/32a15/32DB,19/10G19/10] z/32 [d15/32f15/32F15/32] z/32 [c15/32e15/32D9/10] z/32 [F15/32d17/24f17/24] z/32 
[z/4B,F2D19/5B19/5] [d/4f/4] [F,15/32d93/28f93/28] z/32 [z/B,2] F,15/32 z/32 [z/F9/5] F,15/32 z/32 [z/B,4/5] A,15/32 z/32 
Q: 1/4=103
[c15/32f15/32=a15/32=A,15/32C15/32F15/32=A15/32] z/32 
Q: 1/4=100
[c15/32f15/32a15/32A,15/32C15/32F15/32A15/32] z/32 
Q: 1/4=97
[c15/32f15/32a15/32A,15/32C15/32F15/32A15/32] z/32 
Q: 1/4=94
[c15/32f15/32a15/32A,15/32C15/32F15/32A15/32] z/32 
Q: 1/4=93
[c15/32f15/32a15/32A,15/32C15/32F15/32A15/32] z/32 
Q: 1/4=89
[c15/32f15/32a15/32A,15/32C15/32F15/32A15/32] z/32 
Q: 1/4=88
[c15/32f15/32a15/32A,15/32C15/32F15/32A15/32] z/32 
Q: 1/4=85
[d15/32f15/32b15/32B,15/32D15/32F15/32B15/32] z/32 
Q: 1/4=42
[z/24d4B,4] [z5/96f95/24D95/24] [z11/224b125/32F125/32] B27/7 
Q: 1/4=85
