X: 1
T: K-On!! OP - Go! GO! Maniac
Z: ABC Generated by Starbound Composer v0.8.7
L: 1/4
M: 4/4
Q: 1/4=122
K: E
[F/4G,,,/G,,/] G/4 [F/4G,,,/G,,/] G/4 z/4 [D,/4B/] G,/4 D,/4 [F/G,,,/G,,/] [^^F/4G,,,/G,,/] G/4 z/4 D,/4 G,/4 D,/4 
[z/^E] g/4 z/4 [g/4^F] z/4 g/4 z/4 [g/4^^F/] z/4 [g/4F/] z/4 [g/4G] z/4 g/4 z/4 
[^F/4G,,,/G,,/] G/4 [F/4G,,,/G,,/] G/4 z/4 [D,/4B/] G,/4 D,/4 [F/G,,,/G,,/] [^^F/4G,,,/G,,/] G/4 z/4 [D/4D,/4] [G/4G,/4] [d/4D,/4] 
[G/B/e/E,,/B,,/E,/] [G/B/e/E,,/B,,/E,/] [G/B/e/E,,/B,,/E,/] [G/B/e/E,,/B,,/E,/] [F/^A/d/D,,/D,/] D,/4 [z/4^A,3/4D3/4] G/ [G/D,/] 
[E/4G/4C,,/C,/] F/4 [G/4^E,/G,/] F/4 [E/d/C/] [G/4C,/] F/4 [D/4G/4D,,/D,/] F/4 [d/^^F,/A,/] [z/4D/] G/4 [G/4D,/] G/4 
[^B,/G/^B,,,/^B,,/] [D/B,,/D,/] [B,/G/G,/] [D/4F,/] [z/4D/] [z/4^E,,/E,/] D/4 [A/E,/G,/] [D/G] E,/ 
[C,,/C,/D] [E,/G,/] [C/E] C,/ [D,,/D,/DF] [F,/A,/] [G/D/] [A/D,/] 
[=E/G/d/=E,,/=E,/] [E/G/d/E,,/E,/] [G/4G,/4] ^F/4 [G/4G,/4] F/4 [F/A/d/F,,/^F,/] [F/A/d/F,,/F,/] [G/4A,/4] F/4 [G/4A,/4] F/4 
[G/B/e/E,,/E,/] [G/B/e/E,,/E,/] [G/4=B,/4] F/4 [G/4B,/4] F/4 [A/c/f/F,,/F,/] [A/c/f/F,,/F,/] [G/4C/4] F/4 [G/4C/4] F/4 
[G/d/g/G,,G,] z/ [G/g/G,,/G,/] [B/b/=B,,/B,/] [d3/4d'3/4D,3/4D3/4] [=d3/4=d'3/4=D,3/4=D3/4] [c/c'/C,/C/] 
[B/b/B,,/B,/] [G/4g/4G,,/4G,/4] [G/g/G,,/G,/] [G/4g/4G,,/4G,/4] [^D/^d/D,,/^D,/] [F/f/F,,/F,/] [^^F/^^f/^^F,,/^^F,/] [G/g/G,,/G,/] G,,/ 
M: 2/4
[g''/8G,,,2G,,2] d''/8 c''/8 g'/8 g'/8 ^d'/8 c'/8 g/8 g/8 d/8 c/8 G/8 G/8 D/8 C/8 G,/8 
M: 4/4
[=B,,,/4B,,/4B,/^F/B/] z/4 [^F,/4B,/F/B/] z/4 [=D/4B,,,/4B,,/4] z/4 [E/4F,/4] z/4 
[=A,/A,,,/A,,/] [^A,/4^A,,,/4^A,,/4] [B,,,/B,,/B,3/4] B,,/4 F,/4 B,,/4 [F/4B/4B,,,/4B,,/4] B,/4 [F,/4F/B/] z/4 [D/4B,,,/4B,,/4] z/4 [E/4F,/4] z/4 
[=A,/=A,,,/=A,,/] [^A,/4^A,,,/4^A,,/4] [B,,,/B,,/B,3/4] B,,/4 F,/4 B,,/4 [^f/4b/4B,,,/B,,/] B/4 [f/b/F,/B,/] [D/4=d/4B,,,/B,,/] z/4 [E/4e/4F,/B,/] z/4 
[=A,/=A/=A,,,/=A,,/] [^A,/4^A/4^A,,,/4^A,,/4] [B,,,/B,,/B,3/4F3/4B3/4] B,,/4 [F,/B,/] [=A,3/4=A3/4=A,,,3/4=A,,3/4] [^A,3/4^A3/4^A,,,3/4^A,,3/4] [B,3/4B3/4B,,,3/4B,,3/4] 
[F3/4f3/4^F,,3/4F,3/4] [E/4e/4E,,/E,/] D/4 [D/4=D,,/=D,/] E/4 [=A/4B,,/F,/B,/] [z/4A/] [z/4B,,/B,/] B/4 [A/4B,/D/] [z/4A/] [z/4B,,/] A/4 [F/4=A,,3/4=A,3/4] 
F/ [B,,/B,/A5/4] B,,/4 [F,/B,/] [b/4B,,,/B,,/] a/4 [g/4F,/B,/] z/4 [a/4B,,,/B,,/] z/4 [e/4F,/B,/] z/4 [a/=A,,,/A,,/] 
[^a/4^A,,,/4^A,,/4] [b/B,,,3/4B,,3/4] D/4 [D/4F,/B,/] E/4 [A/4B,,/F,/B,/] [z/4A/] [z/4B,,/B,/] B/4 [A/4B,/D/] [z/4A/] [z/4B,,/] A/4 [F/4=A,,3/4A,3/4] F/ 
[B,,/B,/A5/4] B,,/4 [F,/B,/] [A,3/4A3/4=A,,,3/4A,,3/4] [^A,3/4^A3/4^A,,,3/4^A,,3/4] [B,3/4B3/4B,,,3/4B,,3/4] [F3/4f3/4F,,3/4F,3/4] 
[E/4e/4E,,/E,/] D/4 [D/4D,,/D,/] E/4 [=A/4B,,/F,/B,/] [z/4A/] [z/4B,,/B,/] B/4 [A/4B,/D/] [z/4A/] [z/4B,,/] A/4 [F/4=A,,3/4=A,3/4] F/ [B,,/B,/A5/4] 
B,,/4 [F,/B,/] [b/4B,,,/B,,/] =a/4 [g/4F,/B,/] z/4 [a/4B,,,/B,,/] z/4 [e/4F,/B,/] z/4 [a/=A,,,/A,,/] [^a/4^A,,,/4^A,,/4] [b/B,,,3/4B,,3/4] 
D/4 [D/4F,/B,/] E/4 [A/4B,,/F,/B,/] [z/4A/] [z/4B,,/B,/] B/4 [A/4B,/D/] [z/4A/] [z/4B,,/] A/4 [F/4=A,,3/4A,3/4] F/ [B,,/B,/A5/4] 
B,,/4 [F,/B,/] [A,3/4A3/4=A,,,3/4A,,3/4] [^A,3/4^A3/4^A,,,3/4^A,,3/4] [B,3/4B3/4B,,,3/4B,,3/4] [F3/4f3/4F,,3/4F,3/4] [E/e/E,,/E,/] 
[D/d/D,,/D,/] [B,,,/B,,/] [B,/8B/4] z/8 [B,/8=A/4] z/8 [B,/8B/4] z/8 [B,/8A/4] z/8 [B/4B,/4] A/4 [^d/=A,,,/=A,,/] [=A,/8d/4] z/8 [A,/8B3/4] z3/8 A,/8 z/8 
[A,/8F/] z3/8 [D,,/D,/] [D/8B/4] z/8 [D/8A/4] z/8 [D/8B/4] z/8 [D/8A/4] z/8 [B/4D/4] A/4 [f/E,,/E,/] [E/8f/4] z/8 [E/8B/] z3/8 b/4 
b'/4 z/4 [B,,,/B,,/] [B,/8B/4] z/8 [B,/8A/4] z/8 [B,/8B/4] z/8 [B,/8A/4] z/8 [B/4B,/4] A/4 [d/A,,,/A,,/] [A,/8d/4] z/8 [A,/8B3/4] z3/8 A,/8 z/8 
[A,/8F/] z3/8 [C,,/C,/G3/4] C,/4 [^^F/4C/] [z/4G/] C,/4 [G/4C/4] [A/4C,/4] [^A/D,,/D,/] [D,/4=A/] [z/4D/] [z/4^A/] D,/4 
[D/4^B/] D,/4 [A/^D,,/^D,/] [^^F,/4^A,/4^D/] [F,/4A,/4] [F,/4A,/4D/] D,/4 [F,/A,/D] [D,,/D,/] [F,/4A,/4F/] [F,/4A,/4] [F,/4A,/4A/] D,/4 
[c/F,/A,/] [d/D,,/D,/] [d/F,/A,/] [G/4D,/4] [A/4F,/4] [G/4A,/4] [A/4F,/4] [F/A/d/D,/D/] [D,,/D,/] G/ 
[G/D,,/D,/] [^E/4G/4C,,/C,/] F/4 [G/4^E,/G,/] F/4 [E/d/C/] [G/4C,/] F/4 [D/4G/4D,,/D,/] F/4 [d/F,/A,/] [z/4D/] G/4 
[G/4D,/] G/4 [^B,/G/^B,,,/^B,,/] [D/B,,/D,/] [B,/G/G,/] [D/4F,/] [z/4D/] [z/4^E,,/E,/] D/4 [A/E,/G,/] [D/G] 
E,/ [C,,/C,/D] [E,/G,/] [C/E] C,/ [D,,/D,/DF] [F,/A,/] [G/D/] 
[A/D,/] [D/d/G,,3/4G,3/4] [D/4d/4] [C/c/^^F,,3/4F,3/4] [C/4c/4] [B,/B/^F,,3/4^F,3/4] [B,/4B/4] [C3/4c3/4^^F,,3/4^^F,3/4] [D/d/G,,/G,/] 
[F,/F/B,,,/B,,/] [E/4G/4C,,/C,/] F/4 [G/4E,/G,/] F/4 [E/d/C/] [G/4C,/] F/4 [D/4G/4D,,/D,/] F/4 [d/F,/A,/] [z/4D/] G/4 
[G/4D,/] G/4 [B,/G/B,,,/B,,/] [D/B,,/D,/] [B,/G/G,/] [D/4F,/] [z/4D/] [z/4E,,/E,/] D/4 [A/E,/G,/] [D/G] 
E,/ [C,,/C,/D] [E,/G,/] [C/E] C,/ [D,,/D,/DF] [F,/A,/] [G/D/] 
[A/D,/] [=E/G/d/=E,,/=E,/] [E/G/d/E,,/E,/] [G/4G,/4] ^F/4 [G/4G,/4] F/4 [F/A/d/^F,,/^F,/] [F/A/d/F,,/F,/] [G/4A,/4] F/4 
[G/4A,/4] F/4 [G/=B/e/E,,/E,/] [G/B/e/E,,/E,/] [G/4=B,/4] F/4 [G/4B,/4] F/4 [A/c/f/F,,/F,/] [A/c/f/F,,/F,/] [G/4C/4] F/4 
[G/4C/4] F/4 [G/d/g/G,,G,] z/ [G/g/G,,/G,/] [B/b/=B,,/B,/] [d3/4d'3/4D,3/4D3/4] [=d3/4=d'3/4=D,3/4=D3/4] 
[c/c'/C,/C/] [B/b/B,,/B,/] [G/4g/4G,,/4G,/4] [G/g/G,,/G,/] [G/4g/4G,,/4G,/4] [^D/^d/D,,/^D,/] [F/f/F,,/F,/] [^^F/^^f/^^F,,/^^F,/] [G/g/G,,/G,/] 
G,,/ 
M: 2/4
[g''/8G,,,2G,,2] d''/8 c''/8 g'/8 g'/8 ^d'/8 c'/8 g/8 g/8 d/8 c/8 G/8 G/8 D/8 C/8 G,/8 
M: 4/4
[=B,,,/4B,,/4B,/^F/B/] z/4 [^F,/4B,/F/B/] z/4 [=D/4B,,,/4B,,/4] z/4 
[E/4F,/4] z/4 [=A,/A,,,/A,,/] [^A,/4^A,,,/4^A,,/4] [B,,,/B,,/B,3/4] B,,/4 F,/4 B,,/4 [F/4B/4B,,,/4B,,/4] B,/4 [F,/4F/B/] z/4 [D/4B,,,/4B,,/4] z/4 
[E/4F,/4] z/4 [=A,/=A,,,/=A,,/] [^A,/4^A,,,/4^A,,/4] [B,,,/B,,/B,3/4] B,,/4 F,/4 B,,/4 [^f/4b/4B,,,/B,,/] B/4 [f/b/F,/B,/] [D/4=d/4B,,,/B,,/] z/4 
[E/4e/4F,/B,/] z/4 [=A,/=A/=A,,,/=A,,/] [^A,/4^A/4^A,,,/4^A,,/4] [B,,,/B,,/B,3/4F3/4B3/4] B,,/4 [F,/B,/] [=A,,,/=A,,/=A3/4=a3/4] [A,,,/4A,,/4] [^A,,,/^A,,/^A3/4^a3/4] [A,,,/4A,,/4] 
[B,,,/B,,/B3/4b3/4] [B,,,/4B,,/4] [f3/4f'3/4^F,,3/4F,3/4] [e/e'/E,,/E,/] [d/=d'/=D,,/=D,/] [B/4f/4b/4B,,,3/4B,,3/4] [B/f/b/] [=A/=a/=A,,,/=A,,/] [^A/^a/^A,,,/A,,/] 
[B/f/b/B,,,/B,,/] z/4 [bb'B,,,,B,,,] 
