X: 1
T: Memes aka Freaks - When Mom Isn't Home (Trumpet) 
Z: ABC Generated by Starbound Composer v0.8.7
L: 1/4
M: 4/4
Q: 1/4=130
K: C
M: 4/4
F,,3/4 C,/8 z/8 F,/4 z/4 F,/4 z/4 F,/4 z/4 F,/4 z/4 F,/4 z/4 C,/4 z/4 
^C,/4 z/4 F,/4 z/4 F,/4 z/4 C,/4 z/4 =C,3/ z/ 
F,,3/4 C,/8 z/8 F,/4 z/4 F,/4 z/4 F,/4 z/4 F,/4 z/4 F,/4 z/4 C,/4 z/4 
^C,/4 z/4 =C,/4 z/4 ^G,,/4 z/4 =G,,/4 z/4 F,,2 
F,,3/4 C,/8 z/8 F,/4 z/4 F,/4 z/4 F,/4 z/4 F,/4 z/4 F,/4 z/4 C,/4 z/4 
^C,/4 z/4 F,/4 z/4 F,/4 z/4 C,/4 z/4 =C,3/ z/ 
F,,3/4 C,/8 z/8 F,/4 z/4 F,/4 z/4 F,/4 z/4 F,/4 z/4 F,/4 z/4 C,/4 z/4 
^C,/4 z/4 =C,/4 z/4 ^G,,/4 z/4 =G,,/4 z/4 F,,2 
M: 4/4
F,,3/4 C,/8 z/8 F,/4 z/4 F,/4 z/4 F,/4 z/4 F,/4 z/4 F,/4 z/4 C,/4 z/4 
^C,/4 z/4 F,/4 z/4 F,/4 z/4 C,/4 z/4 =C,3/ z/ 
F,,3/4 C,/8 z/8 F,/4 z/4 F,/4 z/4 F,/4 z/4 F,/4 z/4 F,/4 z/4 C,/4 z/4 
^C,/4 z/4 =C,/4 z/4 ^G,,/4 z/4 =G,,/4 z/4 F,,2 
F,,3/4 C,/8 z/8 F,/4 z/4 F,/4 z/4 F,/4 z/4 F,/4 z/4 F,/4 z/4 C,/4 z/4 
^C,/4 z/4 F,/4 z/4 F,/4 z/4 C,/4 z/4 =C,3/ z/ 
F,,3/4 C,/8 z/8 F,/4 z/4 F,/4 z/4 F,/4 z/4 F,/4 z/4 F,/4 z/4 C,/4 z/4 
^C,/4 z/4 =C,/4 z/4 ^G,,/4 z/4 =G,,/4 z/4 F,,2 
M: 4/4
F,,3/4 C,/8 z/8 F,/4 z/4 F,/4 z/4 F,/4 z/4 F,/4 z/4 F,/4 z/4 C,/4 z/4 
^C,/4 z/4 F,/4 z/4 F,/4 z/4 C,/4 z/4 =C,3/ z/ 
F,,3/4 C,/8 z/8 F,/4 z/4 F,/4 z/4 F,/4 z/4 F,/4 z/4 F,/4 z/4 C,/4 z/4 
^C,/4 z/4 =C,/4 z/4 ^G,,/4 z/4 =G,,/4 z/4 F,,2 
F,,3/4 C,/8 z/8 F,/4 z/4 F,/4 z/4 F,/4 z/4 F,/4 z/4 F,/4 z/4 C,/4 z/4 
^C,/4 z/4 F,/4 z/4 F,/4 z/4 C,/4 z/4 =C,3/ z/ 
F,,3/4 C,/8 z/8 F,/4 z/4 F,/4 z/4 F,/4 z/4 F,/4 z/4 F,/4 z/4 C,/4 z/4 
^C,/4 z/4 =C,/4 z/4 ^G,,/4 z/4 =G,,/4 z/4 F,,2 
M: 4/4
F,,3/4 C,/8 z/8 F,/4 z/4 F,/4 z/4 F,/4 z/4 F,/4 z/4 F,/4 z/4 C,/4 z/4 
^C,/4 z/4 F,/4 z/4 F,/4 z/4 C,/4 z/4 =C,3/ z/ 
F,,3/4 C,/8 z/8 F,/4 z/4 F,/4 z/4 F,/4 z/4 F,/4 z/4 F,/4 z/4 C,/4 z/4 
^C,/4 z/4 =C,/4 z/4 ^G,,/4 z/4 =G,,/4 z/4 F,,2 
F,,3/4 C,/8 z/8 F,/4 z/4 F,/4 z/4 F,/4 z/4 F,/4 z/4 F,/4 z/4 C,/4 z/4 
^C,/4 z/4 F,/4 z/4 F,/4 z/4 C,/4 z/4 =C,3/ z/ 
F,,3/4 C,/8 z/8 F,/4 z/4 F,/4 z/4 F,/4 z/4 F,/4 z/4 F,/4 z/4 C,/4 z/4 
^C,/4 z/4 =C,/4 z/4 ^G,,/4 z/4 =G,,/4 z/4 F,,2 
M: 4/4
F,,3/4 C,/8 z/8 F,/4 z/4 F,/4 z/4 F,/4 z/4 F,/4 z/4 F,/4 z/4 C,/4 z/4 
^C,/4 z/4 F,/4 z/4 F,/4 z/4 C,/4 z/4 =C,3/ z/ 
F,,3/4 C,/8 z/8 F,/4 z/4 F,/4 z/4 F,/4 z/4 F,/4 z/4 F,/4 z/4 C,/4 z/4 
^C,/4 z/4 =C,/4 z/4 ^G,,/4 z/4 =G,,/4 z/4 F,,2 
F,,3/4 C,/8 z/8 F,/4 z/4 F,/4 z/4 F,/4 z/4 F,/4 z/4 F,/4 z/4 C,/4 z/4 
^C,/4 z/4 F,/4 z/4 F,/4 z/4 C,/4 z/4 =C,3/ z/ 
F,,3/4 C,/8 z/8 F,/4 z/4 F,/4 z/4 F,/4 z/4 F,/4 z/4 F,/4 z/4 C,/4 z/4 
^C,/4 z/4 =C,/4 z/4 ^G,,/4 z/4 =G,,/4 z/4 F,,2 
M: 4/4
F,,3/4 C,/8 z/8 F,/4 z/4 F,/4 z/4 F,/4 z/4 F,/4 z/4 F,/4 z/4 C,/4 z/4 
^C,/4 z/4 F,/4 z/4 F,/4 z/4 C,/4 z/4 =C,3/ z/ 
F,,3/4 C,/8 z/8 F,/4 z/4 F,/4 z/4 F,/4 z/4 F,/4 z/4 F,/4 z/4 C,/4 z/4 
^C,/4 z/4 =C,/4 z/4 ^G,,/4 z/4 =G,,/4 z/4 F,,2 
F,,3/4 C,/8 z/8 F,/4 z/4 F,/4 z/4 F,/4 z/4 F,/4 z/4 F,/4 z/4 C,/4 z/4 
^C,/4 z/4 F,/4 z/4 F,/4 z/4 C,/4 z/4 =C,3/ z/ 
F,,3/4 C,/8 z/8 F,/4 z/4 F,/4 z/4 F,/4 z/4 F,/4 z/4 F,/4 z/4 C,/4 z/4 
^C,/4 z/4 =C,/4 z/4 ^G,,/4 z/4 =G,,/4 z/4 F,,2 
M: 4/4
F,,3/4 C,/8 z/8 F,/4 z/4 F,/4 z/4 F,/4 z/4 F,/4 z/4 F,/4 z/4 C,/4 z/4 
^C,/4 z/4 F,/4 z/4 F,/4 z/4 C,/4 z/4 =C,3/ z/ 
F,,3/4 C,/8 z/8 F,/4 z/4 F,/4 z/4 F,/4 z/4 F,/4 z/4 F,/4 z/4 C,/4 z/4 
^C,/4 z/4 =C,/4 z/4 ^G,,/4 z/4 =G,,/4 z/4 F,,2 
F,,3/4 C,/8 z/8 F,/4 z/4 F,/4 z/4 F,/4 z/4 F,/4 z/4 F,/4 z/4 C,/4 z/4 
^C,/4 z/4 F,/4 z/4 F,/4 z/4 C,/4 z/4 =C,3/ z/ 
F,,3/4 C,/8 z/8 F,/4 z/4 F,/4 z/4 F,/4 z/4 F,/4 z/4 F,/4 z/4 C,/4 z/4 
^C,/4 z/4 =C,/4 z/4 ^G,,/4 z/4 =G,,/4 z/4 F,,2 
M: 4/4
F,,3/4 C,/8 z/8 F,/4 z/4 F,/4 z/4 F,/4 z/4 F,/4 z/4 F,/4 z/4 C,/4 z/4 
^C,/4 z/4 F,/4 z/4 F,/4 z/4 C,/4 z/4 =C,3/ z/ 
F,,3/4 C,/8 z/8 F,/4 z/4 F,/4 z/4 F,/4 z/4 F,/4 z/4 F,/4 z/4 C,/4 z/4 
^C,/4 z/4 =C,/4 z/4 ^G,,/4 z/4 =G,,/4 z/4 F,,2 
F,,3/4 C,/8 z/8 F,/4 z/4 F,/4 z/4 F,/4 z/4 F,/4 z/4 F,/4 z/4 C,/4 z/4 
^C,/4 z/4 F,/4 z/4 F,/4 z/4 C,/4 z/4 =C,3/ z/ 
F,,3/4 C,/8 z/8 F,/4 z/4 F,/4 z/4 F,/4 z/4 F,/4 z/4 F,/4 z/4 C,/4 z/4 
^C,/4 z/4 =C,/4 z/4 ^G,,/4 z/4 =G,,/4 z/4 F,,2 
