X: 1
T: Memes - Epic Sax Man (E-Bass)
Z: ABC Generated by Starbound Composer v0.8.7
L: 1/4
M: 4/4
Q: 1/4=132
K: C
^D,,/ z D,,/ z D,,/ z/ 
B,,,/ z B,,,/ z B,,,/ z/ 
^F,,/ z F,,/ z F,,/ z/ 
^C,,/ z C,,/ z C,,/ z/ 
M: 4/4
M: 4/4
D,,/ z D,,/ z D,,/ z/ 
B,,,/ z B,,,/ z B,,,/ z/ 
F,,/ z F,,/ z F,,/ z/ 
C,,/ z C,,/ z C,,/ z/ 
D,,/ z D,,/ z D,,/ z/ 
B,,,/ z B,,,/ z B,,,/ z/ 
F,,/ z F,,/ z F,,/ z/ 
C,,/ z C,,/ z C,,/ z/ 
M: 4/4
M: 4/4
D,,/ z D,,/ z D,,/ z/ 
B,,,/ z B,,,/ z B,,,/ z/ 
F,,/ z F,,/ z F,,/ z/ 
C,,/ z C,,/ z C,,/ z/ 
D,,/ z D,,/ z D,,/ z/ 
B,,,/ z B,,,/ z B,,,/ z/ 
F,,/ z F,,/ z F,,/ z/ 
C,,/ z C,,/ z C,,/ z/ 
D,,/ z D,,/ z D,,/ z/ 
B,,,/ z B,,,/ z B,,,/ z/ 
F,,/ z F,,/ z F,,/ z/ 
C,,/ z C,,/ z C,,/ z/ 
M: 4/4
M: 4/4
D,,/ z D,,/ z D,,/ z/ 
B,,,/ z B,,,/ z B,,,/ z/ 
F,,/ z F,,/ z F,,/ z/ 
C,,/ z C,,/ z C,,/ z/ 
D,,/ z D,,/ z D,,/ z/ 
B,,,/ z B,,,/ z B,,,/ z/ 
F,,/ z F,,/ z F,,/ z/ 
C,,/ z C,,/ z C,,/ z/ 
D,,/ z D,,/ z D,,/ z/ 
B,,,/ z B,,,/ z B,,,/ z/ 
F,,/ z F,,/ z F,,/ z/ 
C,,/ z C,,/ z C,,/ z/ 
D,,/ z D,,/ z D,,/ z/ 
B,,,/ z B,,,/ z B,,,/ z/ 
F,,/ z F,,/ z F,,/ z/ 
C,,/ z C,,/ z C,,/ z/ 
M: 4/4
M: 4/4
D,,/ z D,,/ z D,,/ z/ 
B,,,/ z B,,,/ z B,,,/ z/ 
F,,/ z F,,/ z F,,/ z/ 
C,,/ z C,,/ z C,,/ z/ 
D,,/ z D,,/ z D,,/ z/ 
B,,,/ z B,,,/ z B,,,/ z/ 
F,,/ z F,,/ z F,,/ z/ 
C,,/ z C,,/ z C,,/ z/ 
D,,/ z D,,/ z D,,/ z/ 
B,,,/ z B,,,/ z B,,,/ z/ 
F,,/ z F,,/ z F,,/ z/ 
C,,/ z C,,/ z C,,/ z/ 
D,,/ z D,,/ z D,,/ z/ 
B,,,/ z B,,,/ z B,,,/ z/ 
F,,/ z F,,/ z F,,/ z/ 
C,,/ z C,,/ z C,,/ z/ 
D,,/ z D,,/ z D,,/ z/ 
B,,,/ z B,,,/ z B,,,/ z/ 
F,,/ z F,,/ z F,,/ z/ 
C,,/ z C,,/ z C,,/ z/ 
M: 4/4
M: 4/4
D,,/ z D,,/ z D,,/ z/ 
B,,,/ z B,,,/ z B,,,/ z/ 
F,,/ z F,,/ z F,,/ z/ 
C,,/ z C,,/ z C,,/ z/ 
D,,/ z D,,/ z D,,/ z/ 
B,,,/ z B,,,/ z B,,,/ z/ 
F,,/ z F,,/ z F,,/ z/ 
C,,/ z C,,/ z C,,/ z/ 
D,,/ z D,,/ z D,,/ z/ 
B,,,/ z B,,,/ z B,,,/ z/ 
F,,/ z F,,/ z F,,/ z/ 
C,,/ z C,,/ z C,,/ z/ 
D,,/ z D,,/ z D,,/ z/ 
B,,,/ z B,,,/ z B,,,/ z/ 
F,,/ z F,,/ z F,,/ z/ 
C,,/ z C,,/ z C,,/ z/ 
D,,/ z D,,/ z D,,/ z/ 
B,,,/ z B,,,/ z B,,,/ z/ 
F,,/ z F,,/ z F,,/ z/ 
C,,/ z C,,/ z C,,/ z/ 
D,,/ z D,,/ z D,,/ z/ 
B,,,/ z B,,,/ z B,,,/ z/ 
F,,/ z F,,/ z F,,/ z/ 
C,,/ z C,,/ z C,,/ z/ 
M: 4/4
M: 4/4
D,,/ z D,,/ z D,,/ z/ 
B,,,/ z B,,,/ z B,,,/ z/ 
F,,/ z F,,/ z F,,/ z/ 
C,,/ z C,,/ z C,,/ z/ 
D,,/ z D,,/ z D,,/ z/ 
B,,,/ z B,,,/ z B,,,/ z/ 
F,,/ z F,,/ z F,,/ z/ 
C,,/ z C,,/ z C,,/ z/ 
D,,/ z D,,/ z D,,/ z/ 
B,,,/ z B,,,/ z B,,,/ z/ 
F,,/ z F,,/ z F,,/ z/ 
C,,/ z C,,/ z C,,/ z/ 
D,,/ z D,,/ z D,,/ z/ 
B,,,/ z B,,,/ z B,,,/ z/ 
F,,/ z F,,/ z F,,/ z/ 
C,,/ z C,,/ z C,,/ z/ 
D,,/ z D,,/ z D,,/ z/ 
B,,,/ z B,,,/ z B,,,/ z/ 
F,,/ z F,,/ z F,,/ z/ 
C,,/ z C,,/ z C,,/ z/ 
D,,/ z D,,/ z D,,/ z/ 
B,,,/ z B,,,/ z B,,,/ z/ 
F,,/ z F,,/ z F,,/ z/ 
C,,/ z C,,/ z C,,/ z/ 
D,,/ z D,,/ z D,,/ z/ 
B,,,/ z B,,,/ z B,,,/ z/ 
F,,/ z F,,/ z F,,/ z/ 
C,,/ z C,,/ z C,,/ z/ 
M: 4/4
M: 4/4
D,,/ z D,,/ z D,,/ z/ 
B,,,/ z B,,,/ z B,,,/ z/ 
F,,/ z F,,/ z F,,/ z/ 
C,,/ z C,,/ z C,,/ z/ 
D,,/ z D,,/ z D,,/ z/ 
B,,,/ z B,,,/ z B,,,/ z/ 
F,,/ z F,,/ z F,,/ z/ 
C,,/ z C,,/ z C,,/ z/ 
D,,/ z D,,/ z D,,/ z/ 
B,,,/ z B,,,/ z B,,,/ z/ 
F,,/ z F,,/ z F,,/ z/ 
C,,/ z C,,/ z C,,/ z/ 
D,,/ z D,,/ z D,,/ z/ 
B,,,/ z B,,,/ z B,,,/ z/ 
F,,/ z F,,/ z F,,/ z/ 
C,,/ z C,,/ z C,,/ z/ 
D,,/ z D,,/ z D,,/ z/ 
B,,,/ z B,,,/ z B,,,/ z/ 
F,,/ z F,,/ z F,,/ z/ 
C,,/ z C,,/ z C,,/ z/ 
D,,/ z D,,/ z D,,/ z/ 
B,,,/ z B,,,/ z B,,,/ z/ 
F,,/ z F,,/ z F,,/ z/ 
C,,/ z C,,/ z C,,/ z/ 
D,,/ z D,,/ z D,,/ z/ 
B,,,/ z B,,,/ z B,,,/ z/ 
F,,/ z F,,/ z F,,/ z/ 
C,,/ z C,,/ z C,,/ z/ 
D,,/ z D,,/ z D,,/ z/ 
B,,,/ z B,,,/ z B,,,/ z/ 
F,,/ z F,,/ z F,,/ z/ 
C,,/ z C,,/ z C,,/ z/ 
M: 4/4
M: 4/4
D,,/ z D,,/ z D,,/ z/ 
B,,,/ z B,,,/ z B,,,/ z/ 
F,,/ z F,,/ z F,,/ z/ 
C,,/ z C,,/ z C,,/ z/ 
D,,/ z D,,/ z D,,/ z/ 
B,,,/ z B,,,/ z B,,,/ z/ 
F,,/ z F,,/ z F,,/ z/ 
C,,/ z C,,/ z C,,/ z/ 
D,,/ z D,,/ z D,,/ z/ 
B,,,/ z B,,,/ z B,,,/ z/ 
F,,/ z F,,/ z F,,/ z/ 
C,,/ z C,,/ z C,,/ z/ 
D,,/ z D,,/ z D,,/ z/ 
B,,,/ z B,,,/ z B,,,/ z/ 
F,,/ z F,,/ z F,,/ z/ 
C,,/ z C,,/ z C,,/ z/ 
D,,/ z D,,/ z D,,/ z/ 
B,,,/ z B,,,/ z B,,,/ z/ 
F,,/ z F,,/ z F,,/ z/ 
C,,/ z C,,/ z C,,/ z/ 
D,,/ z D,,/ z D,,/ z/ 
B,,,/ z B,,,/ z B,,,/ z/ 
F,,/ z F,,/ z F,,/ z/ 
C,,/ z C,,/ z C,,/ z/ 
D,,/ z D,,/ z D,,/ z/ 
B,,,/ z B,,,/ z B,,,/ z/ 
F,,/ z F,,/ z F,,/ z/ 
C,,/ z C,,/ z C,,/ z/ 
D,,/ z D,,/ z D,,/ z/ 
B,,,/ z B,,,/ z B,,,/ z/ 
F,,/ z F,,/ z F,,/ z/ 
C,,/ z C,,/ z C,,/ z/ 
D,,/ z D,,/ z D,,/ z/ 
B,,,/ z B,,,/ z B,,,/ z/ 
F,,/ z F,,/ z F,,/ z/ 
C,,/ z C,,/ z C,,/ z/ 
M: 4/4
M: 4/4
D,,/ z D,,/ z D,,/ z/ 
B,,,/ z B,,,/ z B,,,/ z/ 
F,,/ z F,,/ z F,,/ z/ 
C,,/ z C,,/ z C,,/ z/ 
D,,/ z D,,/ z D,,/ z/ 
B,,,/ z B,,,/ z B,,,/ z/ 
F,,/ z F,,/ z F,,/ z/ 
C,,/ z C,,/ z C,,/ z/ 
D,,/ z D,,/ z D,,/ z/ 
B,,,/ z B,,,/ z B,,,/ z/ 
F,,/ z F,,/ z F,,/ z/ 
C,,/ z C,,/ z C,,/ z/ 
D,,/ z D,,/ z D,,/ z/ 
B,,,/ z B,,,/ z B,,,/ z/ 
F,,/ z F,,/ z F,,/ z/ 
C,,/ z C,,/ z C,,/ z/ 
D,,/ z D,,/ z D,,/ z/ 
B,,,/ z B,,,/ z B,,,/ z/ 
F,,/ z F,,/ z F,,/ z/ 
C,,/ z C,,/ z C,,/ z/ 
D,,/ z D,,/ z D,,/ z/ 
B,,,/ z B,,,/ z B,,,/ z/ 
F,,/ z F,,/ z F,,/ z/ 
C,,/ z C,,/ z C,,/ z/ 
D,,/ z D,,/ z D,,/ z/ 
B,,,/ z B,,,/ z B,,,/ z/ 
F,,/ z F,,/ z F,,/ z/ 
C,,/ z C,,/ z C,,/ z/ 
D,,/ z D,,/ z D,,/ z/ 
B,,,/ z B,,,/ z B,,,/ z/ 
F,,/ z F,,/ z F,,/ z/ 
C,,/ z C,,/ z C,,/ z/ 
D,,/ z D,,/ z D,,/ z/ 
B,,,/ z B,,,/ z B,,,/ z/ 
F,,/ z F,,/ z F,,/ z/ 
C,,/ z C,,/ z C,,/ z/ 
D,,/ z D,,/ z D,,/ z/ 
B,,,/ z B,,,/ z B,,,/ z/ 
F,,/ z F,,/ z F,,/ z/ 
C,,/ z C,,/ z C,,/ z/ 
M: 4/4
M: 4/4
D,,/ z D,,/ z D,,/ z/ 
B,,,/ z B,,,/ z B,,,/ z/ 
F,,/ z F,,/ z F,,/ z/ 
C,,/ z C,,/ z C,,/ z/ 
D,,/ z D,,/ z D,,/ z/ 
B,,,/ z B,,,/ z B,,,/ z/ 
F,,/ z F,,/ z F,,/ z/ 
C,,/ z C,,/ z C,,/ z/ 
D,,/ z D,,/ z D,,/ z/ 
B,,,/ z B,,,/ z B,,,/ z/ 
F,,/ z F,,/ z F,,/ z/ 
C,,/ z C,,/ z C,,/ z/ 
D,,/ z D,,/ z D,,/ z/ 
B,,,/ z B,,,/ z B,,,/ z/ 
F,,/ z F,,/ z F,,/ z/ 
C,,/ z C,,/ z C,,/ z/ 
D,,/ z D,,/ z D,,/ z/ 
B,,,/ z B,,,/ z B,,,/ z/ 
F,,/ z F,,/ z F,,/ z/ 
C,,/ z C,,/ z C,,/ z/ 
D,,/ z D,,/ z D,,/ z/ 
B,,,/ z B,,,/ z B,,,/ z/ 
F,,/ z F,,/ z F,,/ z/ 
C,,/ z C,,/ z C,,/ z/ 
D,,/ z D,,/ z D,,/ z/ 
B,,,/ z B,,,/ z B,,,/ z/ 
F,,/ z F,,/ z F,,/ z/ 
C,,/ z C,,/ z C,,/ z/ 
D,,/ z D,,/ z D,,/ z/ 
B,,,/ z B,,,/ z B,,,/ z/ 
F,,/ z F,,/ z F,,/ z/ 
C,,/ z C,,/ z C,,/ z/ 
D,,/ z D,,/ z D,,/ z/ 
B,,,/ z B,,,/ z B,,,/ z/ 
F,,/ z F,,/ z F,,/ z/ 
C,,/ z C,,/ z C,,/ z/ 
D,,/ z D,,/ z D,,/ z/ 
B,,,/ z B,,,/ z B,,,/ z/ 
F,,/ z F,,/ z F,,/ z/ 
C,,/ z C,,/ z C,,/ z/ 
D,,/ z D,,/ z D,,/ z/ 
B,,,/ z B,,,/ z B,,,/ z/ 
F,,/ z F,,/ z F,,/ z/ 
C,,/ z C,,/ z C,,/ z/ 
M: 4/4
M: 4/4
D,,/ z D,,/ z D,,/ z/ 
B,,,/ z B,,,/ z B,,,/ z/ 
F,,/ z F,,/ z F,,/ z/ 
C,,/ z C,,/ z C,,/ z/ 
D,,/ z D,,/ z D,,/ z/ 
B,,,/ z B,,,/ z B,,,/ z/ 
F,,/ z F,,/ z F,,/ z/ 
C,,/ z C,,/ z C,,/ z/ 
D,,/ z D,,/ z D,,/ z/ 
B,,,/ z B,,,/ z B,,,/ z/ 
F,,/ z F,,/ z F,,/ z/ 
C,,/ z C,,/ z C,,/ z/ 
D,,/ z D,,/ z D,,/ z/ 
B,,,/ z B,,,/ z B,,,/ z/ 
F,,/ z F,,/ z F,,/ z/ 
C,,/ z C,,/ z C,,/ z/ 
D,,/ z D,,/ z D,,/ z/ 
B,,,/ z B,,,/ z B,,,/ z/ 
F,,/ z F,,/ z F,,/ z/ 
C,,/ z C,,/ z C,,/ z/ 
D,,/ z D,,/ z D,,/ z/ 
B,,,/ z B,,,/ z B,,,/ z/ 
F,,/ z F,,/ z F,,/ z/ 
C,,/ z C,,/ z C,,/ z/ 
D,,/ z D,,/ z D,,/ z/ 
B,,,/ z B,,,/ z B,,,/ z/ 
F,,/ z F,,/ z F,,/ z/ 
C,,/ z C,,/ z C,,/ z/ 
D,,/ z D,,/ z D,,/ z/ 
B,,,/ z B,,,/ z B,,,/ z/ 
F,,/ z F,,/ z F,,/ z/ 
C,,/ z C,,/ z C,,/ z/ 
D,,/ z D,,/ z D,,/ z/ 
B,,,/ z B,,,/ z B,,,/ z/ 
F,,/ z F,,/ z F,,/ z/ 
C,,/ z C,,/ z C,,/ z/ 
D,,/ z D,,/ z D,,/ z/ 
B,,,/ z B,,,/ z B,,,/ z/ 
F,,/ z F,,/ z F,,/ z/ 
C,,/ z C,,/ z C,,/ z/ 
D,,/ z D,,/ z D,,/ z/ 
B,,,/ z B,,,/ z B,,,/ z/ 
F,,/ z F,,/ z F,,/ z/ 
C,,/ z C,,/ z C,,/ z/ 
D,,/ z D,,/ z D,,/ z/ 
B,,,/ z B,,,/ z B,,,/ z/ 
F,,/ z F,,/ z F,,/ z/ 
C,,/ z C,,/ z C,,/ z/ 
M: 4/4
M: 4/4
D,,/ z D,,/ z D,,/ z/ 
B,,,/ z B,,,/ z B,,,/ z/ 
F,,/ z F,,/ z F,,/ z/ 
C,,/ z C,,/ z C,,/ z/ 
D,,/ z D,,/ z D,,/ z/ 
B,,,/ z B,,,/ z B,,,/ z/ 
F,,/ z F,,/ z F,,/ z/ 
C,,/ z C,,/ z C,,/ z/ 
D,,/ z D,,/ z D,,/ z/ 
B,,,/ z B,,,/ z B,,,/ z/ 
F,,/ z F,,/ z F,,/ z/ 
C,,/ z C,,/ z C,,/ z/ 
D,,/ z D,,/ z D,,/ z/ 
B,,,/ z B,,,/ z B,,,/ z/ 
F,,/ z F,,/ z F,,/ z/ 
C,,/ z C,,/ z C,,/ z/ 
D,,/ z D,,/ z D,,/ z/ 
B,,,/ z B,,,/ z B,,,/ z/ 
F,,/ z F,,/ z F,,/ z/ 
C,,/ z C,,/ z C,,/ z/ 
D,,/ z D,,/ z D,,/ z/ 
B,,,/ z B,,,/ z B,,,/ z/ 
F,,/ z F,,/ z F,,/ z/ 
C,,/ z C,,/ z C,,/ z/ 
D,,/ z D,,/ z D,,/ z/ 
B,,,/ z B,,,/ z B,,,/ z/ 
F,,/ z F,,/ z F,,/ z/ 
C,,/ z C,,/ z C,,/ z/ 
D,,/ z D,,/ z D,,/ z/ 
B,,,/ z B,,,/ z B,,,/ z/ 
F,,/ z F,,/ z F,,/ z/ 
C,,/ z C,,/ z C,,/ z/ 
D,,/ z D,,/ z D,,/ z/ 
B,,,/ z B,,,/ z B,,,/ z/ 
F,,/ z F,,/ z F,,/ z/ 
C,,/ z C,,/ z C,,/ z/ 
D,,/ z D,,/ z D,,/ z/ 
B,,,/ z B,,,/ z B,,,/ z/ 
F,,/ z F,,/ z F,,/ z/ 
C,,/ z C,,/ z C,,/ z/ 
D,,/ z D,,/ z D,,/ z/ 
B,,,/ z B,,,/ z B,,,/ z/ 
F,,/ z F,,/ z F,,/ z/ 
C,,/ z C,,/ z C,,/ z/ 
D,,/ z D,,/ z D,,/ z/ 
B,,,/ z B,,,/ z B,,,/ z/ 
F,,/ z F,,/ z F,,/ z/ 
C,,/ z C,,/ z C,,/ z/ 
D,,/ z D,,/ z D,,/ z/ 
B,,,/ z B,,,/ z B,,,/ z/ 
F,,/ z F,,/ z F,,/ z/ 
C,,/ z C,,/ z C,,/ z/ 
M: 4/4
M: 4/4
D,,/ z D,,/ z D,,/ z/ 
B,,,/ z B,,,/ z B,,,/ z/ 
F,,/ z F,,/ z F,,/ z/ 
C,,/ z C,,/ z C,,/ z/ 
D,,/ z D,,/ z D,,/ z/ 
B,,,/ z B,,,/ z B,,,/ z/ 
F,,/ z F,,/ z F,,/ z/ 
C,,/ z C,,/ z C,,/ z/ 
D,,/ z D,,/ z D,,/ z/ 
B,,,/ z B,,,/ z B,,,/ z/ 
F,,/ z F,,/ z F,,/ z/ 
C,,/ z C,,/ z C,,/ z/ 
D,,/ z D,,/ z D,,/ z/ 
B,,,/ z B,,,/ z B,,,/ z/ 
F,,/ z F,,/ z F,,/ z/ 
C,,/ z C,,/ z C,,/ z/ 
D,,/ z D,,/ z D,,/ z/ 
B,,,/ z B,,,/ z B,,,/ z/ 
F,,/ z F,,/ z F,,/ z/ 
C,,/ z C,,/ z C,,/ z/ 
D,,/ z D,,/ z D,,/ z/ 
B,,,/ z B,,,/ z B,,,/ z/ 
F,,/ z F,,/ z F,,/ z/ 
C,,/ z C,,/ z C,,/ z/ 
D,,/ z D,,/ z D,,/ z/ 
B,,,/ z B,,,/ z B,,,/ z/ 
F,,/ z F,,/ z F,,/ z/ 
C,,/ z C,,/ z C,,/ z/ 
D,,/ z D,,/ z D,,/ z/ 
B,,,/ z B,,,/ z B,,,/ z/ 
F,,/ z F,,/ z F,,/ z/ 
C,,/ z C,,/ z C,,/ z/ 
D,,/ z D,,/ z D,,/ z/ 
B,,,/ z B,,,/ z B,,,/ z/ 
F,,/ z F,,/ z F,,/ z/ 
C,,/ z C,,/ z C,,/ z/ 
D,,/ z D,,/ z D,,/ z/ 
B,,,/ z B,,,/ z B,,,/ z/ 
F,,/ z F,,/ z F,,/ z/ 
C,,/ z C,,/ z C,,/ z/ 
D,,/ z D,,/ z D,,/ z/ 
B,,,/ z B,,,/ z B,,,/ z/ 
F,,/ z F,,/ z F,,/ z/ 
C,,/ z C,,/ z C,,/ z/ 
D,,/ z D,,/ z D,,/ z/ 
B,,,/ z B,,,/ z B,,,/ z/ 
F,,/ z F,,/ z F,,/ z/ 
C,,/ z C,,/ z C,,/ z/ 
D,,/ z D,,/ z D,,/ z/ 
B,,,/ z B,,,/ z B,,,/ z/ 
F,,/ z F,,/ z F,,/ z/ 
C,,/ z C,,/ z C,,/ z/ 
D,,/ z D,,/ z D,,/ z/ 
B,,,/ z B,,,/ z B,,,/ z/ 
F,,/ z F,,/ z F,,/ z/ 
C,,/ z C,,/ z C,,/ z/ 
M: 4/4
M: 4/4
D,,/ z D,,/ z D,,/ z/ 
B,,,/ z B,,,/ z B,,,/ z/ 
F,,/ z F,,/ z F,,/ z/ 
C,,/ z C,,/ z C,,/ z/ 
D,,/ z D,,/ z D,,/ z/ 
B,,,/ z B,,,/ z B,,,/ z/ 
F,,/ z F,,/ z F,,/ z/ 
C,,/ z C,,/ z C,,/ z/ 
D,,/ z D,,/ z D,,/ z/ 
B,,,/ z B,,,/ z B,,,/ z/ 
F,,/ z F,,/ z F,,/ z/ 
C,,/ z C,,/ z C,,/ z/ 
D,,/ z D,,/ z D,,/ z/ 
B,,,/ z B,,,/ z B,,,/ z/ 
F,,/ z F,,/ z F,,/ z/ 
C,,/ z C,,/ z C,,/ z/ 
D,,/ z D,,/ z D,,/ z/ 
B,,,/ z B,,,/ z B,,,/ z/ 
F,,/ z F,,/ z F,,/ z/ 
C,,/ z C,,/ z C,,/ z/ 
D,,/ z D,,/ z D,,/ z/ 
B,,,/ z B,,,/ z B,,,/ z/ 
F,,/ z F,,/ z F,,/ z/ 
C,,/ z C,,/ z C,,/ z/ 
D,,/ z D,,/ z D,,/ z/ 
B,,,/ z B,,,/ z B,,,/ z/ 
F,,/ z F,,/ z F,,/ z/ 
C,,/ z C,,/ z C,,/ z/ 
D,,/ z D,,/ z D,,/ z/ 
B,,,/ z B,,,/ z B,,,/ z/ 
F,,/ z F,,/ z F,,/ z/ 
C,,/ z C,,/ z C,,/ z/ 
D,,/ z D,,/ z D,,/ z/ 
B,,,/ z B,,,/ z B,,,/ z/ 
F,,/ z F,,/ z F,,/ z/ 
C,,/ z C,,/ z C,,/ z/ 
D,,/ z D,,/ z D,,/ z/ 
B,,,/ z B,,,/ z B,,,/ z/ 
F,,/ z F,,/ z F,,/ z/ 
C,,/ z C,,/ z C,,/ z/ 
D,,/ z D,,/ z D,,/ z/ 
B,,,/ z B,,,/ z B,,,/ z/ 
F,,/ z F,,/ z F,,/ z/ 
C,,/ z C,,/ z C,,/ z/ 
D,,/ z D,,/ z D,,/ z/ 
B,,,/ z B,,,/ z B,,,/ z/ 
F,,/ z F,,/ z F,,/ z/ 
C,,/ z C,,/ z C,,/ z/ 
D,,/ z D,,/ z D,,/ z/ 
B,,,/ z B,,,/ z B,,,/ z/ 
F,,/ z F,,/ z F,,/ z/ 
C,,/ z C,,/ z C,,/ z/ 
D,,/ z D,,/ z D,,/ z/ 
B,,,/ z B,,,/ z B,,,/ z/ 
F,,/ z F,,/ z F,,/ z/ 
C,,/ z C,,/ z C,,/ z/ 
D,,/ z D,,/ z D,,/ z/ 
B,,,/ z B,,,/ z B,,,/ z/ 
F,,/ z F,,/ z F,,/ z/ 
C,,/ z C,,/ z C,,/ z/ 
M: 4/4
M: 4/4
D,,/ z D,,/ z D,,/ z/ 
B,,,/ z B,,,/ z B,,,/ z/ 
F,,/ z F,,/ z F,,/ z/ 
C,,/ z C,,/ z C,,/ z/ 
D,,/ z D,,/ z D,,/ z/ 
B,,,/ z B,,,/ z B,,,/ z/ 
F,,/ z F,,/ z F,,/ z/ 
C,,/ z C,,/ z C,,/ z/ 
D,,/ z D,,/ z D,,/ z/ 
B,,,/ z B,,,/ z B,,,/ z/ 
F,,/ z F,,/ z F,,/ z/ 
C,,/ z C,,/ z C,,/ z/ 
D,,/ z D,,/ z D,,/ z/ 
B,,,/ z B,,,/ z B,,,/ z/ 
F,,/ z F,,/ z F,,/ z/ 
C,,/ z C,,/ z C,,/ z/ 
D,,/ z D,,/ z D,,/ z/ 
B,,,/ z B,,,/ z B,,,/ z/ 
F,,/ z F,,/ z F,,/ z/ 
C,,/ z C,,/ z C,,/ z/ 
D,,/ z D,,/ z D,,/ z/ 
B,,,/ z B,,,/ z B,,,/ z/ 
F,,/ z F,,/ z F,,/ z/ 
C,,/ z C,,/ z C,,/ z/ 
D,,/ z D,,/ z D,,/ z/ 
B,,,/ z B,,,/ z B,,,/ z/ 
F,,/ z F,,/ z F,,/ z/ 
C,,/ z C,,/ z C,,/ z/ 
D,,/ z D,,/ z D,,/ z/ 
B,,,/ z B,,,/ z B,,,/ z/ 
F,,/ z F,,/ z F,,/ z/ 
C,,/ z C,,/ z C,,/ z/ 
D,,/ z D,,/ z D,,/ z/ 
B,,,/ z B,,,/ z B,,,/ z/ 
F,,/ z F,,/ z F,,/ z/ 
C,,/ z C,,/ z C,,/ z/ 
D,,/ z D,,/ z D,,/ z/ 
B,,,/ z B,,,/ z B,,,/ z/ 
F,,/ z F,,/ z F,,/ z/ 
C,,/ z C,,/ z C,,/ z/ 
D,,/ z D,,/ z D,,/ z/ 
B,,,/ z B,,,/ z B,,,/ z/ 
F,,/ z F,,/ z F,,/ z/ 
C,,/ z C,,/ z C,,/ z/ 
D,,/ z D,,/ z D,,/ z/ 
B,,,/ z B,,,/ z B,,,/ z/ 
F,,/ z F,,/ z F,,/ z/ 
C,,/ z C,,/ z C,,/ z/ 
D,,/ z D,,/ z D,,/ z/ 
B,,,/ z B,,,/ z B,,,/ z/ 
F,,/ z F,,/ z F,,/ z/ 
C,,/ z C,,/ z C,,/ z/ 
D,,/ z D,,/ z D,,/ z/ 
B,,,/ z B,,,/ z B,,,/ z/ 
F,,/ z F,,/ z F,,/ z/ 
C,,/ z C,,/ z C,,/ z/ 
D,,/ z D,,/ z D,,/ z/ 
B,,,/ z B,,,/ z B,,,/ z/ 
F,,/ z F,,/ z F,,/ z/ 
C,,/ z C,,/ z C,,/ z/ 
D,,/ z D,,/ z D,,/ z/ 
B,,,/ z B,,,/ z B,,,/ z/ 
F,,/ z F,,/ z F,,/ z/ 
C,,/ z C,,/ z C,,/ z/ 
M: 4/4
M: 4/4
D,,/ z D,,/ z D,,/ z/ 
B,,,/ z B,,,/ z B,,,/ z/ 
F,,/ z F,,/ z F,,/ z/ 
C,,/ z C,,/ z C,,/ z/ 
D,,/ z D,,/ z D,,/ z/ 
B,,,/ z B,,,/ z B,,,/ z/ 
F,,/ z F,,/ z F,,/ z/ 
C,,/ z C,,/ z C,,/ z/ 
D,,/ z D,,/ z D,,/ z/ 
B,,,/ z B,,,/ z B,,,/ z/ 
F,,/ z F,,/ z F,,/ z/ 
C,,/ z C,,/ z C,,/ z/ 
D,,/ z D,,/ z D,,/ z/ 
B,,,/ z B,,,/ z B,,,/ z/ 
F,,/ z F,,/ z F,,/ z/ 
C,,/ z C,,/ z C,,/ z/ 
D,,/ z D,,/ z D,,/ z/ 
B,,,/ z B,,,/ z B,,,/ z/ 
F,,/ z F,,/ z F,,/ z/ 
C,,/ z C,,/ z C,,/ z/ 
D,,/ z D,,/ z D,,/ z/ 
B,,,/ z B,,,/ z B,,,/ z/ 
F,,/ z F,,/ z F,,/ z/ 
C,,/ z C,,/ z C,,/ z/ 
D,,/ z D,,/ z D,,/ z/ 
B,,,/ z B,,,/ z B,,,/ z/ 
F,,/ z F,,/ z F,,/ z/ 
C,,/ z C,,/ z C,,/ z/ 
D,,/ z D,,/ z D,,/ z/ 
B,,,/ z B,,,/ z B,,,/ z/ 
F,,/ z F,,/ z F,,/ z/ 
C,,/ z C,,/ z C,,/ z/ 
D,,/ z D,,/ z D,,/ z/ 
B,,,/ z B,,,/ z B,,,/ z/ 
F,,/ z F,,/ z F,,/ z/ 
C,,/ z C,,/ z C,,/ z/ 
D,,/ z D,,/ z D,,/ z/ 
B,,,/ z B,,,/ z B,,,/ z/ 
F,,/ z F,,/ z F,,/ z/ 
C,,/ z C,,/ z C,,/ z/ 
D,,/ z D,,/ z D,,/ z/ 
B,,,/ z B,,,/ z B,,,/ z/ 
F,,/ z F,,/ z F,,/ z/ 
C,,/ z C,,/ z C,,/ z/ 
D,,/ z D,,/ z D,,/ z/ 
B,,,/ z B,,,/ z B,,,/ z/ 
F,,/ z F,,/ z F,,/ z/ 
C,,/ z C,,/ z C,,/ z/ 
D,,/ z D,,/ z D,,/ z/ 
B,,,/ z B,,,/ z B,,,/ z/ 
F,,/ z F,,/ z F,,/ z/ 
C,,/ z C,,/ z C,,/ z/ 
D,,/ z D,,/ z D,,/ z/ 
B,,,/ z B,,,/ z B,,,/ z/ 
F,,/ z F,,/ z F,,/ z/ 
C,,/ z C,,/ z C,,/ z/ 
D,,/ z D,,/ z D,,/ z/ 
B,,,/ z B,,,/ z B,,,/ z/ 
F,,/ z F,,/ z F,,/ z/ 
C,,/ z C,,/ z C,,/ z/ 
D,,/ z D,,/ z D,,/ z/ 
B,,,/ z B,,,/ z B,,,/ z/ 
F,,/ z F,,/ z F,,/ z/ 
C,,/ z C,,/ z C,,/ z/ 
D,,/ z D,,/ z D,,/ z/ 
B,,,/ z B,,,/ z B,,,/ z/ 
F,,/ z F,,/ z F,,/ z/ 
C,,/ z C,,/ z C,,/ z/ 
M: 4/4
M: 4/4
D,,/ z D,,/ z D,,/ z/ 
B,,,/ z B,,,/ z B,,,/ z/ 
F,,/ z F,,/ z F,,/ z/ 
C,,/ z C,,/ z C,,/ z/ 
D,,/ z D,,/ z D,,/ z/ 
B,,,/ z B,,,/ z B,,,/ z/ 
F,,/ z F,,/ z F,,/ z/ 
C,,/ z C,,/ z C,,/ z/ 
D,,/ z D,,/ z D,,/ z/ 
B,,,/ z B,,,/ z B,,,/ z/ 
F,,/ z F,,/ z F,,/ z/ 
C,,/ z C,,/ z C,,/ z/ 
D,,/ z D,,/ z D,,/ z/ 
B,,,/ z B,,,/ z B,,,/ z/ 
F,,/ z F,,/ z F,,/ z/ 
C,,/ z C,,/ z C,,/ z/ 
D,,/ z D,,/ z D,,/ z/ 
B,,,/ z B,,,/ z B,,,/ z/ 
F,,/ z F,,/ z F,,/ z/ 
C,,/ z C,,/ z C,,/ z/ 
D,,/ z D,,/ z D,,/ z/ 
B,,,/ z B,,,/ z B,,,/ z/ 
F,,/ z F,,/ z F,,/ z/ 
C,,/ z C,,/ z C,,/ z/ 
D,,/ z D,,/ z D,,/ z/ 
B,,,/ z B,,,/ z B,,,/ z/ 
F,,/ z F,,/ z F,,/ z/ 
C,,/ z C,,/ z C,,/ z/ 
D,,/ z D,,/ z D,,/ z/ 
B,,,/ z B,,,/ z B,,,/ z/ 
F,,/ z F,,/ z F,,/ z/ 
C,,/ z C,,/ z C,,/ z/ 
D,,/ z D,,/ z D,,/ z/ 
B,,,/ z B,,,/ z B,,,/ z/ 
F,,/ z F,,/ z F,,/ z/ 
C,,/ z C,,/ z C,,/ z/ 
D,,/ z D,,/ z D,,/ z/ 
B,,,/ z B,,,/ z B,,,/ z/ 
F,,/ z F,,/ z F,,/ z/ 
C,,/ z C,,/ z C,,/ z/ 
D,,/ z D,,/ z D,,/ z/ 
B,,,/ z B,,,/ z B,,,/ z/ 
F,,/ z F,,/ z F,,/ z/ 
C,,/ z C,,/ z C,,/ z/ 
D,,/ z D,,/ z D,,/ z/ 
B,,,/ z B,,,/ z B,,,/ z/ 
F,,/ z F,,/ z F,,/ z/ 
C,,/ z C,,/ z C,,/ z/ 
D,,/ z D,,/ z D,,/ z/ 
B,,,/ z B,,,/ z B,,,/ z/ 
F,,/ z F,,/ z F,,/ z/ 
C,,/ z C,,/ z C,,/ z/ 
D,,/ z D,,/ z D,,/ z/ 
B,,,/ z B,,,/ z B,,,/ z/ 
F,,/ z F,,/ z F,,/ z/ 
C,,/ z C,,/ z C,,/ z/ 
D,,/ z D,,/ z D,,/ z/ 
B,,,/ z B,,,/ z B,,,/ z/ 
F,,/ z F,,/ z F,,/ z/ 
C,,/ z C,,/ z C,,/ z/ 
D,,/ z D,,/ z D,,/ z/ 
B,,,/ z B,,,/ z B,,,/ z/ 
F,,/ z F,,/ z F,,/ z/ 
C,,/ z C,,/ z C,,/ z/ 
D,,/ z D,,/ z D,,/ z/ 
B,,,/ z B,,,/ z B,,,/ z/ 
F,,/ z F,,/ z F,,/ z/ 
C,,/ z C,,/ z C,,/ z/ 
D,,/ z D,,/ z D,,/ z/ 
B,,,/ z B,,,/ z B,,,/ z/ 
F,,/ z F,,/ z F,,/ z/ 
C,,/ z C,,/ z C,,/ z/ 
M: 4/4
M: 4/4
D,,/ z D,,/ z D,,/ z/ 
B,,,/ z B,,,/ z B,,,/ z/ 
F,,/ z F,,/ z F,,/ z/ 
C,,/ z C,,/ z C,,/ z/ 
D,,/ z D,,/ z D,,/ z/ 
B,,,/ z B,,,/ z B,,,/ z/ 
F,,/ z F,,/ z F,,/ z/ 
C,,/ z C,,/ z C,,/ z/ 
D,,/ z D,,/ z D,,/ z/ 
B,,,/ z B,,,/ z B,,,/ z/ 
F,,/ z F,,/ z F,,/ z/ 
C,,/ z C,,/ z C,,/ z/ 
D,,/ z D,,/ z D,,/ z/ 
B,,,/ z B,,,/ z B,,,/ z/ 
F,,/ z F,,/ z F,,/ z/ 
C,,/ z C,,/ z C,,/ z/ 
D,,/ z D,,/ z D,,/ z/ 
B,,,/ z B,,,/ z B,,,/ z/ 
F,,/ z F,,/ z F,,/ z/ 
C,,/ z C,,/ z C,,/ z/ 
D,,/ z D,,/ z D,,/ z/ 
B,,,/ z B,,,/ z B,,,/ z/ 
F,,/ z F,,/ z F,,/ z/ 
C,,/ z C,,/ z C,,/ z/ 
D,,/ z D,,/ z D,,/ z/ 
B,,,/ z B,,,/ z B,,,/ z/ 
F,,/ z F,,/ z F,,/ z/ 
C,,/ z C,,/ z C,,/ z/ 
D,,/ z D,,/ z D,,/ z/ 
B,,,/ z B,,,/ z B,,,/ z/ 
F,,/ z F,,/ z F,,/ z/ 
C,,/ z C,,/ z C,,/ z/ 
D,,/ z D,,/ z D,,/ z/ 
B,,,/ z B,,,/ z B,,,/ z/ 
F,,/ z F,,/ z F,,/ z/ 
C,,/ z C,,/ z C,,/ z/ 
D,,/ z D,,/ z D,,/ z/ 
B,,,/ z B,,,/ z B,,,/ z/ 
F,,/ z F,,/ z F,,/ z/ 
C,,/ z C,,/ z C,,/ z/ 
D,,/ z D,,/ z D,,/ z/ 
B,,,/ z B,,,/ z B,,,/ z/ 
F,,/ z F,,/ z F,,/ z/ 
C,,/ z C,,/ z C,,/ z/ 
D,,/ z D,,/ z D,,/ z/ 
B,,,/ z B,,,/ z B,,,/ z/ 
F,,/ z F,,/ z F,,/ z/ 
C,,/ z C,,/ z C,,/ z/ 
D,,/ z D,,/ z D,,/ z/ 
B,,,/ z B,,,/ z B,,,/ z/ 
F,,/ z F,,/ z F,,/ z/ 
C,,/ z C,,/ z C,,/ z/ 
D,,/ z D,,/ z D,,/ z/ 
B,,,/ z B,,,/ z B,,,/ z/ 
F,,/ z F,,/ z F,,/ z/ 
C,,/ z C,,/ z C,,/ z/ 
D,,/ z D,,/ z D,,/ z/ 
B,,,/ z B,,,/ z B,,,/ z/ 
F,,/ z F,,/ z F,,/ z/ 
C,,/ z C,,/ z C,,/ z/ 
D,,/ z D,,/ z D,,/ z/ 
B,,,/ z B,,,/ z B,,,/ z/ 
F,,/ z F,,/ z F,,/ z/ 
C,,/ z C,,/ z C,,/ z/ 
D,,/ z D,,/ z D,,/ z/ 
B,,,/ z B,,,/ z B,,,/ z/ 
F,,/ z F,,/ z F,,/ z/ 
C,,/ z C,,/ z C,,/ z/ 
D,,/ z D,,/ z D,,/ z/ 
B,,,/ z B,,,/ z B,,,/ z/ 
F,,/ z F,,/ z F,,/ z/ 
C,,/ z C,,/ z C,,/ z/ 
D,,/ z D,,/ z D,,/ z/ 
B,,,/ z B,,,/ z B,,,/ z/ 
F,,/ z F,,/ z F,,/ z/ 
C,,/ z C,,/ z C,,/ z/ 
M: 4/4
M: 4/4
D,,/ z D,,/ z D,,/ z/ 
B,,,/ z B,,,/ z B,,,/ z/ 
F,,/ z F,,/ z F,,/ z/ 
C,,/ z C,,/ z C,,/ z/ 
D,,/ z D,,/ z D,,/ z/ 
B,,,/ z B,,,/ z B,,,/ z/ 
F,,/ z F,,/ z F,,/ z/ 
C,,/ z C,,/ z C,,/ z/ 
D,,/ z D,,/ z D,,/ z/ 
B,,,/ z B,,,/ z B,,,/ z/ 
F,,/ z F,,/ z F,,/ z/ 
C,,/ z C,,/ z C,,/ z/ 
D,,/ z D,,/ z D,,/ z/ 
B,,,/ z B,,,/ z B,,,/ z/ 
F,,/ z F,,/ z F,,/ z/ 
C,,/ z C,,/ z C,,/ z/ 
D,,/ z D,,/ z D,,/ z/ 
B,,,/ z B,,,/ z B,,,/ z/ 
F,,/ z F,,/ z F,,/ z/ 
C,,/ z C,,/ z C,,/ z/ 
D,,/ z D,,/ z D,,/ z/ 
B,,,/ z B,,,/ z B,,,/ z/ 
F,,/ z F,,/ z F,,/ z/ 
C,,/ z C,,/ z C,,/ z/ 
D,,/ z D,,/ z D,,/ z/ 
B,,,/ z B,,,/ z B,,,/ z/ 
F,,/ z F,,/ z F,,/ z/ 
C,,/ z C,,/ z C,,/ z/ 
D,,/ z D,,/ z D,,/ z/ 
B,,,/ z B,,,/ z B,,,/ z/ 
F,,/ z F,,/ z F,,/ z/ 
C,,/ z C,,/ z C,,/ z/ 
D,,/ z D,,/ z D,,/ z/ 
B,,,/ z B,,,/ z B,,,/ z/ 
F,,/ z F,,/ z F,,/ z/ 
C,,/ z C,,/ z C,,/ z/ 
D,,/ z D,,/ z D,,/ z/ 
B,,,/ z B,,,/ z B,,,/ z/ 
F,,/ z F,,/ z F,,/ z/ 
C,,/ z C,,/ z C,,/ z/ 
D,,/ z D,,/ z D,,/ z/ 
B,,,/ z B,,,/ z B,,,/ z/ 
F,,/ z F,,/ z F,,/ z/ 
C,,/ z C,,/ z C,,/ z/ 
D,,/ z D,,/ z D,,/ z/ 
B,,,/ z B,,,/ z B,,,/ z/ 
F,,/ z F,,/ z F,,/ z/ 
C,,/ z C,,/ z C,,/ z/ 
D,,/ z D,,/ z D,,/ z/ 
B,,,/ z B,,,/ z B,,,/ z/ 
F,,/ z F,,/ z F,,/ z/ 
C,,/ z C,,/ z C,,/ z/ 
D,,/ z D,,/ z D,,/ z/ 
B,,,/ z B,,,/ z B,,,/ z/ 
F,,/ z F,,/ z F,,/ z/ 
C,,/ z C,,/ z C,,/ z/ 
D,,/ z D,,/ z D,,/ z/ 
B,,,/ z B,,,/ z B,,,/ z/ 
F,,/ z F,,/ z F,,/ z/ 
C,,/ z C,,/ z C,,/ z/ 
D,,/ z D,,/ z D,,/ z/ 
B,,,/ z B,,,/ z B,,,/ z/ 
F,,/ z F,,/ z F,,/ z/ 
C,,/ z C,,/ z C,,/ z/ 
D,,/ z D,,/ z D,,/ z/ 
B,,,/ z B,,,/ z B,,,/ z/ 
F,,/ z F,,/ z F,,/ z/ 
C,,/ z C,,/ z C,,/ z/ 
D,,/ z D,,/ z D,,/ z/ 
B,,,/ z B,,,/ z B,,,/ z/ 
F,,/ z F,,/ z F,,/ z/ 
C,,/ z C,,/ z C,,/ z/ 
D,,/ z D,,/ z D,,/ z/ 
B,,,/ z B,,,/ z B,,,/ z/ 
F,,/ z F,,/ z F,,/ z/ 
C,,/ z C,,/ z C,,/ z/ 
D,,/ z D,,/ z D,,/ z/ 
B,,,/ z B,,,/ z B,,,/ z/ 
F,,/ z F,,/ z F,,/ z/ 
C,,/ z C,,/ z C,,/ z/ 
M: 4/4
M: 4/4
D,,/ z D,,/ z D,,/ z/ 
B,,,/ z B,,,/ z B,,,/ z/ 
F,,/ z F,,/ z F,,/ z/ 
C,,/ z C,,/ z C,,/ z/ 
D,,/ z D,,/ z D,,/ z/ 
B,,,/ z B,,,/ z B,,,/ z/ 
F,,/ z F,,/ z F,,/ z/ 
C,,/ z C,,/ z C,,/ z/ 
D,,/ z D,,/ z D,,/ z/ 
B,,,/ z B,,,/ z B,,,/ z/ 
F,,/ z F,,/ z F,,/ z/ 
C,,/ z C,,/ z C,,/ z/ 
D,,/ z D,,/ z D,,/ z/ 
B,,,/ z B,,,/ z B,,,/ z/ 
F,,/ z F,,/ z F,,/ z/ 
C,,/ z C,,/ z C,,/ z/ 
D,,/ z D,,/ z D,,/ z/ 
B,,,/ z B,,,/ z B,,,/ z/ 
F,,/ z F,,/ z F,,/ z/ 
C,,/ z C,,/ z C,,/ z/ 
D,,/ z D,,/ z D,,/ z/ 
B,,,/ z B,,,/ z B,,,/ z/ 
F,,/ z F,,/ z F,,/ z/ 
C,,/ z C,,/ z C,,/ z/ 
D,,/ z D,,/ z D,,/ z/ 
B,,,/ z B,,,/ z B,,,/ z/ 
F,,/ z F,,/ z F,,/ z/ 
C,,/ z C,,/ z C,,/ z/ 
D,,/ z D,,/ z D,,/ z/ 
B,,,/ z B,,,/ z B,,,/ z/ 
F,,/ z F,,/ z F,,/ z/ 
C,,/ z C,,/ z C,,/ z/ 
D,,/ z D,,/ z D,,/ z/ 
B,,,/ z B,,,/ z B,,,/ z/ 
F,,/ z F,,/ z F,,/ z/ 
C,,/ z C,,/ z C,,/ z/ 
D,,/ z D,,/ z D,,/ z/ 
B,,,/ z B,,,/ z B,,,/ z/ 
F,,/ z F,,/ z F,,/ z/ 
C,,/ z C,,/ z C,,/ z/ 
D,,/ z D,,/ z D,,/ z/ 
B,,,/ z B,,,/ z B,,,/ z/ 
F,,/ z F,,/ z F,,/ z/ 
C,,/ z C,,/ z C,,/ z/ 
D,,/ z D,,/ z D,,/ z/ 
B,,,/ z B,,,/ z B,,,/ z/ 
F,,/ z F,,/ z F,,/ z/ 
C,,/ z C,,/ z C,,/ z/ 
D,,/ z D,,/ z D,,/ z/ 
B,,,/ z B,,,/ z B,,,/ z/ 
F,,/ z F,,/ z F,,/ z/ 
C,,/ z C,,/ z C,,/ z/ 
D,,/ z D,,/ z D,,/ z/ 
B,,,/ z B,,,/ z B,,,/ z/ 
F,,/ z F,,/ z F,,/ z/ 
C,,/ z C,,/ z C,,/ z/ 
D,,/ z D,,/ z D,,/ z/ 
B,,,/ z B,,,/ z B,,,/ z/ 
F,,/ z F,,/ z F,,/ z/ 
C,,/ z C,,/ z C,,/ z/ 
D,,/ z D,,/ z D,,/ z/ 
B,,,/ z B,,,/ z B,,,/ z/ 
F,,/ z F,,/ z F,,/ z/ 
C,,/ z C,,/ z C,,/ z/ 
D,,/ z D,,/ z D,,/ z/ 
B,,,/ z B,,,/ z B,,,/ z/ 
F,,/ z F,,/ z F,,/ z/ 
C,,/ z C,,/ z C,,/ z/ 
D,,/ z D,,/ z D,,/ z/ 
B,,,/ z B,,,/ z B,,,/ z/ 
F,,/ z F,,/ z F,,/ z/ 
C,,/ z C,,/ z C,,/ z/ 
D,,/ z D,,/ z D,,/ z/ 
B,,,/ z B,,,/ z B,,,/ z/ 
F,,/ z F,,/ z F,,/ z/ 
C,,/ z C,,/ z C,,/ z/ 
D,,/ z D,,/ z D,,/ z/ 
B,,,/ z B,,,/ z B,,,/ z/ 
F,,/ z F,,/ z F,,/ z/ 
C,,/ z C,,/ z C,,/ z/ 
D,,/ z D,,/ z D,,/ z/ 
B,,,/ z B,,,/ z B,,,/ z/ 
F,,/ z F,,/ z F,,/ z/ 
C,,/ z C,,/ z C,,/ z/ 
M: 4/4
M: 4/4
D,,/ z D,,/ z D,,/ z/ 
B,,,/ z B,,,/ z B,,,/ z/ 
F,,/ z F,,/ z F,,/ z/ 
C,,/ z C,,/ z C,,/ z/ 
D,,/ z D,,/ z D,,/ z/ 
B,,,/ z B,,,/ z B,,,/ z/ 
F,,/ z F,,/ z F,,/ z/ 
C,,/ z C,,/ z C,,/ z/ 
D,,/ z D,,/ z D,,/ z/ 
B,,,/ z B,,,/ z B,,,/ z/ 
F,,/ z F,,/ z F,,/ z/ 
C,,/ z C,,/ z C,,/ z/ 
D,,/ z D,,/ z D,,/ z/ 
B,,,/ z B,,,/ z B,,,/ z/ 
F,,/ z F,,/ z F,,/ z/ 
C,,/ z C,,/ z C,,/ z/ 
D,,/ z D,,/ z D,,/ z/ 
B,,,/ z B,,,/ z B,,,/ z/ 
F,,/ z F,,/ z F,,/ z/ 
C,,/ z C,,/ z C,,/ z/ 
D,,/ z D,,/ z D,,/ z/ 
B,,,/ z B,,,/ z B,,,/ z/ 
F,,/ z F,,/ z F,,/ z/ 
C,,/ z C,,/ z C,,/ z/ 
D,,/ z D,,/ z D,,/ z/ 
B,,,/ z B,,,/ z B,,,/ z/ 
F,,/ z F,,/ z F,,/ z/ 
C,,/ z C,,/ z C,,/ z/ 
D,,/ z D,,/ z D,,/ z/ 
B,,,/ z B,,,/ z B,,,/ z/ 
F,,/ z F,,/ z F,,/ z/ 
C,,/ z C,,/ z C,,/ z/ 
D,,/ z D,,/ z D,,/ z/ 
B,,,/ z B,,,/ z B,,,/ z/ 
F,,/ z F,,/ z F,,/ z/ 
C,,/ z C,,/ z C,,/ z/ 
D,,/ z D,,/ z D,,/ z/ 
B,,,/ z B,,,/ z B,,,/ z/ 
F,,/ z F,,/ z F,,/ z/ 
C,,/ z C,,/ z C,,/ z/ 
D,,/ z D,,/ z D,,/ z/ 
B,,,/ z B,,,/ z B,,,/ z/ 
F,,/ z F,,/ z F,,/ z/ 
C,,/ z C,,/ z C,,/ z/ 
D,,/ z D,,/ z D,,/ z/ 
B,,,/ z B,,,/ z B,,,/ z/ 
F,,/ z F,,/ z F,,/ z/ 
C,,/ z C,,/ z C,,/ z/ 
D,,/ z D,,/ z D,,/ z/ 
B,,,/ z B,,,/ z B,,,/ z/ 
F,,/ z F,,/ z F,,/ z/ 
C,,/ z C,,/ z C,,/ z/ 
D,,/ z D,,/ z D,,/ z/ 
B,,,/ z B,,,/ z B,,,/ z/ 
F,,/ z F,,/ z F,,/ z/ 
C,,/ z C,,/ z C,,/ z/ 
D,,/ z D,,/ z D,,/ z/ 
B,,,/ z B,,,/ z B,,,/ z/ 
F,,/ z F,,/ z F,,/ z/ 
C,,/ z C,,/ z C,,/ z/ 
D,,/ z D,,/ z D,,/ z/ 
B,,,/ z B,,,/ z B,,,/ z/ 
F,,/ z F,,/ z F,,/ z/ 
C,,/ z C,,/ z C,,/ z/ 
D,,/ z D,,/ z D,,/ z/ 
B,,,/ z B,,,/ z B,,,/ z/ 
F,,/ z F,,/ z F,,/ z/ 
C,,/ z C,,/ z C,,/ z/ 
D,,/ z D,,/ z D,,/ z/ 
B,,,/ z B,,,/ z B,,,/ z/ 
F,,/ z F,,/ z F,,/ z/ 
C,,/ z C,,/ z C,,/ z/ 
D,,/ z D,,/ z D,,/ z/ 
B,,,/ z B,,,/ z B,,,/ z/ 
F,,/ z F,,/ z F,,/ z/ 
C,,/ z C,,/ z C,,/ z/ 
D,,/ z D,,/ z D,,/ z/ 
B,,,/ z B,,,/ z B,,,/ z/ 
F,,/ z F,,/ z F,,/ z/ 
C,,/ z C,,/ z C,,/ z/ 
D,,/ z D,,/ z D,,/ z/ 
B,,,/ z B,,,/ z B,,,/ z/ 
F,,/ z F,,/ z F,,/ z/ 
C,,/ z C,,/ z C,,/ z/ 
D,,/ z D,,/ z D,,/ z/ 
B,,,/ z B,,,/ z B,,,/ z/ 
F,,/ z F,,/ z F,,/ z/ 
C,,/ z C,,/ z C,,/ z/ 
M: 4/4
M: 4/4
D,,/ z D,,/ z D,,/ z/ 
B,,,/ z B,,,/ z B,,,/ z/ 
F,,/ z F,,/ z F,,/ z/ 
C,,/ z C,,/ z C,,/ z/ 
D,,/ z D,,/ z D,,/ z/ 
B,,,/ z B,,,/ z B,,,/ z/ 
F,,/ z F,,/ z F,,/ z/ 
C,,/ z C,,/ z C,,/ z/ 
D,,/ z D,,/ z D,,/ z/ 
B,,,/ z B,,,/ z B,,,/ z/ 
F,,/ z F,,/ z F,,/ z/ 
C,,/ z C,,/ z C,,/ z/ 
D,,/ z D,,/ z D,,/ z/ 
B,,,/ z B,,,/ z B,,,/ z/ 
F,,/ z F,,/ z F,,/ z/ 
C,,/ z C,,/ z C,,/ z/ 
D,,/ z D,,/ z D,,/ z/ 
B,,,/ z B,,,/ z B,,,/ z/ 
F,,/ z F,,/ z F,,/ z/ 
C,,/ z C,,/ z C,,/ z/ 
D,,/ z D,,/ z D,,/ z/ 
B,,,/ z B,,,/ z B,,,/ z/ 
F,,/ z F,,/ z F,,/ z/ 
C,,/ z C,,/ z C,,/ z/ 
D,,/ z D,,/ z D,,/ z/ 
B,,,/ z B,,,/ z B,,,/ z/ 
F,,/ z F,,/ z F,,/ z/ 
C,,/ z C,,/ z C,,/ z/ 
D,,/ z D,,/ z D,,/ z/ 
B,,,/ z B,,,/ z B,,,/ z/ 
F,,/ z F,,/ z F,,/ z/ 
C,,/ z C,,/ z C,,/ z/ 
D,,/ z D,,/ z D,,/ z/ 
B,,,/ z B,,,/ z B,,,/ z/ 
F,,/ z F,,/ z F,,/ z/ 
C,,/ z C,,/ z C,,/ z/ 
D,,/ z D,,/ z D,,/ z/ 
B,,,/ z B,,,/ z B,,,/ z/ 
F,,/ z F,,/ z F,,/ z/ 
C,,/ z C,,/ z C,,/ z/ 
D,,/ z D,,/ z D,,/ z/ 
B,,,/ z B,,,/ z B,,,/ z/ 
F,,/ z F,,/ z F,,/ z/ 
C,,/ z C,,/ z C,,/ z/ 
D,,/ z D,,/ z D,,/ z/ 
B,,,/ z B,,,/ z B,,,/ z/ 
F,,/ z F,,/ z F,,/ z/ 
C,,/ z C,,/ z C,,/ z/ 
D,,/ z D,,/ z D,,/ z/ 
B,,,/ z B,,,/ z B,,,/ z/ 
F,,/ z F,,/ z F,,/ z/ 
C,,/ z C,,/ z C,,/ z/ 
D,,/ z D,,/ z D,,/ z/ 
B,,,/ z B,,,/ z B,,,/ z/ 
F,,/ z F,,/ z F,,/ z/ 
C,,/ z C,,/ z C,,/ z/ 
D,,/ z D,,/ z D,,/ z/ 
B,,,/ z B,,,/ z B,,,/ z/ 
F,,/ z F,,/ z F,,/ z/ 
C,,/ z C,,/ z C,,/ z/ 
D,,/ z D,,/ z D,,/ z/ 
B,,,/ z B,,,/ z B,,,/ z/ 
F,,/ z F,,/ z F,,/ z/ 
C,,/ z C,,/ z C,,/ z/ 
D,,/ z D,,/ z D,,/ z/ 
B,,,/ z B,,,/ z B,,,/ z/ 
F,,/ z F,,/ z F,,/ z/ 
C,,/ z C,,/ z C,,/ z/ 
D,,/ z D,,/ z D,,/ z/ 
B,,,/ z B,,,/ z B,,,/ z/ 
F,,/ z F,,/ z F,,/ z/ 
C,,/ z C,,/ z C,,/ z/ 
D,,/ z D,,/ z D,,/ z/ 
B,,,/ z B,,,/ z B,,,/ z/ 
F,,/ z F,,/ z F,,/ z/ 
C,,/ z C,,/ z C,,/ z/ 
D,,/ z D,,/ z D,,/ z/ 
B,,,/ z B,,,/ z B,,,/ z/ 
F,,/ z F,,/ z F,,/ z/ 
C,,/ z C,,/ z C,,/ z/ 
D,,/ z D,,/ z D,,/ z/ 
B,,,/ z B,,,/ z B,,,/ z/ 
F,,/ z F,,/ z F,,/ z/ 
C,,/ z C,,/ z C,,/ z/ 
D,,/ z D,,/ z D,,/ z/ 
B,,,/ z B,,,/ z B,,,/ z/ 
F,,/ z F,,/ z F,,/ z/ 
C,,/ z C,,/ z C,,/ z/ 
D,,/ z D,,/ z D,,/ z/ 
B,,,/ z B,,,/ z B,,,/ z/ 
F,,/ z F,,/ z F,,/ z/ 
C,,/ z C,,/ z C,,/ z/ 
M: 4/4
M: 4/4
D,,/ z D,,/ z D,,/ z/ 
B,,,/ z B,,,/ z B,,,/ z/ 
F,,/ z F,,/ z F,,/ z/ 
C,,/ z C,,/ z C,,/ z/ 
D,,/ z D,,/ z D,,/ z/ 
B,,,/ z B,,,/ z B,,,/ z/ 
F,,/ z F,,/ z F,,/ z/ 
C,,/ z C,,/ z C,,/ z/ 
D,,/ z D,,/ z D,,/ z/ 
B,,,/ z B,,,/ z B,,,/ z/ 
F,,/ z F,,/ z F,,/ z/ 
C,,/ z C,,/ z C,,/ z/ 
D,,/ z D,,/ z D,,/ z/ 
B,,,/ z B,,,/ z B,,,/ z/ 
F,,/ z F,,/ z F,,/ z/ 
C,,/ z C,,/ z C,,/ z/ 
D,,/ z D,,/ z D,,/ z/ 
B,,,/ z B,,,/ z B,,,/ z/ 
F,,/ z F,,/ z F,,/ z/ 
C,,/ z C,,/ z C,,/ z/ 
D,,/ z D,,/ z D,,/ z/ 
B,,,/ z B,,,/ z B,,,/ z/ 
F,,/ z F,,/ z F,,/ z/ 
C,,/ z C,,/ z C,,/ z/ 
D,,/ z D,,/ z D,,/ z/ 
B,,,/ z B,,,/ z B,,,/ z/ 
F,,/ z F,,/ z F,,/ z/ 
C,,/ z C,,/ z C,,/ z/ 
D,,/ z D,,/ z D,,/ z/ 
B,,,/ z B,,,/ z B,,,/ z/ 
F,,/ z F,,/ z F,,/ z/ 
C,,/ z C,,/ z C,,/ z/ 
D,,/ z D,,/ z D,,/ z/ 
B,,,/ z B,,,/ z B,,,/ z/ 
F,,/ z F,,/ z F,,/ z/ 
C,,/ z C,,/ z C,,/ z/ 
D,,/ z D,,/ z D,,/ z/ 
B,,,/ z B,,,/ z B,,,/ z/ 
F,,/ z F,,/ z F,,/ z/ 
C,,/ z C,,/ z C,,/ z/ 
D,,/ z D,,/ z D,,/ z/ 
B,,,/ z B,,,/ z B,,,/ z/ 
F,,/ z F,,/ z F,,/ z/ 
C,,/ z C,,/ z C,,/ z/ 
D,,/ z D,,/ z D,,/ z/ 
B,,,/ z B,,,/ z B,,,/ z/ 
F,,/ z F,,/ z F,,/ z/ 
C,,/ z C,,/ z C,,/ z/ 
D,,/ z D,,/ z D,,/ z/ 
B,,,/ z B,,,/ z B,,,/ z/ 
F,,/ z F,,/ z F,,/ z/ 
C,,/ z C,,/ z C,,/ z/ 
D,,/ z D,,/ z D,,/ z/ 
B,,,/ z B,,,/ z B,,,/ z/ 
F,,/ z F,,/ z F,,/ z/ 
C,,/ z C,,/ z C,,/ z/ 
D,,/ z D,,/ z D,,/ z/ 
B,,,/ z B,,,/ z B,,,/ z/ 
F,,/ z F,,/ z F,,/ z/ 
C,,/ z C,,/ z C,,/ z/ 
D,,/ z D,,/ z D,,/ z/ 
B,,,/ z B,,,/ z B,,,/ z/ 
F,,/ z F,,/ z F,,/ z/ 
C,,/ z C,,/ z C,,/ z/ 
D,,/ z D,,/ z D,,/ z/ 
B,,,/ z B,,,/ z B,,,/ z/ 
F,,/ z F,,/ z F,,/ z/ 
C,,/ z C,,/ z C,,/ z/ 
D,,/ z D,,/ z D,,/ z/ 
B,,,/ z B,,,/ z B,,,/ z/ 
F,,/ z F,,/ z F,,/ z/ 
C,,/ z C,,/ z C,,/ z/ 
D,,/ z D,,/ z D,,/ z/ 
B,,,/ z B,,,/ z B,,,/ z/ 
F,,/ z F,,/ z F,,/ z/ 
C,,/ z C,,/ z C,,/ z/ 
D,,/ z D,,/ z D,,/ z/ 
B,,,/ z B,,,/ z B,,,/ z/ 
F,,/ z F,,/ z F,,/ z/ 
C,,/ z C,,/ z C,,/ z/ 
D,,/ z D,,/ z D,,/ z/ 
B,,,/ z B,,,/ z B,,,/ z/ 
F,,/ z F,,/ z F,,/ z/ 
C,,/ z C,,/ z C,,/ z/ 
D,,/ z D,,/ z D,,/ z/ 
B,,,/ z B,,,/ z B,,,/ z/ 
F,,/ z F,,/ z F,,/ z/ 
C,,/ z C,,/ z C,,/ z/ 
D,,/ z D,,/ z D,,/ z/ 
B,,,/ z B,,,/ z B,,,/ z/ 
F,,/ z F,,/ z F,,/ z/ 
C,,/ z C,,/ z C,,/ z/ 
D,,/ z D,,/ z D,,/ z/ 
B,,,/ z B,,,/ z B,,,/ z/ 
F,,/ z F,,/ z F,,/ z/ 
C,,/ z C,,/ z C,,/ z/ 
M: 4/4
M: 4/4
D,,/ z D,,/ z D,,/ z/ 
B,,,/ z B,,,/ z B,,,/ z/ 
F,,/ z F,,/ z F,,/ z/ 
C,,/ z C,,/ z C,,/ z/ 
D,,/ z D,,/ z D,,/ z/ 
B,,,/ z B,,,/ z B,,,/ z/ 
F,,/ z F,,/ z F,,/ z/ 
C,,/ z C,,/ z C,,/ z/ 
D,,/ z D,,/ z D,,/ z/ 
B,,,/ z B,,,/ z B,,,/ z/ 
F,,/ z F,,/ z F,,/ z/ 
C,,/ z C,,/ z C,,/ z/ 
D,,/ z D,,/ z D,,/ z/ 
B,,,/ z B,,,/ z B,,,/ z/ 
F,,/ z F,,/ z F,,/ z/ 
C,,/ z C,,/ z C,,/ z/ 
D,,/ z D,,/ z D,,/ z/ 
B,,,/ z B,,,/ z B,,,/ z/ 
F,,/ z F,,/ z F,,/ z/ 
C,,/ z C,,/ z C,,/ z/ 
D,,/ z D,,/ z D,,/ z/ 
B,,,/ z B,,,/ z B,,,/ z/ 
F,,/ z F,,/ z F,,/ z/ 
C,,/ z C,,/ z C,,/ z/ 
D,,/ z D,,/ z D,,/ z/ 
B,,,/ z B,,,/ z B,,,/ z/ 
F,,/ z F,,/ z F,,/ z/ 
C,,/ z C,,/ z C,,/ z/ 
D,,/ z D,,/ z D,,/ z/ 
B,,,/ z B,,,/ z B,,,/ z/ 
F,,/ z F,,/ z F,,/ z/ 
C,,/ z C,,/ z C,,/ z/ 
D,,/ z D,,/ z D,,/ z/ 
B,,,/ z B,,,/ z B,,,/ z/ 
F,,/ z F,,/ z F,,/ z/ 
C,,/ z C,,/ z C,,/ z/ 
D,,/ z D,,/ z D,,/ z/ 
B,,,/ z B,,,/ z B,,,/ z/ 
F,,/ z F,,/ z F,,/ z/ 
C,,/ z C,,/ z C,,/ z/ 
D,,/ z D,,/ z D,,/ z/ 
B,,,/ z B,,,/ z B,,,/ z/ 
F,,/ z F,,/ z F,,/ z/ 
C,,/ z C,,/ z C,,/ z/ 
D,,/ z D,,/ z D,,/ z/ 
B,,,/ z B,,,/ z B,,,/ z/ 
F,,/ z F,,/ z F,,/ z/ 
C,,/ z C,,/ z C,,/ z/ 
D,,/ z D,,/ z D,,/ z/ 
B,,,/ z B,,,/ z B,,,/ z/ 
F,,/ z F,,/ z F,,/ z/ 
C,,/ z C,,/ z C,,/ z/ 
D,,/ z D,,/ z D,,/ z/ 
B,,,/ z B,,,/ z B,,,/ z/ 
F,,/ z F,,/ z F,,/ z/ 
C,,/ z C,,/ z C,,/ z/ 
D,,/ z D,,/ z D,,/ z/ 
B,,,/ z B,,,/ z B,,,/ z/ 
F,,/ z F,,/ z F,,/ z/ 
C,,/ z C,,/ z C,,/ z/ 
D,,/ z D,,/ z D,,/ z/ 
B,,,/ z B,,,/ z B,,,/ z/ 
F,,/ z F,,/ z F,,/ z/ 
C,,/ z C,,/ z C,,/ z/ 
D,,/ z D,,/ z D,,/ z/ 
B,,,/ z B,,,/ z B,,,/ z/ 
F,,/ z F,,/ z F,,/ z/ 
C,,/ z C,,/ z C,,/ z/ 
D,,/ z D,,/ z D,,/ z/ 
B,,,/ z B,,,/ z B,,,/ z/ 
F,,/ z F,,/ z F,,/ z/ 
C,,/ z C,,/ z C,,/ z/ 
D,,/ z D,,/ z D,,/ z/ 
B,,,/ z B,,,/ z B,,,/ z/ 
F,,/ z F,,/ z F,,/ z/ 
C,,/ z C,,/ z C,,/ z/ 
D,,/ z D,,/ z D,,/ z/ 
B,,,/ z B,,,/ z B,,,/ z/ 
F,,/ z F,,/ z F,,/ z/ 
C,,/ z C,,/ z C,,/ z/ 
D,,/ z D,,/ z D,,/ z/ 
B,,,/ z B,,,/ z B,,,/ z/ 
F,,/ z F,,/ z F,,/ z/ 
C,,/ z C,,/ z C,,/ z/ 
D,,/ z D,,/ z D,,/ z/ 
B,,,/ z B,,,/ z B,,,/ z/ 
F,,/ z F,,/ z F,,/ z/ 
C,,/ z C,,/ z C,,/ z/ 
D,,/ z D,,/ z D,,/ z/ 
B,,,/ z B,,,/ z B,,,/ z/ 
F,,/ z F,,/ z F,,/ z/ 
C,,/ z C,,/ z C,,/ z/ 
D,,/ z D,,/ z D,,/ z/ 
B,,,/ z B,,,/ z B,,,/ z/ 
F,,/ z F,,/ z F,,/ z/ 
C,,/ z C,,/ z C,,/ z/ 
D,,/ z D,,/ z D,,/ z/ 
B,,,/ z B,,,/ z B,,,/ z/ 
F,,/ z F,,/ z F,,/ z/ 
C,,/ z C,,/ z C,,/ z/ 
M: 4/4
M: 4/4
D,,/ z D,,/ z D,,/ z/ 
B,,,/ z B,,,/ z B,,,/ z/ 
F,,/ z F,,/ z F,,/ z/ 
C,,/ z C,,/ z C,,/ z/ 
D,,/ z D,,/ z D,,/ z/ 
B,,,/ z B,,,/ z B,,,/ z/ 
F,,/ z F,,/ z F,,/ z/ 
C,,/ z C,,/ z C,,/ z/ 
D,,/ z D,,/ z D,,/ z/ 
B,,,/ z B,,,/ z B,,,/ z/ 
F,,/ z F,,/ z F,,/ z/ 
C,,/ z C,,/ z C,,/ z/ 
D,,/ z D,,/ z D,,/ z/ 
B,,,/ z B,,,/ z B,,,/ z/ 
F,,/ z F,,/ z F,,/ z/ 
C,,/ z C,,/ z C,,/ z/ 
D,,/ z D,,/ z D,,/ z/ 
B,,,/ z B,,,/ z B,,,/ z/ 
F,,/ z F,,/ z F,,/ z/ 
C,,/ z C,,/ z C,,/ z/ 
D,,/ z D,,/ z D,,/ z/ 
B,,,/ z B,,,/ z B,,,/ z/ 
F,,/ z F,,/ z F,,/ z/ 
C,,/ z C,,/ z C,,/ z/ 
D,,/ z D,,/ z D,,/ z/ 
B,,,/ z B,,,/ z B,,,/ z/ 
F,,/ z F,,/ z F,,/ z/ 
C,,/ z C,,/ z C,,/ z/ 
D,,/ z D,,/ z D,,/ z/ 
B,,,/ z B,,,/ z B,,,/ z/ 
F,,/ z F,,/ z F,,/ z/ 
C,,/ z C,,/ z C,,/ z/ 
D,,/ z D,,/ z D,,/ z/ 
B,,,/ z B,,,/ z B,,,/ z/ 
F,,/ z F,,/ z F,,/ z/ 
C,,/ z C,,/ z C,,/ z/ 
D,,/ z D,,/ z D,,/ z/ 
B,,,/ z B,,,/ z B,,,/ z/ 
F,,/ z F,,/ z F,,/ z/ 
C,,/ z C,,/ z C,,/ z/ 
D,,/ z D,,/ z D,,/ z/ 
B,,,/ z B,,,/ z B,,,/ z/ 
F,,/ z F,,/ z F,,/ z/ 
C,,/ z C,,/ z C,,/ z/ 
D,,/ z D,,/ z D,,/ z/ 
B,,,/ z B,,,/ z B,,,/ z/ 
F,,/ z F,,/ z F,,/ z/ 
C,,/ z C,,/ z C,,/ z/ 
D,,/ z D,,/ z D,,/ z/ 
B,,,/ z B,,,/ z B,,,/ z/ 
F,,/ z F,,/ z F,,/ z/ 
C,,/ z C,,/ z C,,/ z/ 
D,,/ z D,,/ z D,,/ z/ 
B,,,/ z B,,,/ z B,,,/ z/ 
F,,/ z F,,/ z F,,/ z/ 
C,,/ z C,,/ z C,,/ z/ 
D,,/ z D,,/ z D,,/ z/ 
B,,,/ z B,,,/ z B,,,/ z/ 
F,,/ z F,,/ z F,,/ z/ 
C,,/ z C,,/ z C,,/ z/ 
D,,/ z D,,/ z D,,/ z/ 
B,,,/ z B,,,/ z B,,,/ z/ 
F,,/ z F,,/ z F,,/ z/ 
C,,/ z C,,/ z C,,/ z/ 
D,,/ z D,,/ z D,,/ z/ 
B,,,/ z B,,,/ z B,,,/ z/ 
F,,/ z F,,/ z F,,/ z/ 
C,,/ z C,,/ z C,,/ z/ 
D,,/ z D,,/ z D,,/ z/ 
B,,,/ z B,,,/ z B,,,/ z/ 
F,,/ z F,,/ z F,,/ z/ 
C,,/ z C,,/ z C,,/ z/ 
D,,/ z D,,/ z D,,/ z/ 
B,,,/ z B,,,/ z B,,,/ z/ 
F,,/ z F,,/ z F,,/ z/ 
C,,/ z C,,/ z C,,/ z/ 
D,,/ z D,,/ z D,,/ z/ 
B,,,/ z B,,,/ z B,,,/ z/ 
F,,/ z F,,/ z F,,/ z/ 
C,,/ z C,,/ z C,,/ z/ 
D,,/ z D,,/ z D,,/ z/ 
B,,,/ z B,,,/ z B,,,/ z/ 
F,,/ z F,,/ z F,,/ z/ 
C,,/ z C,,/ z C,,/ z/ 
D,,/ z D,,/ z D,,/ z/ 
B,,,/ z B,,,/ z B,,,/ z/ 
F,,/ z F,,/ z F,,/ z/ 
C,,/ z C,,/ z C,,/ z/ 
D,,/ z D,,/ z D,,/ z/ 
B,,,/ z B,,,/ z B,,,/ z/ 
F,,/ z F,,/ z F,,/ z/ 
C,,/ z C,,/ z C,,/ z/ 
D,,/ z D,,/ z D,,/ z/ 
B,,,/ z B,,,/ z B,,,/ z/ 
F,,/ z F,,/ z F,,/ z/ 
C,,/ z C,,/ z C,,/ z/ 
D,,/ z D,,/ z D,,/ 
