X: 1
T: RWBY - This Will be The Day (Overdrive Guitar 1)
Z: ABC Generated by Starbound Composer v0.8.7
L: 1/4
M: 4/4
Q: 1/4=190
K: C
z308 
D2 C,/6 D,/6 E,/6 F,/6 G,/6 A,/6 _B,/6 C/6 D/6 E/6 F/6 G/6 
A/ _B/ A/ B/ A/ G/ F/ G/ 
A/ c d5/ 
A/ B/ A/ B/ A/ G/ F/ G 
G F E E 
F/4 E/4 [c/C/D9] [c/C/] [c/C/] [c/C/] [c/C/] [c/C/] [cC] 
[A/A,/] [GG,] [A3/A,3/] z 
[c/C/] [c/C/] [c/C/] [c/C/] [c/C/] z/4 [c/4C/4] [dD] 
[A/A,/] [GG,] [zF3/F,3/] C/4 D/4 E3/4 F/4 
E3/8 C/4 C/4 D3/8 C/8 C/4 D/4 E/4 D/8 C/4 D3/8 C/4 A,/ G,/8 B,/8 G,/3 
A,/3 G,/3 F,/4 E,/4 D,/ C,/4 D,/4 E,/4 F,/4 C,/8 D,/4 C,/3 A,,/3 G,,/3 
E,7/4 E,/ A,,3 
[c/A/] [d/B/] [cA] [B/G/] [A/F/] [cA] 
[B/G/] [A/F/] [B3G3] 
[c'2a2] [_b/4g/4] [a/4f/4] [g/4e/4] [f/4d/4] [d/4c/4] [d/4f3/4] e/4 d/4 
[c/4d3/4] B/4 c/6 [z/12B/6] [z/12e/4] A/6 [A/c2] A3/ [g/e/] [a/f/] 
[g/e/] [e/c/] [z/4A/F/] [e/4c/4] [fd] [z/4e/c/] [B/4G/4] [cA] 
[z7/8BG] [A/8F/8] [B2G2] [A3/F3/] z/ 
F/6 F/6 E/6 D/4 C3/8 D/8 C/4 D3/8 C/4 A,/4 G,3/8 A,/4 G,/4 B,3/8 G,3/8 
E,3/8 D,/8 D,/ C,/4 D,/4 E,/4 F,/4 G, F,/ D,2 
