X: 1
T: RWBY - Red Like Roses Pt 2 (Space Synth)
Z: ABC Generated by Starbound Composer v0.8.7
L: 1/4
M: 4/4
Q: 1/4=210
K: C
[B,,/B,,,32] B,,/ B,,/ B,,/ B,,/ B,,/ B,,/ B,,/ 
B,,/ B,,/ B,,/ B,,/ B,,/ B,,/ B,,/ B,,/ 
[B,,/B,8] B,,/ B,,/ B,,/ B,,/ B,,/ B,,/ B,,/ 
B,,/ B,,/ B,,/ B,,/ B,,/ B,,/ B,,/ B,,/ 
B,,/ B,,/ B,,/ B,,/ B,,/ B,,/ B,,/ B,,/ 
B,,/ B,,/ B,,/ B,,/ B,,/ B,,/ B,,/ B,,/ 
B,,/ B,,/ B,,/ B,,/ B,,/ B,,/ B,,/ B,,/ 
B,,/ B,,/ B,,/ B,,/ B,,/ B,,/ B,,/ B,,/ 
