X: 1
T: RWBY - This Will be The Day (Drum Kit)
Z: ABC Generated by Starbound Composer v0.8.7
L: 1/4
M: 4/4
Q: 1/4=190
K: C
z8 
C,,3/ E,, C,,/ G,,/ F,,/ 
C,, C,,/ E,, C,,/ [G,,F,,] 
C,, C,,/ E,, C,,/ F,,/ C,,/ 
C,, C,,/ E,, [E,,/4C,,/4] E,,/4 ^D, 
C,,3/ E,, C,,/ G,,/ F,,/ 
C,, C,,/ E,, [F,,/C,,/] [G,,/F,,/] F,,/ 
C,, C,,/ E,, C,,/ G,,/ F,,/ 
C,, C,,/ E,, C,,/ [G,,F,,] 
C,,3/ E,, C,,/ G,,/ F,,/ 
C,, C,,/ E,, C,,/ [G,,F,,] 
C,, C,,/ E,, C,,/ G,,/ F,,/ 
C,, C,,/ z5/ 
[^C,/C,,/] C,,/ [_B,,/E,,/] C,,/ B,,/ C,,/ [B,,/E,,/] C,,/ 
[B,,/C,,/] C,,/ [B,,/E,,/] C,,/ B,,/ C,,/ [B,,/E,,/] z/ 
[B,,/C,,/] C,,/ [B,,/E,,/] C,,/ B,,/ C,,/ [B,,/E,,/] C,,/ 
[B,,/C,,/] C,,/ [B,,/E,,/] C,,/ B,,/ C,,/ [B,,/E,,/] z/ 
[C,/C,,/] C,,/ [B,,/E,,/] C,,/ B,,/ C,,/ [B,,/E,,/] C,,/ 
[B,,/C,,/] C,,/ [B,,/E,,/] C,,/ B,,/ C,,/ [B,,/E,,/] z/ 
[B,,/C,,/] C,,/ [B,,/E,,/] C,,/ B,,/ C,,/ [B,,/E,,/] C,,/ 
E,,/ E,,/ E,,/ E,,/ E,,/ E,,/ E,,/ E,,/ 
C, ^F,, F,, F,, 
F,, F,, F,, [F,,/4E,,/4] E,,/4 E,,/4 E,,/4 
C, F,, F,, F,, 
F,, F,, F,, [F,,/E,,/] [C,/C,,3/] z 
[B,,E,,] [B,,/C,,/] C,,/ [B,,/E,,/] [z/C,,] B,,/ C,,/ 
[B,,E,,] [B,,/C,,/] C,,/ [B,,/E,,/] [C,/C,,/] C,,/ C,,/ 
[B,,/E,,/C,,/] [B,,/E,,/C,,/] [B,,/E,,/C,,/] [B,,/E,,/C,,/] [B,,/E,,/C,,/] [B,,/E,,/C,,/] E,,/ E,,/ 
A,,/4 A,,/4 G,,/4 G,,/4 E,,/ E,,/ G,,/4 =F,,/4 G,,/4 G,,/4 [C,/C,,/] C,,/ 
[^F,,/E,,/] C,,/ [F,,/C,,/] C,,/ [F,,/E,,/] C,,/ [F,,/C,,/] C,,/ 
[F,,/E,,/] C,,/ [F,,/C,,/] C,,/ [F,,/E,,/] C,,/4 E,,/4 [F,,/C,,/] C,,/ 
[F,,/E,,/] C,,/ [F,,/C,,/] C,,/ [F,,/E,,/] C,,/ [F,,/C,,/] C,,/ 
[F,,/E,,/] C,,/ [F,,/C,,/] C,,/ [F,,/E,,/] [C,/E,,/C,,] D,/ C,,/ 
[D,/E,,/] C,,/ [D,/C,,/] C,,/ [D,/E,,/] C,,/ [D,/C,,/] C,,/ 
[D,/E,,/] C,,/ [D,/C,,/] C,,/ [D,/E,,/] C,,/ [D,/C,,/] C,,/ 
[D,/E,,/] C,,/ [D,/C,,/] C,,/ [D,/E,,/] C,,/ [C,/C,,/] C,,/ 
[D,/E,,/] C,,/ [D,/C,,/] C,,/ E,,/4 E,,/4 G,,/4 =F,,/4 [C,/C,,/] C,,/ 
[D,/E,,/] C,,/ [D,/C,,/] C,,/ [D,/E,,/] C,,/ [D,/C,,/] C,,/ 
[D,/E,,/] C,,/ [D,/C,,/] C,,/ [D,/E,,/] C,,/4 E,,/4 [C,/C,,/] C,,/ 
[D,/E,,/] C,,/ [D,/C,,/] C,,/ [D,/E,,/] [C,C,,] C,,/ 
[D,/E,,/] C,,/ [D,/C,,/] C,,/ [D,/E,,/] [C,/C,,/] [D,/C,,/] C,,/ 
[D,/E,,/] C,,/ [D,/C,,/] C,,/ [D,/E,,/] [C,/C,,/] D,/ C,,/ 
[D,/E,,/] C,,/ [D,/C,,/] C,,/ [D,/E,,/] C,,/ [C,/C,,/] C,,/ 
[D,/E,,/] C,,/ [D,/C,,/] C,,/ [D,/E,,/] [C,C,,] C,,/ 
[D,/E,,/] C,,/ [D,/C,,/] C,,/ [D,/E,,/] [C,/C,,/] [D,/C,,/] C,,/ 
[D,/E,,/] C,,/ [D,/C,,/] C,,/ [D,/E,,/] [C,C,,] C,,/ 
[D,/E,,/] C,,/ [D,/C,,/] C,,/ [D,/E,,/] [C,C,,] C,,/ 
[D,/E,,/] C,,/ [D,/C,,/] C,,/ [D,/E,,/] [C,3/4C,,3/4] E,,/4 C,,/4 E,,/4 
E,,/4 E,,/4 [C,/4E,,/4] E,,/4 [E,,/4C,,/4] E,,/4 E,,/ E,,/ [C,/C,,/] z8 
E,,/ C,,/ C,,/ E,,/ C,,/ C,,/ E,,/ C,,/ 
E,,/4 C,,/4 E,,/4 C,,/4 C,,/4 C,,/4 C,,/4 C,,/4 [E,,/4C,,/4] C,,/4 C,,/4 C,,/4 [E,,/4C,,/4] [E,,/4C,,/4] [E,,/4C,,/4] [E,,/4C,,/4] 
[C,C,,] [B,,/E,,/] C,,/ B,,/ C,,/ [B,,/E,,/] C,,/ 
[B,,C,,] [B,,/E,,/] C,,/ B,,/ C,,/ [B,,/E,,/] C,,/ 
[B,,C,,] [B,,/E,,/] C,,/ B,,/ C,,/ [B,,/E,,/] C,,/ 
[B,,C,,] [B,,/E,,/] C,,/ B,,/ C,,/ [B,,/E,,/] C,,/ 
[C,C,,] [B,,/E,,/] C,,/ B,,/ C,,/ [B,,/E,,/] C,,/ 
[B,,C,,] [B,,/E,,/] C,,/ B,,/ C,,/ [B,,/E,,/] C,,/ 
[B,,C,,] [B,,/E,,/] C,,/ B,,/ C,,/ [B,,/E,,/] C,,/ 
[B,,C,,] [B,,/E,,/] C,,/ B,,/ C,,/ [B,,/E,,/] C,,/ 
[C,/C,,/] C,,/ [B,,/E,,/] C,,/ B,,/ C,,/ [B,,/E,,/] C,,/ 
[B,,/C,,/] C,,/ [B,,/E,,/] C,,/ B,,/ C,,/ [B,,/E,,/] z/ 
[B,,/C,,/] C,,/ [B,,/E,,/] C,,/ B,,/ C,,/ [B,,/E,,/] C,,/ 
[B,,/C,,/] C,,/ [B,,/E,,/] C,,/ B,,/ C,,/ [B,,/E,,/] z/ 
[C,/C,,/] C,,/ [B,,/E,,/] C,,/ B,,/ C,,/ [B,,/E,,/] C,,/ 
[B,,/C,,/] C,,/ [B,,/E,,/] C,,/ B,,/ C,,/ [B,,/E,,/] z/ 
[B,,/C,,/] C,,/ [B,,/E,,/] C,,/ B,,/ C,,/ [B,,/E,,/] C,,/ 
E,,/ C,,/ C,,/ E,,/ C,,/ C,,/ E,,/4 E,,/4 E,,/4 E,,/4 z31/ 
[C,/C,,3/] z [B,,E,,] [B,,/C,,/] C,,/ [B,,/E,,/] 
[z/C,,] B,,/ C,,/ [B,,E,,] [B,,/C,,/] C,,/ [B,,/E,,/] 
[C,/C,,/] C,,/ C,,/ [B,,/E,,/C,,/] [B,,/E,,/C,,/] [B,,/E,,/C,,/] [B,,/E,,/C,,/] [B,,/E,,/C,,/] 
[B,,/E,,/C,,/] E,,/ E,,/ A,,/4 A,,/4 G,,/4 G,,/4 E,,/ E,,/ G,,/4 F,,/4 
G,,/4 G,,/4 [C,/C,,/] C,,/ [^F,,/E,,/] C,,/ [F,,/C,,/] C,,/ [F,,/E,,/] 
C,,/ [F,,/C,,/] C,,/ [F,,/E,,/] C,,/ [F,,/C,,/] C,,/ [F,,/E,,/] 
C,,/4 E,,/4 [F,,/C,,/] C,,/ [F,,/E,,/] C,,/ [F,,/C,,/] C,,/ [F,,/E,,/] 
C,,/ [F,,/C,,/] C,,/ [F,,/E,,/] C,,/ [F,,/C,,/] C,,/ [F,,/E,,/] 
[C,/E,,/C,,] D,/ C,,/ [D,/E,,/] C,,/ [D,/C,,/] C,,/ [D,/E,,/] 
C,,/ [D,/C,,/] C,,/ [D,/E,,/] C,,/ [D,/C,,/] C,,/ [D,/E,,/] 
C,,/ [D,/C,,/] C,,/ [D,/E,,/] C,,/ [D,/C,,/] C,,/ [D,/E,,/] 
C,,/ [C,/C,,/] C,,/ [D,/E,,/] C,,/ [D,/C,,/] C,,/ E,,/4 E,,/4 
G,,/4 =F,,/4 [C,/C,,/] C,,/ [D,/E,,/] C,,/ [D,/C,,/] C,,/ [D,/E,,/] 
C,,/ [D,/C,,/] C,,/ [D,/E,,/] C,,/ [D,/C,,/] C,,/ [D,/E,,/] 
C,,/4 E,,/4 [C,/C,,/] C,,/ [D,/E,,/] C,,/ [D,/C,,/] C,,/ [D,/E,,/] 
[C,C,,] C,,/ [D,/E,,/] C,,/ [D,/C,,/] C,,/ [D,/E,,/] 
[C,/C,,/] [D,/C,,/] C,,/ [D,/E,,/] C,,/ [D,/C,,/] C,,/ [D,/E,,/] 
[C,/C,,/] D,/ C,,/ [D,/E,,/] C,,/ [D,/C,,/] C,,/ [D,/E,,/] 
C,,/ C,,/ C,,/ [D,/E,,/] C,,/ [D,/C,,/] C,,/ [D,/E,,/] 
[C,C,,] C,,/ [D,/E,,/] C,,/ [D,/C,,/] C,,/ [D,/E,,/] 
[C,/C,,/] [D,/C,,/] C,,/ [D,/E,,/] C,,/ [D,/C,,/] C,,/ [D,/E,,/] 
[C,C,,] C,,/ [D,/E,,/] C,,/ [D,/C,,/] C,,/ [D,/E,,/] 
[C,,/C,] C,,/ E,,/ E,,/ [C,,/C,] C,,/ E,,/ E,,/ 
[C,/4C,,/4] E,,/4 E,,/4 E,,/4 E,,/4 E,,/4 E,,/ [C,/C,,/] C,,/ C,,/ E,,/ 
[C,/C,,/] z8 
^F,,/ F,,/ F,,/ F,,/ F,,/ F,,/ F,,/ F,,/ 
F,,/ F,,/ F,,/ F,,/ F,,/ F,,/ F,,/ F,,/ 
F,,/ F,,/ [F,,/C,,/] F,,/ F,,/ F,,/ [F,,/C,,/] F,,/ 
F,,/ F,,/ [F,,/C,,/] F,,/ F,,/ F,,/ [F,,/C,,/] F,,/ 
F,,/ F,,/ [F,,/C,,/] F,,/ F,,/ F,,/ [F,,/C,,/] F,,/ 
F,,/ F,,/ [F,,/C,,/] F,,/ F,,/ F,,/ [F,,/C,,/] F,,/ 
F,,/ F,,/ [F,,/C,,/] F,,/ F,,/ F,,/ [F,,/C,,/] F,,/ 
F,,/ F,,/ [F,,/C,,/] F,,/ F,,/ F,,/ [F,,/C,,/] B,,/ 
F,,/ F,,/ [F,,/C,,/] F,,/ F,,/ F,,/ [F,,/C,,/] F,,/ 
F,,/ F,,/ [F,,/C,,/] [A,,/4F,,/4] A,,/4 [F,,/=F,,/] ^F,,/ [F,,/C,,/] [B,,/G,,/] 
[F,,/=F,,/] ^F,,/ [F,,/C,,/] F,,/ F,,/ F,,/ [F,,/C,,/] F,,/ 
F,,/ F,,/ [F,,/C,,/] F,,/ F,,/ F,,/ [F,,/C,,/] B,,/ 
F,,/ F,,/ [F,,/C,,/] F,,/ F,,/ F,,/ [F,,/C,,/] F,,/ 
F,,/ F,,/ [F,,/C,,/] F,,/ F,,/ F,,/ [F,,/C,,/] B,,/ 
F,,/ F,,/ [F,,/C,,/] F,,/ F,,/ F,,/ [F,,/C,,/] F,,/ 
F,,/ F,,/ [F,,/C,,/] F,,/ F,,/ F,,/ [F,,/C,,/] B,,/ 
F,,/ F,,/ [F,,/C,,/] F,,/ F,,/ F,,/ [F,,/C,,/] F,,/ 
F,,/ F,,/ [F,,/C,,/] F,,/ F,,/ F,,/ [F,,/C,,/] B,,/ 
F,,/ F,,/ [F,,/C,,/] F,,/ F,,/ F,,/ [F,,/C,,/] F,,/ 
F,,/ F,,/ [F,,/C,,/] F,,/ F,,/ F,,/ [F,,/C,,/] B,,/ z6 
E,,/4 E,,/4 E,,/4 E,,/4 E,,/4 E,,/4 E,,/4 E,,/4 [C,/C,,/] C,,/ [F,,/E,,/] C,,/ 
[F,,/C,,/] C,,/ [F,,/E,,/] C,,/ [F,,/C,,/] C,,/ [F,,/E,,/] C,,/ 
[F,,/C,,/] C,,/ [F,,/E,,/] C,,/4 E,,/4 [F,,/C,,/] C,,/ [F,,/E,,/] C,,/ 
[F,,/C,,/] C,,/ [F,,/E,,/] C,,/ [F,,/C,,/] C,,/ [F,,/E,,/] C,,/ 
[F,,/C,,/] C,,/ [F,,/E,,/] [C,/E,,/C,,] D,/ C,,/ [D,/E,,/] C,,/ 
[D,/C,,/] C,,/ [D,/E,,/] C,,/ [D,/C,,/] C,,/ [D,/E,,/] C,,/ 
[D,/C,,/] C,,/ [D,/E,,/] C,,/ [D,/C,,/] C,,/ [D,/E,,/] C,,/ 
[D,/C,,/] C,,/ [D,/E,,/] C,,/ [C,/C,,/] C,,/ [D,/E,,/] C,,/ 
[D,/C,,/] C,,/ E,,/4 E,,/4 G,,/4 =F,,/4 [C,/C,,/] C,,/ [D,/E,,/] C,,/ 
[D,/C,,/] C,,/ [D,/E,,/] C,,/ [D,/C,,/] C,,/ [D,/E,,/] C,,/ 
[D,/C,,/] C,,/ [D,/E,,/] C,,/4 E,,/4 [C,/C,,/] C,,/ [D,/E,,/] C,,/ 
[D,/C,,/] C,,/ [D,/E,,/] [C,C,,] C,,/ [D,/E,,/] C,,/ 
[D,/C,,/] C,,/ [D,/E,,/] [C,/C,,/] [D,/C,,/] C,,/ [D,/E,,/] C,,/ 
[D,/C,,/] C,,/ [D,/E,,/] [C,/C,,/] D,/ C,,/ [D,/E,,/] C,,/ 
[D,/C,,/] C,,/ [D,/E,,/] C,,/ [C,/C,,/] C,,/ [D,/E,,/] C,,/ 
[D,/C,,/] C,,/ [D,/E,,/] [C,C,,] C,,/ [D,/E,,/] C,,/ 
[D,/C,,/] C,,/ [D,/E,,/] [C,/C,,/] [D,/C,,/] C,,/ [D,/E,,/] C,,/ 
[D,/C,,/] C,,/ [D,/E,,/] [C,C,,] C,,/ [D,/E,,/] C,,/ 
[D,/C,,/] C,,/ [D,/E,,/] [C,C,,] E,,/ E,,/ [C,C,,] 
E,,/ E,,/ [C,/C,,/] G,,/4 G,,/4 G,,/4 G,,/4 F,,/4 F,,/4 F,,/4 F,,/4 [E,,/4C,,/4] [E,,/4C,,/4] 
[E,,/4C,,/4] [E,,/4C,,/4] [E,,/4C,,/4] [E,,/4C,,/4] [C,/C,,/] 
