X: 1
T: Sonic Force OST - Infinite (Low-Pitch Microphone)
Z: ABC Generated by Starbound Composer v0.8.7
L: 1/4
M: 4/4
Q: 1/4=130
K: A
z8 
Q: 1/4=132
z4 
Q: 1/4=133
z4 
Q: 1/4=136
z4 
Q: 1/4=137
z4 
Q: 1/4=139
z4 
Q: 1/4=120
z4 
Q: 1/4=139
z189/ 
C/ C/ B,/ C3/ G3/ 
F2 G G 
E C4 z5/ 
C/ C/ B,/ C3/ G3/ 
F2 G A 
G G4 z5/ 
G,/ G,/ G,/ G,3/ A,3/ 
G,2 F, G,3/ 
A,/ F,7 
G,/ G,/ G,3/ A,3/ 
G,2 F, B,3/ 
A,/ G,13/ 
G,/ G,/ G,/ G,3/ A,3/ 
G,2 F, G,3/ 
A,/ F,15/ 
E,/ C,3/ z2 
E,/ C,3/ z2 
F,/ F, F,/ F,/ F, F,/ 
G,/ A, G,/ G,2 z/ 
F,/ F,/ G,/ G,/ G,3/ A,/ 
A,/ F,/ A,/ F,/ A,/ F,/ A, 
F,/ F,/ G,/ G,/ G,/ G,/ G,/ A, 
G, G,/ F,/ G,/ G, F,/ 
F,/ G,/ G,/ G,/ G,/ A,/ A,/ F,/ 
A,/ F,/ A,/ F,/ A, z/ A,/ 
G,/ G,/ G,/ G,/ G, F,/ F,/ 
F,/ F,/ F,/ F,/ G, z/ F,/ 
F,/ G,/ G,/ G,3/ A,/ A,/ 
F,/ A,/ F,/ A,/ F,/ A, F,/ 
F,/ G,/ G,/ G,/ G,/ G,/ A, 
G, G,/ F,/ G,/ G, F,/ 
F,/ G,/ G,/ G,/ G,/ A,/ A,/ F,/ 
A,/ F,/ A,/ F,/ A, z/ A,/ 
G,/ G,/ G,/ G,/ G, F,/ F,/ 
F,/ F,/ F,/ F,/ G, z/ F,/ 
F,/ G, z2 F,/ 
F,/ G, z2 F,/ 
F,/ F,/ F,/ F,/ F,/ G, z189/ 
C/ C/ B,/ C3/ G3/ 
F2 G G 
E C4 z5/ 
C/ C/ B,/ C3/ G3/ 
F2 G A 
G G4 
F6 z/ 
G,/ G,/ G,/ G,3/ A,3/ 
G,2 F, G,3/ 
A,/ F,7 
G,/ G,/ G,3/ A,3/ 
G,2 F, B,3/ 
A,/ G,13/ 
G,/ G,/ G,/ G,3/ A,3/ 
G,2 F, G,3/ 
A,/ F,15/ 
E,/ C,3/ z2 
E,/ C,3/ z2 
F,/ F, F,/ F,/ F, F,/ 
G,/ A, G,/ G,2 z/ 
F,/ F,/ G,/ G,/ G,3/ A,/ 
A,/ F,/ A,/ F,/ A,/ F,/ A, 
F,/ F,/ G,/ G,/ G,/ G,/ G,/ A, 
G, G,/ F,/ G,/ G, F,/ 
F,/ G,/ G,/ G,/ G,/ A,/ A,/ F,/ 
A,/ F,/ A,/ F,/ A, z/ A,/ 
G,/ G,/ G,/ G,/ G, F,/ F,/ 
F,/ F,/ F,/ F,/ G, z/ F,/ 
F,/ G,/ G,/ G,3/ A,/ A,/ 
F,/ A,/ F,/ A,/ F,/ A, F,/ 
F,/ G,/ G,/ G,/ G,/ G,/ A, 
G, G,/ F,/ G,/ G, F,/ 
F,/ G,/ G,/ G,/ G,/ A,/ A,/ F,/ 
A,/ F,/ A,/ F,/ A, z/ A,/ 
G,/ G,/ G,/ G,/ G, F,/ F,/ 
F,/ F,/ F,/ F,/ G, z/ F,/ 
F,/ G, z2 F,/ 
F,/ G, 
