X: 1
T: Sword Art Online S2 OP - Courage
Z: ABC Generated by Starbound Composer v0.8.7
L: 1/4
M: 4/4
Q: 1/4=196
K: G
[e4B4E4B,4E,4] 
[E,/g3/d3/B3/] B,/ E/ [zf2A2] A,/ B,/ [G5/d9/A9/] 
G, A, [C,/g3/d3/B3/] G,/ C/ [zf2A2] 
C/ D/ [dGC5/] g/ f/ d/ [B/A,2E,2] 
A/ G/ z/ [A,,3/c4A4] [C,/A,,/] E,/ 
[G,A,,] C,/ [B,,3/d2A2] D,/ [F,/a2d2] 
A, [A,/D,/] [bgC,3/] a/ [bgC,] 
[a/E,/] [b/g/G,/] [c'/C/C,/] [D2a4d4] D,2 
[zD13/B,13/G,13/E,13/] g/ z/ [gd] z/ g/ 
[g/d/] g f [G,/gd] D/ [F/d] 
[zD8B,8G,8] g/ g/ [gd] z/ g/ 
[g/d/] [gd] f [gd] [z/f3/d3/] 
[z7/D8A,8F,8] f/ 
g/ f e f z/ 
[ecC4G,4C,4] z/ e/ [ge] z/ g/ 
[fdD2A,2D,2] e [D,/D,,/fd] [D,/D,,/] [ge] 
[E,E,,] [E,/ge] [z/EB,] [z/geB] E,/ E,/ [g/B,,/] 
[g/e/E,,/] [B,,/ge] E,/ [B,/G,/E,/fB] G,/ [B,/geB] E,/ [dG,G,,] 
[G,/G,,/] [g/d/G/D/G,/] [g/d/] [D/G,/gd] z/ G,/ [g/D,/] [g/d/G,,/] 
[D,/gd] G,/ [fdDB,G,] [gdDG,] [F,F,,f3d3A3] 
F,/ [D/A,/F,/] z/ [D/F,/] z/ F,/ [f/d/D,/] [g/d/F,,/] 
[D,/f] F,/ [edA,F,D,] [F,/f3/d3/] D,/ A,,/ [C,,/ec] 
G,,/ C,/ [e/E,/] [G,/ge] E,/ C,/ [g/G,,/] [fcD,D,,] 
e [D,/D,,/f2c2] z/ D,,/ D,,/ [C,/C,,/e3/c3/] z/ 
C,/ [CG,g3/c3/] G,/ [C,/ec] G,,/ [D,/D,,/fd] z/ 
[D,/g] [z/DA,] [z/fd] A,/ [D,/e] A,,/ [EB,E,B,,E,,] 
D [EB,E,B,,E,,] G/ [E/B,/E,/B,,/E,,/] z/ [EB,E,B,,E,,] 
[G/G,/D,/G,,/] z/ [A3/E3/A,3/E,3/A,,3/] [C,C,,e3/c3/] C,/ 
[CG,g3/c3/] G,/ [C,/ec] G,,/ [fdD,D,,] [D,/g] 
[z/DA,] [z/ad] A,/ [D,/fd] A,,/ [EB,E,B,,E,,] D 
[EB,E,B,,E,,] G/ [E/B,/E,/B,,/E,,/] z/ [EB,E,B,,E,,] [G/D,/A,,/D,,/] z/ 
[DA,D,3/A,,3/D,,3/] D/ [C,/E3/B,3/] G,/ [z/C3] [F3/D3/] 
[GE] [D,/FD] A,/ [DA,3] D 
D [G,,/BG] D,/ G,/ [B/D,/] [F,,/AF] D,/ 
F,/ [A/D,/] [E,,/GE] B,,/ [E,/B] B,,/ [D,,/AF] A,,/ 
[D,/F] A,,/ [A,,/C,,/E3/C3/] G,,/ C,/ E,/ G,/ E,/ 
[C,/c'a] G,,/ [C,/c'] E,/ [G,/bd] C/ [C/a] G,/ 
[E,/bd] C,/ [D,/D,,/ad] [D,/D,,/] a/ [D,/D,,/bd] [D,/D,,/] z/ 
[D,/D,,/ad] [D,/D,,/] z3/ b/ [bg] 
[ad] [g/G,G,,] z/ [b/g/G,/] [a/GD] z/ [D,/bg] 
[z/B,G,D,] b/ [d'aF,F,,] [F,/b] [z/FD] [z/ad] D,/ 
[b/DF,D,] [z/a3e3] [E,E,,] E,/ [EB,E,] [g/B,,/] 
[B,E,B,,b2g2] [D,D,,] D,/ [z/DA,D,] [z/ac] A,,/ 
[bA,D,A,,] [c'eC,C,,] [b/C,/] [c'eCG,] [G,,/bg] 
C,/ [E,/af] [D,D,,] [D,/f] [z/DA,D,] [z/gd] A,,/ 
[D,/a] F,/ [bgG,G,,] [c'/G,/] [GDb5/g5/] D,/ 
G,/ B,/ B,/ G,/ D,/ B,,/ [D,/bg] B,,/ 
[a/G,,/] [z/gd] [C,C,,] C,/ [d/CG,C,] [z/g] C,/ 
[E,/ad] G,/ [afD,D,,] D,/ [z/DA,D,] [z/f] D,/ 
[F,/ad] A,/ [G,,/bg] D,/ [b/G,/] [D,/af] F,,/ [D,/bg] 
F,/ [b/g/D,/] [E,,/c'a] B,,/ [E,/bg] B,,/ [D,,/af] B,,/ 
[D,/ge] B,,/ [C,,/ec] G,,/ [g/C,/] [C,/g5/e5/] G,/ C/ 
C/ G/ [c/g'e'] G/ E/ C/ G,/ E,/ 
[C,/bg] G,,/ [adD,,] A,, [bgD,] 
[b/A,] [z/a3/d3/] [z3/F5/D5/] b/ [bg] 
a [gd4B4E4] [b/g/] a [bg] 
b/ [d'aF4D4A,4] b [af] b/ 
[z/a3e3] [z5/D8G,8C,8] g/ [b2g2] z 
[af] [bf] [C,/c'a] E,/ [b/G,/] [c'C] 
[C,/bg] [C/G,/] [C,/af] D,/ F,/ [A,/a] [z/D] [z/bg] 
D,/ [D/A,/c'] D,/ [B,,/c'g] D,/ [b/F,/] [B,b5/g5/] 
B,,/ [B,/F,/] B,,/ E,,/ G,,/ B,,/ [z/E,3/] [bg] 
a/ g/ [gcGC,C,,] C,/ [d/CG,] [z/g] C,,/ 
[E,,/ad] G,,/ [adAD,D,,] D,/ [z/DA,] [z/g] D,,/ 
[F,,/ad] A,,/ [bgdG,G,,] b/ [afdF,F,,] [bgF,F,,] 
[b/g/F,,/] [c'cE,E,,] [bBE,E,,] [aAD,D,,] [D,/D,,/gG] 
B,,/ [ecC,C,,] [g/C,/] [CG,g5/e5/] G,/ C,/ 
G,,/ [z/g'e'C,] E,/ G,/ [gGC] G/ [C/bg] 
G,/ [D,,/a4d4] F,,/ A,,/ D,/ F,/ A,/ D/ 
F/ [b/d/D5/D,5/] a/ z/ [g/d/] z/ a/ z/ 
[g/d/] 
