X: 1
T: The Eagles - Hotel California
Z: ABC Generated by Starbound Composer v0.8.7
L: 1/4
M: 4/4
Q: 1/4=75
K: D
[F15/32B,,19/5] z/32 B,2/9 z/36 D/4 B,2/9 z/36 F/4 D2/9 z/36 B,/4 B19/20 z/20 D15/32 z/32 E15/32 z/32 
[^A15/32F,,19/5] z/32 E2/9 z/36 F/4 E2/9 z/36 c/4 F2/9 z/36 E/4 A19/10 z/10 
[=A15/32A,,19/5] z/32 E2/9 z/36 A/4 E2/9 z/36 B17/36 z/36 A/4 A,15/32 z/32 E2/9 z/36 A/4 E17/24 z/24 F/4 
[^G,15/32E,,19/5] z/32 B2/9 z/36 F/4 B2/9 z/36 F/4 D2/9 z/36 B,/4 B19/10 z/10 
[=G,15/32G,,19/5] z/32 B2/9 z/36 D/4 B2/9 z/36 G/4 D2/9 z/36 B,/4 B15/32 z/32 D2/9 z/36 G/4 A2/9 z/36 B/4 d15/32 z/32 
[A15/32D,,19/5] z/32 d2/9 z/36 F/4 A2/9 z/36 d/4 F2/9 z/36 A/4 F15/32 z/32 A2/9 z/36 F/4 D15/32 z/32 F2/9 z/36 D/4 
[E15/32E,,19/5] z/32 B2/9 z/36 D/4 B2/9 z/36 G/4 B,2/9 z/36 G/4 B15/32 z/32 B2/9 z/36 F/4 B,17/24 z/24 F/4 
[F15/32F,,19/5] z/32 ^A,2/9 z/36 E/4 e2/9 z/36 F17/36 z/36 E/4 c19/10 z/10 
[F15/32D,19/10B,,19/5] z/32 B,2/9 z/36 D/4 B,2/9 z/36 F/4 D2/9 z/36 B,/4 [B19/20E,19/20] z/20 [D15/32F,19/20] z/32 E15/32 z/32 
[^A15/32E,10/7F,,19/5] z/32 E2/9 z/36 F/4 E2/9 z/36 c/4 [F2/9D,15/32] z/36 E/4 [A19/10C,19/10] z/10 
[=A15/32C,19/10A,,19/5] z/32 E2/9 z/36 A/4 E2/9 z/36 B17/36 z/36 A/4 [=A,15/32D,19/20] z/32 E2/9 z/36 A/4 [E17/24E,19/20] z/24 F/4 
[^G,15/32B,,19/5E,,19/5] z/32 B2/9 z/36 F/4 B2/9 z/36 F/4 D2/9 z/36 B,/4 B19/10 z/10 
[=G,15/32B,,19/10G,,19/5] z/32 B2/9 z/36 D/4 B2/9 z/36 G/4 D2/9 z/36 B,/4 [B15/32C,19/20] z/32 D2/9 z/36 G/4 [A2/9D,19/20] z/36 B/4 d15/32 z/32 
[A15/32A,,19/5D,,19/5] z/32 d2/9 z/36 F/4 A2/9 z/36 d/4 F2/9 z/36 A/4 F15/32 z/32 A2/9 z/36 F/4 D15/32 z/32 F2/9 z/36 D/4 
[E15/32B,,19/10E,,19/10] z/32 B2/9 z/36 D/4 B2/9 z/36 G/4 B,2/9 z/36 G/4 [B15/32F,19/20] z/32 B2/9 z/36 F/4 [B,17/24G,19/20] z/24 F/4 
[F15/32F,57/20F,,57/20] z/32 ^A,2/9 z/36 E/4 e2/9 z/36 F17/36 z/36 E/4 [zc19/10] F,,15/32 z/32 F,,15/32 z/32 
B,,,15/32 z/32 [D2/9F2/9B,,,2/9] z/36 [D/4F/4B,,,/4] [D15/32F15/32B,,15/32] z/32 [C2/9E2/9B,,,2/9] z/36 [C/4E/4B,,,/4] [C15/32E15/32B,,,15/32] z/32 [B,,,2/9D10/7F10/7] z/36 B,,,/4 B,,15/32 z/32 B,,,2/9 z/36 B,,,/4 
F,,15/32 z/32 [F,,2/9A,15/32F15/32] z/36 F,,/4 [A,5/16F5/16F,15/32] z/48 [z/6A,19/60E19/60] [z/6F,,2/9] [z/12A,29/96E29/96] F,,/4 [F,,15/32A,19/10E19/10] z/32 F,,2/9 z/36 F,,/4 F,15/32 z/32 F,,2/9 z/36 F,,/4 
A,,,15/32 z/32 [A,,,2/9C15/32F15/32] z/36 A,,,/4 [C15/32F15/32A,,15/32] z/32 [C2/9E2/9A,,,2/9] z/36 [C/4E/4A,,,/4] [C15/32E15/32A,,,15/32] z/32 [A,,,2/9C10/7F10/7] z/36 A,,,/4 A,,15/32 z/32 A,,,2/9 z/36 A,,,/4 
[z/3E,,15/32] [z/6^G,19/60F19/60] [z/6E,,2/9] [z/12G,29/96F29/96] E,,/4 [G,5/16F5/16E,15/32] z/48 [z/6G,19/60E19/60] [z/6E,,2/9] [z/12G,29/96E29/96] E,,/4 [G,15/32E15/32E,,15/32] z/32 [D/9E,,2/9] z/72 B,/8 E,,/4 E,15/32 z/32 E,,2/9 z/36 E,,/4 
G,,15/32 z/32 [B,2/9F2/9G,,2/9] z/36 [B,/4F/4G,,/4] [B,15/32F15/32=G,15/32] z/32 [B,2/9E2/9G,,2/9] z/36 [B,/4D/4G,,/4] [B,15/32D15/32G,,15/32] z/32 [G,,2/9B,15/32F15/32] z/36 G,,/4 G,15/32 z/32 G,,2/9 z/36 G,,/4 
[z/4D,,15/32] [=A,/4F/4] [A,2/9F2/9D,,2/9] z/36 [A,/4F/4D,,/4] [A,2/9F2/9D,15/32] z/36 [z/4G,17/36E17/36] D,,2/9 z/36 [F,/4D/4D,,/4] [F,15/32D15/32D,,15/32] z/32 D,,2/9 z/36 D,,/4 D,15/32 z/32 D,,2/9 z/36 D,,/4 
[z/4E,,15/32] [G,/4E/4] [G,2/9E2/9E,,2/9] z/36 [G,/4E/4E,,/4] [G,2/9E2/9E,15/32] z/36 [G,/4E/4] [G,2/9E2/9E,,2/9] z/36 [G,/4D/4E,,/4] [G,15/32E15/32E,,15/32] z/32 [G,2/9D2/9E,,2/9] z/36 [E,,/4G,19/20F19/20] E,15/32 z/32 E,,2/9 z/36 E,,/4 
[z/4F,,15/32] [^A,/4F/4] [A,2/9F2/9F,,2/9] z/36 [A,/4F/4F,,/4] [A,5/16F5/16F,15/32] z/48 [z/6A,19/60E19/60] [z/6F,,2/9] [z/12A,29/96E29/96] F,,/4 [F,,15/32A,19/20F19/20] z/32 F,,2/9 z/36 F,,/4 F,15/32 z/32 F,,2/9 z/36 F,,/4 
B,,,15/32 z/32 [D2/9F2/9B,,,2/9] z/36 [B,,,/4D17/36F17/36] [z/4B,,15/32] [E/4G/4] [D2/9F2/9B,,,2/9] z/36 [D/4F/4B,,,/4] [E15/32G15/32B,,,15/32] z/32 [D2/9F2/9B,,,2/9] z/36 B,,,/4 B,,15/32 z/32 B,,,2/9 z/36 B,,,/4 
F,,15/32 z/32 [A,2/9E2/9F,,2/9] z/36 [E/4F,,/4] [A,2/9F2/9F,15/32] z/36 [z/4E17/36] F,,2/9 z/36 [F,,/4A,19/20E19/20] F,,15/32 z/32 F,,2/9 z/36 F,,/4 F,15/32 z/32 F,,2/9 z/36 F,,/4 
A,,,15/32 z/32 A,,,2/9 z/36 A,,,/4 [C2/9E2/9A,,15/32] z/36 [C/4E/4] [C2/9E2/9A,,,2/9] z/36 [C/4A,,,/4] [C2/9E2/9A,,,15/32] z/36 [z/4C17/36E17/36] A,,,2/9 z/36 [A,,,/4C17/36F17/36] [z/4A,,15/32] [C/4F/4] [C2/9F2/9A,,,2/9] z/36 [C/4F/4A,,,/4] 
[^G,5/16F5/16E,,15/32] z/48 [z/6G,19/60F19/60] [z/6E,,2/9] [z/12G,29/96F29/96] E,,/4 [G,2/9F2/9E,15/32] z/36 [z/4G,17/36E17/36] E,,2/9 z/36 [G,/4E/4E,,/4] [G,15/32E15/32E,,15/32] z/32 [D/9E,,2/9] z/72 B,/8 E,,/4 E,15/32 z/32 E,,2/9 z/36 E,,/4 
G,,15/32 z/32 [B,2/9F2/9G,,2/9] z/36 [B,/4F/4G,,/4] [B,5/16F5/16=G,15/32] z/48 [z/6B,19/60E19/60] [z/6G,,2/9] [z/12B,29/96D29/96] G,,/4 [B,15/32D15/32G,,15/32] z/32 [G,,2/9B,15/32F15/32] z/36 G,,/4 G,15/32 z/32 G,,2/9 z/36 G,,/4 
D,,15/32 z/32 [=A,2/9D,,2/9] z/36 [D/4D,,/4] [A,15/32F15/32D,15/32] z/32 [G,2/9E2/9D,,2/9] z/36 [D/4D,,/4] [D,,15/32D19/20] z/32 D,,2/9 z/36 D,,/4 D,15/32 z/32 D,,2/9 z/36 D,,/4 
E,,15/32 z/32 [G,2/9E2/9E,,2/9] z/36 [G,/4E/4E,,/4] [G,2/9E2/9E,15/32] z/36 [G,/4E/4] [G,2/9E2/9E,,2/9] z/36 [G,/4D/4E,,/4] [G,15/32E15/32E,,15/32] z/32 [D2/9E,,2/9] z/36 [E,,/4G,19/20F19/20] E,15/32 z/32 E,,2/9 z/36 E,,/4 
[z/4F,,15/32] E/4 [^A,2/9F2/9F,,2/9] z/36 [E/4F,,/4] [A,15/32F15/32F,15/32] z/32 [F,,2/9E15/32^A15/32] z/36 F,,/4 [F,,15/32A,19/10E19/10] z/32 F,,2/9 z/36 F,,/4 F,15/32 z/32 F,,2/9 z/36 [F,,,/4F,,/4] 
[G,,,15/32G,,15/32] z/32 [G2/9B2/9g2/9G,,2/9] z/36 [D,/4G17/36B17/36g17/36] [z/4G,15/32] [G/4B/4g/4] [G2/9B2/9g2/9G,2/9] z/36 [D,/4G17/36B17/36g17/36] [z/4G,,15/32] [z/4G17/24B17/24g17/24] G,,2/9 z/36 D,/4 [=A15/32c15/32a15/32G,15/32] z/32 [G2/9B2/9g2/9D,2/9] z/36 [G,,/4G17/36B17/36g17/36] 
[z/4D,,15/32] [z/4F17/24A17/24f17/24] D,,2/9 z/36 A,,/4 [A2/9D,15/32] z/36 [z/4B17/36] D,2/9 z/36 [A/4A,,/4] [A15/32c15/32D,,15/32] z/32 [D,,2/9G15/32B15/32] z/36 A,,/4 [F15/32A15/32D,15/32] z/32 [F2/9A,,2/9] z/36 [F/4D,,/4] 
[A,15/32F15/32F,,,15/32F,,15/32] z/32 [A,2/9E2/9F,,2/9] z/36 [C,/4A,17/36E17/36] [z/4F,15/32] [^A/4f/4] [A2/9f2/9F,2/9] z/36 [C,/4A17/24f17/24] F,,15/32 z/32 [^G2/9e2/9F,,2/9] z/36 [G/4e/4C,/4] F,15/32 z/32 [E2/9C,2/9] z/36 [E/4F,,/4] 
[B,15/32E15/32B,,,15/32] z/32 [D2/9B,,2/9] z/36 [B,,,/4B,19/20D19/20] C,,15/32 z/32 C,2/9 z/36 C,,/4 D,,15/32 z/32 D,2/9 z/36 D,,/4 E,,15/32 z/32 F,,15/32 z/32 
[=G2/9B2/9g2/9G,,,15/32G,,15/32] z/36 [G/4B/4g/4] [G2/9B2/9g2/9G,,2/9] z/36 [D,/4G17/36B17/36g17/36] [z/4G,15/32] [z/4G17/36B17/36g17/36] G,2/9 z/36 [G/4B/4g/4D,/4] [G15/32B15/32g15/32G,,15/32] z/32 [G,,2/9G15/32B15/32g15/32] z/36 D,/4 [=A15/32c15/32a15/32G,15/32] z/32 [G2/9B2/9g2/9D,2/9] z/36 [G,,/4G17/36B17/36g17/36] 
[z/4D,,15/32] [z/4F17/36A17/36f17/36] D,,2/9 z/36 [A,,/4B17/36d17/36] [z/4D,15/32] [z/4A17/36d17/36] D,2/9 z/36 A,,/4 [=A,2/9D,,15/32] z/36 D/4 D,,2/9 z/36 [G/4B/4A,,/4] [D15/32F15/32D,15/32] z/32 [F2/9A,,2/9] z/36 [F/4D,,/4] 
[G,15/32F15/32E,,15/32] z/32 [E2/9E,,2/9] z/36 [E/4B,,/4] [G,15/32E15/32E,15/32] z/32 [F2/9A2/9E,2/9] z/36 [F/4A/4B,,/4] [F15/32A15/32E,,15/32] z/32 [E2/9G2/9E,,2/9] z/36 [B,,/4E19/20G19/20] E,15/32 z/32 B,,2/9 z/36 [G/4E,,/4] 
[^A,15/32C15/32G15/32F,,15/32] z/32 [F2/9F,,2/9] z/36 [C,/4A,19/20C19/20F19/20] F,15/32 z/32 F,2/9 z/36 C,/4 F,,15/32 z/32 F,,2/9 z/36 C,/4 F,15/32 z/32 C,2/9 z/36 F,,/4 
[z/4B,,,15/32] [D/4F/4] [D2/9F2/9B,,,2/9] z/36 [D/4F/4B,,,/4] [E5/16G5/16B,,15/32] z/48 [z/6D19/60F19/60] [z/6B,,,2/9] [z/12D29/96F29/96] B,,,/4 [E15/32G15/32B,,,15/32] z/32 [B,,,2/9D19/20F19/20] z/36 B,,,/4 B,,15/32 z/32 B,,,2/9 z/36 B,,,/4 
[z/4F,,15/32] [A,/4F/4] [A,2/9F2/9F,,2/9] z/36 [A,/4F/4F,,/4] [A,5/16F5/16F,15/32] z/48 [z/6A,19/60E19/60] [z/6F,,2/9] [z/12A,29/96E29/96] F,,/4 [F,,15/32A,19/20F19/20] z/32 F,,2/9 z/36 F,,/4 F,15/32 z/32 F,,2/9 z/36 F,,/4 
[z/4A,,,15/32] [C/4E/4] [C2/9E2/9A,,,2/9] z/36 [C/4E/4A,,,/4] [C2/9E2/9A,,15/32] z/36 [C/4E/4] [C2/9F2/9A,,,2/9] z/36 [A,,,/4C17/36E17/36] [z/4A,,,15/32] [C/4F/4] [A,,,2/9C15/32E15/32] z/36 A,,,/4 [A,,15/32C19/20F19/20] z/32 A,,,2/9 z/36 A,,,/4 
E,,15/32 z/32 E,,2/9 z/36 E,,/4 [^G,2/9F2/9E,15/32] z/36 [z/4G,17/36E17/36] E,,2/9 z/36 [E,,/4G,17/36E17/36] [z/4E,,15/32] D/8 B,/8 E,,2/9 z/36 E,,/4 E,15/32 z/32 E,,2/9 z/36 E,,/4 
G,,15/32 z/32 [C2/9E2/9G,,2/9] z/36 [D/4F/4G,,/4] [D15/32F15/32=G,15/32] z/32 [C2/9E2/9G,,2/9] z/36 [B,/4D/4G,,/4] [B,15/32D15/32G,,15/32] z/32 [G,,2/9D19/20F19/20] z/36 G,,/4 G,15/32 z/32 G,,2/9 z/36 G,,/4 
[D,,15/32=A,23/18F23/18] z/32 D,,2/9 z/36 D,,/4 [z/3D,15/32] [z/6^G,19/60E19/60] [z/6D,,2/9] [z/12F,29/96D29/96] D,,/4 [D,,15/32F,19/20D19/20] z/32 D,,2/9 z/36 D,,/4 D,15/32 z/32 D,,2/9 z/36 D,,/4 
E,,15/32 z/32 [E,,2/9=G,15/32E15/32] z/36 E,,/4 [G,15/32E15/32E,15/32] z/32 [G,2/9E2/9E,,2/9] z/36 [G,/4D/4E,,/4] [G,15/32F15/32E,,15/32] z/32 [E,,2/9G,19/20E19/20] z/36 E,,/4 E,15/32 z/32 E,,2/9 z/36 E,,/4 
F,,15/32 z/32 [F,,2/9^A,15/32F15/32] z/36 F,,/4 [A,15/32F15/32F,15/32] z/32 [A,2/9E2/9F,,2/9] z/36 [A,/4E/4F,,/4] [F,,15/32A,19/20F19/20] z/32 F,,2/9 z/36 F,,/4 F,15/32 z/32 F,,2/9 z/36 F,,/4 
B,,,15/32 z/32 [D2/9F2/9B,,,2/9] z/36 [D/4F/4B,,,/4] [D15/32F15/32B,,15/32] z/32 [D2/9F2/9B,,,2/9] z/36 [D/4F/4B,,,/4] [E15/32G15/32B,,,15/32] z/32 [B,,,2/9D15/32F15/32] z/36 B,,,/4 B,,15/32 z/32 B,,,2/9 z/36 B,,,/4 
[z/4F,,15/32] [z/4A,17/24F17/24] F,,2/9 z/36 F,,/4 [A,5/16F5/16F,15/32] z/48 [z/6A,19/60E19/60] [z/6F,,2/9] [z/12A,29/96E29/96] F,,/4 [F,,15/32A,19/20F19/20] z/32 F,,2/9 z/36 F,,/4 [z/4F,15/32] E/4 [F,,2/9E15/32] z/36 F,,/4 
[z/3A,,,15/32] [z/6C19/60E19/60] [z/6A,,,2/9] [z/12C29/96E29/96] A,,,/4 [C5/16E5/16A,,15/32] z/48 [z/6C19/60E19/60] [z/6A,,,2/9] [z/12C29/96E29/96] A,,,/4 [C2/9E2/9A,,,15/32] z/36 [C/4E/4] A,,,2/9 z/36 [A,,,/4C17/24F17/24] A,,15/32 z/32 [A,,,2/9C15/32E15/32] z/36 A,,,/4 
E,,15/32 z/32 [E,,2/9^G,15/32F15/32] z/36 E,,/4 [G,5/16F5/16E,15/32] z/48 [z/6G,19/60E19/60] [z/6E,,2/9] [z/12G,29/96E29/96] E,,/4 [G,15/32E15/32E,,15/32] z/32 [D/9E,,2/9] z/72 B,/8 E,,/4 E,15/32 z/32 E,,2/9 z/36 E,,/4 
G,,15/32 z/32 [G,,2/9F15/32A15/32] z/36 G,,/4 [F15/32A15/32=G,15/32] z/32 [G,,2/9F15/32A15/32] z/36 G,,/4 [F2/9A2/9G,,15/32] z/36 [E/4G/4] [D2/9F2/9G,,2/9] z/36 [G,,/4D17/36F17/36] [z/4G,15/32] [E/4G/4] [G,,2/9F15/32A15/32] z/36 G,,/4 
[D,,15/32F23/18A23/18] z/32 D,,2/9 z/36 D,,/4 [z/3D,15/32] [z/6E19/60G19/60] [z/6D,,2/9] [z/12D29/96F29/96] D,,/4 [D,,15/32D19/16F19/16] z/32 D,,2/9 z/36 D,,/4 [z/4D,15/32] [=A,/4D/4] D,,2/9 z/36 D,,/4 
E,,15/32 z/32 [G,2/9E2/9E,,2/9] z/36 [G,/4E/4E,,/4] [G,15/32E15/32E,15/32] z/32 [G,2/9E2/9E,,2/9] z/36 [G,/4D/4E,,/4] [G,2/9E2/9E,,15/32] z/36 [G,/4E/4] [G,2/9E2/9E,,2/9] z/36 [G,/4D/4E,,/4] [G,15/32F15/32E,15/32] z/32 E,,2/9 z/36 E,,/4 
F,,15/32 z/32 [^A,2/9F2/9F,,2/9] z/36 [E/4F,,/4] [A,15/32F15/32F,15/32] z/32 [F,,2/9E15/32^A15/32] z/36 F,,/4 [F,,15/32A,19/20E19/20] z/32 F,,2/9 z/36 F,,/4 [F,15/32A,19/20F19/20] z/32 F,,2/9 z/36 [F,,,/4F,,/4] 
[G,,,15/32G,,15/32] z/32 [G2/9B2/9g2/9G,,2/9] z/36 [D,/4G17/36B17/36g17/36] [z/4G,15/32] [G/4B/4g/4] [G2/9B2/9g2/9G,2/9] z/36 [D,/4G17/36B17/36g17/36] [z/4G,,15/32] [z/4G17/24B17/24g17/24] G,,2/9 z/36 D,/4 [=A15/32c15/32a15/32G,15/32] z/32 [G2/9B2/9g2/9D,2/9] z/36 [G,,/4G17/36B17/36g17/36] 
[z/4D,,15/32] [z/4F17/36A17/36f17/36] D,,2/9 z/36 [A/4A,,/4] [F2/9D,15/32] z/36 E/4 [D,2/9D15/32] z/36 A,,/4 [F15/32D,,15/32] z/32 [D,,2/9A15/32] z/36 A,,/4 [d15/32D,15/32] z/32 [F2/9A,,2/9] z/36 [F/4D,,/4] 
[A,15/32F15/32F,,,15/32F,,15/32] z/32 [A,2/9E2/9F,,2/9] z/36 [C,/4A,17/36E17/36] [z/4F,15/32] [^A/4f/4] [A2/9f2/9F,2/9] z/36 [C,/4A17/24f17/24] F,,15/32 z/32 [^G2/9e2/9F,,2/9] z/36 [G/4e/4C,/4] F,15/32 z/32 [E2/9C,2/9] z/36 [E/4F,,/4] 
[B,15/32E15/32B,,,15/32] z/32 [D2/9B,,2/9] z/36 [B,,,/4B,19/20D19/20] C,,15/32 z/32 C,2/9 z/36 C,,/4 D,,15/32 z/32 D,2/9 z/36 D,,/4 E,,15/32 z/32 [z/4F,,15/32] d/4 
[=G2/9B2/9g2/9G,,,15/32G,,15/32] z/36 [G/4B/4g/4] [G2/9B2/9g2/9G,,2/9] z/36 [D,/4G17/36B17/36g17/36] [z/4G,15/32] [z/4G17/36B17/36g17/36] G,2/9 z/36 [G/4B/4g/4D,/4] [G15/32B15/32g15/32G,,15/32] z/32 [G,,2/9G15/32B15/32g15/32] z/36 D,/4 [=A15/32c15/32a15/32G,15/32] z/32 [G2/9B2/9g2/9D,2/9] z/36 [G,,/4G17/36B17/36g17/36] 
[z/4D,,15/32] [z/4F17/36A17/36f17/36] D,,2/9 z/36 [A,,/4b17/36] [z/4D,15/32] d'/4 [d'2/9D,2/9] z/36 [A,,/4b17/36] [z/4D,,15/32] [z/4a17/36] D,,2/9 z/36 [A,,/4f17/24] D,15/32 z/32 [F2/9A,,2/9] z/36 [F/4D,,/4] 
[G,15/32F15/32E,,15/32] z/32 [E2/9E,,2/9] z/36 [E/4B,,/4] [G,15/32E15/32E,15/32] z/32 [F2/9A2/9E,2/9] z/36 [F/4A/4B,,/4] [F15/32A15/32E,,15/32] z/32 [E2/9G2/9E,,2/9] z/36 [B,,/4E19/20G19/20] E,15/32 z/32 B,,2/9 z/36 [G/4E,,/4] 
[A,15/32C15/32G15/32F,,15/32] z/32 [F2/9F,,2/9] z/36 [C,/4A,57/20C57/20F57/20] F,15/32 z/32 F,2/9 z/36 C,/4 F,,15/32 z/32 F,,2/9 z/36 C,/4 F,15/32 z/32 C,2/9 z/36 F,,/4 
B,,,15/32 z/32 [f2/9B,,,2/9] z/36 [B,,,/4f11/20] [z/3B,,15/32] [z/6f19/60] [z/6B,,,2/9] [z/12f29/96] B,,,/4 [g15/32B,,,15/32] z/32 [B,,,2/9f19/20] z/36 B,,,/4 B,,15/32 z/32 B,,,2/9 z/36 B,,,/4 
[z/4F,,15/32] f/4 [F,,2/9f15/32] z/36 F,,/4 [f5/16F,15/32] z/48 [z/6e19/60] [z/6F,,2/9] [z/12e29/96] F,,/4 [F,,15/32f19/20] z/32 F,,2/9 z/36 F,,/4 [c15/32F,15/32] z/32 [F,,2/9F15/32] z/36 F,,/4 
A,,,15/32 z/32 [f2/9A,,,2/9] z/36 [e/4A,,,/4] [e15/32A,,15/32] z/32 [A,,,2/9e15/32] z/36 A,,,/4 [f5/16A,,,15/32] z/48 [z/6e19/60] [z/6A,,,2/9] [z/12e29/96] A,,,/4 [A,,15/32f19/20] z/32 A,,,2/9 z/36 A,,,/4 
E,,15/32 z/32 [e2/9E,,2/9] z/36 [f/4E,,/4] [E,15/32f17/24] z/32 E,,2/9 z/36 [e/4E,,/4] [e2/9E,,15/32] z/36 d/4 [E,,2/9d15/32] z/36 E,,/4 E,15/32 z/32 E,,2/9 z/36 E,,/4 
[z/4G,,15/32] G/4 [f2/9G,,2/9] z/36 [f/4G,,/4] [f5/16G,15/32] z/48 [z/6e19/60] [z/6G,,2/9] [z/12d29/96] G,,/4 [d15/32G,,15/32] z/32 [G,,2/9f19/20] z/36 G,,/4 G,15/32 z/32 G,,2/9 z/36 G,,/4 
[z/4D,,15/32] F/4 [D,,2/9f15/32] z/36 D,,/4 [f5/16D,15/32] z/48 [z/6e19/60] [z/6D,,2/9] [z/12d29/96] D,,/4 [D,,15/32d19/20] z/32 D,,2/9 z/36 D,,/4 D,15/32 z/32 D,,2/9 z/36 D,,/4 
[z/4E,,15/32] E/4 [E,,2/9e15/32] z/36 E,,/4 [e5/16E,15/32] z/48 [z/6e19/60] [z/6E,,2/9] [z/12d19/30] E,,/4 [z/3E,,15/32] [z/6e19/60] [z/6E,,2/9] [z/12d29/96] E,,/4 [f15/32E,15/32] z/32 [e2/9E,,2/9] z/36 [d/4E,,/4] 
[f15/32F,,15/32] z/32 [F,,2/9f19/24] z/36 F,,/4 [z/3F,15/32] [z/6^A19/60f19/60] [z/6F,,2/9] [z/12^G29/96e29/96] F,,/4 [F,,15/32A19/10f19/10] z/32 F,,2/9 z/36 F,,/4 F,15/32 z/32 F,,2/9 z/36 F,,/4 
B,,,15/32 z/32 [B,,,2/9D15/32F15/32] z/36 F,,/4 [D2/9F2/9B,,15/32] z/36 [z/4E17/36=G17/36] B,,2/9 z/36 [D/4F/4F,,/4] [B,,,2/9E15/32G15/32] z/36 [z/4B,,17/36] [z/4D15/32F15/32] B,,,/4 B,,2/9 z/36 F,,/4 [E2/9B,,,15/32] z/36 D/4 
F,,15/32 z/32 [A,2/9F2/9F,,2/9] z/36 [A,/4F/4C,/4] [z/4F,15/32] [z/4A,17/36F17/36] F,2/9 z/36 [E/4C,/4] [F,,2/9A,19/20F19/20] z/36 F,17/36 z/36 F,,/4 F,2/9 z/36 C,/4 F,,15/32 z/32 
A,,,15/32 z/32 A,,,2/9 z/36 [C/4E/4E,,/4] [C2/9E2/9A,,15/32] z/36 [C/4E/4] [C2/9E2/9A,,2/9] z/36 [C/4E/4E,,/4] [C2/9E2/9A,,,2/9] z/36 [C17/36E17/36A,,17/36] z/36 [C/4F/4A,,,/4] A,,2/9 z/36 E,,/4 [F2/9A,,,15/32] z/36 F/4 
[^G,15/32F15/32E,,15/32] z/32 [E,,2/9G,15/32F15/32] z/36 B,,/4 [G,2/9F2/9E,15/32] z/36 E/4 [D2/9E,2/9] z/36 [B,,/4G,17/36F17/36] E,,2/9 z/36 [D/4E,17/36] B,2/9 z/36 E,,/4 E,2/9 z/36 B,,/4 E,,2/9 z/36 F,,/4 
G,,15/32 z/32 [D2/9G,,2/9] z/36 [D,/4B,17/36F17/36] =G,15/32 z/32 [E2/9G,2/9] z/36 [D/4D,/4] [G,,2/9B,15/32D15/32] z/36 [z/4G,17/36] [z/4B,15/32F15/32] G,,/4 G,2/9 z/36 D,/4 [B,2/9G,,15/32] z/36 =A,/4 
D,,15/32 z/32 [D2/9D,,2/9] z/36 [A,,/4D17/36] [z/4D,15/32] [z/4B,17/36] D,2/9 z/36 [A,/4A,,/4] [D,,2/9D19/20] z/36 D,17/36 z/36 D,,/4 D,2/9 z/36 A,,/4 D,,15/32 z/32 
E,,15/32 z/32 [G,2/9E2/9E,,2/9] z/36 [G,/4E/4B,,/4] [G,2/9E2/9E,15/32] z/36 [G,/4E/4] [G,2/9E2/9E,2/9] z/36 [D/4B,,/4] E,,2/9 z/36 [z/12E,17/36] [G,19/60E19/60] z/60 [z/12D29/96] E,,/4 [E,2/9F15/32] z/36 B,,/4 E,,15/32 z/32 
[z/4F,,15/32] E/4 [^A,2/9F2/9F,,2/9] z/36 [C,/4A,17/36F17/36] [z/4F,15/32] =A/4 [F,2/9F15/32] z/36 C,/4 [A,2/9F2/9F,,2/9] z/36 [E/4F,17/36] [z/4A,15/32F15/32] F,,/4 [e2/9F,2/9] z/36 [f/4C,/4] [a2/9F,,15/32] z/36 b/4 
[B,,,15/32d'10/7] z/32 B,,,2/9 z/36 B,,,/4 B,,15/32 z/32 [a2/9B,,,2/9] z/36 [b/4B,,,/4] [B,,,15/32e19/20] z/32 B,,,2/9 z/36 B,,,/4 [d2/9B,,15/32] z/36 e/4 [f2/9B,,,2/9] z/36 [d/4B,,,/4] 
[F,,15/32^A19/20] z/32 F,,2/9 z/36 F,,/4 [B5/32F,15/32] z/96 d13/84 z/84 B/6 [F,,2/9A19/20] z/36 F,,/4 F,,15/32 z/32 F,,2/9 z/36 F,,/4 F,15/32 z/32 F,,2/9 z/36 F,,/4 
[d2/9A,,,15/32] z/36 e/4 [f2/9A,,,2/9] z/36 [d/4A,,,/4] [B2/9A,,15/32] z/36 A/4 [A,,,2/9B15/32] z/36 A,,,/4 [d2/9A,,,15/32] z/36 e/4 [f2/9A,,,2/9] z/36 [d/4A,,,/4] [B2/9A,,15/32] z/36 A/4 [B2/9A,,,2/9] z/36 [A/4A,,,/4] 
[B15/32E,,15/32] z/32 [d2/9E,,2/9] z/36 [B/4E,,/4] [=A2/9E,15/32] z/36 F/4 [A2/9E,,2/9] z/36 [^G/4E,,/4] [E,,15/32G19/20] z/32 E,,2/9 z/36 E,,/4 [B2/9E,15/32] z/36 F/4 [e2/9E,,2/9] z/36 [E,,/4e17/24] 
G,,15/32 z/32 [G,,2/9d15/32] z/36 G,,/4 [e2/9G,15/32] z/36 d/4 [B2/9G,,2/9] z/36 [G,,/4B17/36] [z/4G,,15/32] e/4 [B2/9G,,2/9] z/36 [A/4G,,/4] [=G15/32G,15/32] z/32 [A2/9G,,2/9] z/36 [=A,/4G,,/4] 
[F15/32D,,15/32] z/32 [D,,2/9d15/32] z/36 D,,/4 [F2/9D,15/32] z/36 E/4 [D2/9D,,2/9] z/36 [F,/4D,,/4] [F,2/9D2/9D,,15/32] z/36 C/4 [D,,2/9D19/20] z/36 D,,/4 D,15/32 z/32 [D2/9D,,2/9] z/36 [D/4D,,/4] 
[D2/9E,,15/32] z/36 E/4 [E,,2/9F15/32] z/36 E,,/4 [G2/9E,15/32] z/36 F/4 [E2/9E,,2/9] z/36 [D/4E,,/4] [E2/9E,,15/32] z/36 G/4 [E,,2/9G15/32] z/36 E,,/4 [G2/9E,15/32] z/36 F/4 [E2/9E,,2/9] z/36 [D/4E,,/4] 
[F2/9F,,15/32] z/36 F/4 [A2/9F,,2/9] z/36 [F/4F,,/4] [E2/9F,15/32] z/36 B/4 [F2/9F,,2/9] z/36 [E/8F,,/4] D/8 [F,,15/32F19/10] z/32 F,,2/9 z/36 F,,/4 F,15/32 z/32 F,,2/9 z/36 F,,/4 
[F2/9B,,,15/32] z/36 F/4 [A2/9B,,,2/9] z/36 [F/4B,,,/4] [F2/9B,,15/32] z/36 B/4 [F2/9B,,,2/9] z/36 [B/4B,,,/4] [B2/9B,,,15/32] z/36 F/4 [F2/9B,,,2/9] z/36 [B/4B,,,/4] [F2/9B,,15/32] z/36 E/8 D/8 [E2/9B,,,2/9] z/36 [D/4B,,,/4] 
[F,,15/32F19/10] z/32 F,,2/9 z/36 F,,/4 F,15/32 z/32 F,,2/9 z/36 F,,/4 F,,15/32 z/32 F,,2/9 z/36 F,,/4 F,15/32 z/32 F,,2/9 z/36 F,,/4 
[A,,,15/32A19/20] z/32 A,,,2/9 z/36 A,,,/4 [E2/9A,,15/32] z/36 F/4 [A,,,2/9D15/32] z/36 A,,,/4 [B,2/9A,,,15/32] z/36 D/4 [A2/9A,,,2/9] z/36 [B/4A,,,/4] [B15/32A,,15/32] z/32 [A2/9A,,,2/9] z/36 [F/4A,,,/4] 
[A2/9E,,15/32] z/36 B/4 [d2/9E,,2/9] z/36 [A/4E,,/4] [B2/9E,15/32] z/36 ^A/4 [=A2/9E,,2/9] z/36 [E,,/4^G19/20] E,,15/32 z/32 E,,2/9 z/36 E,,/4 E,15/32 z/32 [E,,2/9B19/20] z/36 E,,/4 
G,,15/32 z/32 [G,,2/9B15/32] z/36 G,,/4 [d15/32G,15/32] z/32 [e2/9G,,2/9] z/36 [d/4G,,/4] [f15/32G,,15/32] z/32 [g2/9G,,2/9] z/36 [f/4G,,/4] [e2/9G,15/32] z/36 d/4 [e2/9G,,2/9] z/36 [d/4G,,/4] 
[f2/9D,,15/32] z/36 g/4 [^g2/9D,,2/9] z/36 [a/4D,,/4] [b2/9D,15/32] z/36 f/4 [D,,2/9e15/32] z/36 D,,/4 [D,,15/32d19/20] z/32 D,,2/9 z/36 D,,/4 [D,15/32e17/24] z/32 D,,2/9 z/36 [e/8D,,/4] d/8 
[E,,15/32f17/24] z/32 E,,2/9 z/36 [E,,/4a17/36] [z/4E,15/32] a/4 [f2/9E,,2/9] z/36 [e/4E,,/4] [E,,15/32f19/20] z/32 E,,2/9 z/36 E,,/4 [f2/9E,15/32] z/36 e/4 [d2/9E,,2/9] z/36 [f/4E,,/4] 
[F,,15/32f17/24] z/32 F,,2/9 z/36 [F,,/4a17/36] [z/4F,15/32] a/4 [f2/9F,,2/9] z/36 [e/4F,,/4] [F,,15/32f19/20] z/32 F,,2/9 z/36 F,,/4 [d2/9f2/9F,15/32] z/36 [c/4e/4] [c2/9e2/9F,,2/9] z/36 [B/4d/4F,,/4] 
[B,,,15/32d19/10b19/10] z/32 B,,,2/9 z/36 B,,,/4 B,,15/32 z/32 B,,,2/9 z/36 B,,,/4 [d2/9B,,,15/32] z/36 d/4 [d2/9B,,,2/9] z/36 [d/4B,,,/4] [F/9B,,15/32] z/72 ^E/8 =E/8 D/8 [B,2/9B,,,2/9] z/36 [^A,/4B,,,/4] 
[F,,15/32^A19/5] z/32 F,,2/9 z/36 F,,/4 F,15/32 z/32 F,,2/9 z/36 F,,/4 F,,15/32 z/32 F,,2/9 z/36 F,,/4 F,15/32 z/32 F,,2/9 z/36 F,,/4 
[A,,,15/32f17/24] z/32 A,,,2/9 z/36 [f/4A,,,/4] [f2/9A,,15/32] z/36 f/4 [f2/9A,,,2/9] z/36 [f/4A,,,/4] [f2/9A,,,15/32] z/36 ^e/4 [e2/9A,,,2/9] z/36 [=e/4A,,,/4] [e/9A,,15/32] z/72 d/8 B/4 [e2/9A,,,2/9] z/36 [d/4A,,,/4] 
[E,,15/32B19/20] z/32 E,,2/9 z/36 E,,/4 [=A2/9E,15/32] z/36 [z/4F17/36] E,,2/9 z/36 [D/4E,,/4] [E2/9E,,15/32] z/36 F/4 [E,,2/9A17/24] z/36 E,,/4 [z/4E,15/32] D/4 [E2/9E,,2/9] z/36 [F/4E,,/4] 
[B2/9d2/9G,,15/32] z/36 D/4 [A2/9c2/9G,,2/9] z/36 [D/4G,,/4] [=G2/9B2/9G,15/32] z/36 D/4 [F2/9A2/9G,,2/9] z/36 [D/4G,,/4] [E2/9G2/9G,,15/32] z/36 B,/4 [=A,2/9G,,2/9] z/36 [F,/4G,,/4] [E,2/9G,,15/32] z/36 D,/4 [E,2/9G,,2/9] z/36 [F,/4G,,/4] 
[A,15/32D,,15/32] z/32 [D,,2/9B,15/32] z/36 D,,/4 [A2/9D,15/32] z/36 F/4 [E/9D,,2/9] z/72 F/8 [E/4D,,/4] [D,,15/32D10/7] z/32 D,,2/9 z/36 D,,/4 D,15/32 z/32 [D,,2/9D15/32F15/32] z/36 D,,/4 
[E,,15/32E10/7G10/7] z/32 E,,2/9 z/36 E,,/4 E,15/32 z/32 [E,,2/9E15/32G15/32] z/36 E,,/4 [E,,15/32F19/20A19/20] z/32 E,,2/9 z/36 E,,/4 [E,15/32G19/20B19/20] z/32 E,,2/9 z/36 E,,/4 
[F,,15/32F10/7A10/7] z/32 F,,2/9 z/36 F,,/4 F,15/32 z/32 [F,,2/9A15/32c15/32] z/36 F,,/4 [F,,15/32B19/20d19/20] z/32 F,,2/9 z/36 F,,/4 [F,15/32c19/20e19/20] z/32 F,,2/9 z/36 F,,/4 
[f2/9B,,,15/32] z/36 d/4 [B2/9B,,,2/9] z/36 [f/4B,,,/4] [d2/9B,,15/32] z/36 B/4 [f2/9B,,,2/9] z/36 [d/4B,,,/4] [B2/9B,,,15/32] z/36 f/4 [d2/9B,,,2/9] z/36 [B/4B,,,/4] [f2/9B,,15/32] z/36 d/4 [B,,,2/9B15/32] z/36 B,,,/4 
[e2/9F,,15/32] z/36 c/4 [^A2/9F,,2/9] z/36 [e/4F,,/4] [c2/9F,15/32] z/36 A/4 [e2/9F,,2/9] z/36 [c/4F,,/4] [F,,15/32f19/10^a19/10] z/32 F,,2/9 z/36 F,,/4 F,15/32 z/32 F,,2/9 z/36 F,,/4 
[e2/9A,,,15/32] z/36 c/4 [=A2/9A,,,2/9] z/36 [e/4A,,,/4] [c2/9A,,15/32] z/36 A/4 [e2/9A,,,2/9] z/36 [c/4A,,,/4] [A2/9A,,,15/32] z/36 e/4 [c2/9A,,,2/9] z/36 [A/4A,,,/4] [e2/9A,,15/32] z/36 c/4 [A,,,2/9A15/32] z/36 A,,,/4 
[d2/9E,,15/32] z/36 B/4 [^G2/9E,,2/9] z/36 [d/4E,,/4] [B2/9E,15/32] z/36 G/4 [d2/9E,,2/9] z/36 [B/4E,,/4] [E,,15/32e19/20g19/20] z/32 E,,2/9 z/36 E,,/4 E,15/32 z/32 E,,2/9 z/36 E,,/4 
[d2/9G,,15/32] z/36 B/4 [=G2/9G,,2/9] z/36 [d/4G,,/4] [B2/9G,15/32] z/36 G/4 [d2/9G,,2/9] z/36 [B/4G,,/4] [G2/9G,,15/32] z/36 d/4 [B2/9G,,2/9] z/36 [G/4G,,/4] [d2/9G,,15/32] z/36 B/4 [G,,2/9G15/32] z/36 G,,/4 
[d2/9D,,15/32] z/36 A/4 [F2/9D,,2/9] z/36 [d/4D,,/4] [A2/9D,15/32] z/36 F/4 [d2/9D,,2/9] z/36 [A/4D,,/4] [D,,15/32d19/20f19/20] z/32 D,,2/9 z/36 D,,/4 D,15/32 z/32 D,,2/9 z/36 D,,/4 
[B2/9E,,15/32] z/36 G/4 [E2/9E,,2/9] z/36 [B/4E,,/4] [G2/9E,15/32] z/36 E/4 [B2/9E,,2/9] z/36 [G/4E,,/4] [E2/9E,,15/32] z/36 B/4 [G2/9E,,2/9] z/36 [E/4E,,/4] [B2/9E,15/32] z/36 G/4 [E,,2/9E15/32] z/36 E,,/4 
[c2/9F,,15/32] z/36 ^A/4 [F2/9F,,2/9] z/36 [c/4F,,/4] [A2/9F,15/32] z/36 F/4 [c2/9F,,2/9] z/36 [A/4F,,/4] [F,,15/32c19/20f19/20] z/32 F,,2/9 z/36 F,,/4 F,15/32 z/32 F,,2/9 z/36 F,,/4 
[f2/9B,,,15/32] z/36 d/4 [B2/9B,,,2/9] z/36 [f/4B,,,/4] [d2/9B,,15/32] z/36 B/4 [f2/9B,,,2/9] z/36 [d/4B,,,/4] [B2/9B,,,15/32] z/36 f/4 [d2/9B,,,2/9] z/36 [B/4B,,,/4] [f2/9B,,15/32] z/36 d/4 [B,,,2/9B15/32] z/36 B,,,/4 
[e2/9F,,15/32] z/36 c/4 [A2/9F,,2/9] z/36 [e/4F,,/4] [c2/9F,15/32] z/36 A/4 [e2/9F,,2/9] z/36 [c/4F,,/4] [F,,15/32f19/10a19/10] z/32 F,,2/9 z/36 F,,/4 F,15/32 z/32 F,,2/9 z/36 F,,/4 
[e2/9A,,,15/32] z/36 c/4 [=A2/9A,,,2/9] z/36 [e/4A,,,/4] [c2/9A,,15/32] z/36 A/4 [e2/9A,,,2/9] z/36 [c/4A,,,/4] [A2/9A,,,15/32] z/36 e/4 [c2/9A,,,2/9] z/36 [A/4A,,,/4] [e2/9A,,15/32] z/36 c/4 [A,,,2/9A15/32] z/36 A,,,/4 
[d2/9E,,15/32] z/36 B/4 [^G2/9E,,2/9] z/36 [d/4E,,/4] [B2/9E,15/32] z/36 G/4 [d2/9E,,2/9] z/36 [B/4E,,/4] [E,,15/32e19/20g19/20] z/32 E,,2/9 z/36 E,,/4 E,15/32 z/32 E,,2/9 z/36 E,,/4 
[d2/9G,,15/32] z/36 B/4 [=G2/9G,,2/9] z/36 [d/4G,,/4] [B2/9G,15/32] z/36 G/4 [d2/9G,,2/9] z/36 [B/4G,,/4] [G2/9G,,15/32] z/36 d/4 [B2/9G,,2/9] z/36 [G/4G,,/4] [d2/9G,,15/32] z/36 B/4 [G,,2/9G15/32] z/36 G,,/4 
[d2/9D,,15/32] z/36 A/4 [F2/9D,,2/9] z/36 [d/4D,,/4] [A2/9D,15/32] z/36 F/4 [d2/9D,,2/9] z/36 [A/4D,,/4] [D,,15/32d19/20f19/20] z/32 D,,2/9 z/36 D,,/4 D,15/32 z/32 D,,2/9 z/36 D,,/4 
[B2/9E,,15/32] z/36 G/4 [E2/9E,,2/9] z/36 [B/4E,,/4] [G2/9E,15/32] z/36 E/4 [B2/9E,,2/9] z/36 [G/4E,,/4] [E2/9E,,15/32] z/36 B/4 [G2/9E,,2/9] z/36 [E/4E,,/4] [B2/9E,15/32] z/36 G/4 [E,,2/9E15/32] z/36 E,,/4 
[c2/9F,,15/32] z/36 ^A/4 [F2/9F,,2/9] z/36 [c/4F,,/4] [A2/9F,15/32] z/36 F/4 [c2/9F,,2/9] z/36 [A/4F,,/4] [F,,15/32c19/20f19/20] z/32 F,,2/9 z/36 F,,/4 F,15/32 z/32 F,,2/9 z/36 F,,/4 
[z/G,,19/5] [B,2/9G2/9] z/36 [B,17/36G17/36] z/36 [B,/4G/4] [B,2/9G2/9] z/36 [B,17/36G17/36] z/36 [B,17/24G17/24] z/24 [C15/32=A15/32] z/32 [B,2/9G2/9] z/36 [z/4B,17/36G17/36] 
[z/4D,,19/5] [A,73/28F73/28] z9/14 F15/32 z/32 
[G,15/32F15/32E,,19/5] z/32 E2/9 z/36 [G,17/24D17/24] z49/24 G15/32 z/32 
[^A,15/32G15/32F,,19/10] z/32 F2/9 z/36 [A,17/24F17/24] z13/24 [F,15/32A,19/20F19/20] z/32 C,15/32 z/32 [E19/20F,,19/20] z/20 
[B,19/5D19/5B,,,19/5B,,19/5] 
