X: 1
T: The Chainsmoker - Don't Let Me Down
Z: ABC Generated by Starbound Composer v0.8.7
L: 1/4
M: 4/4
Q: 1/4=160
K: C
^G10/7 z/14 G10/7 z/14 ^F19/20 z/20 
[^d10/7B,19/5] z/14 d10/7 z/14 d19/20 z/20 
_B10/7 z/14 B10/7 z/14 B19/20 z/20 
B15/32 z/32 =B19/20 z/20 B10/7 z/14 _B19/20 z/20 
[E,15/32G10/7] z/32 E,15/32 z/32 E,15/32 z/32 [E,15/32G10/7] z/32 E,15/32 z/32 E,15/32 z/32 [E,15/32F19/20] z/32 E,15/32 z/32 
[B,,15/32d10/7] z/32 B,,15/32 z/32 B,,15/32 z/32 [B,,15/32d10/7] z/32 B,,15/32 z/32 B,,15/32 z/32 [B,,15/32d19/20] z/32 B,,15/32 z/32 
[^F,,15/32B10/7] z/32 F,,15/32 z/32 F,,15/32 z/32 [F,,15/32B10/7] z/32 F,,15/32 z/32 F,,15/32 z/32 [F,,15/32B19/20] z/32 F,,15/32 z/32 
[B15/32^G,,15/32] z/32 [G,,15/32=B19/20] z/32 G,,15/32 z/32 [G,,15/32B10/7] z/32 G,,15/32 z/32 G,,15/32 z/32 [G,,15/32_B19/20] z/32 G,,15/32 z/32 
[G10/7E,19/5] z/14 [z/G10/7] B, [F19/20^G,] z/20 
[d10/7B,,19/5] z/14 [z/d10/7] B,/ B,/ [B,/d19/20] _B,/ 
[B10/7F,,19/5] z/14 [z/B10/7] =B, [B19/20G,] z/20 
[B15/32B,G,,19/5] z/32 [z/=B19/20] G,/ [G,/B10/7] B,/ B,/ [_B,/_B19/20] G,/ 
[zG10/7E,19/5] G,/ [G,/G10/7] =B, [F19/20G,] z/20 
[B,d10/7B,,19/5] G,/ [G,/d10/7] B,/ B,/ [B,/d19/20] _B,/ 
[B10/7F,,19/5] z/14 B10/7 z/14 B19/20 z/20 
[B15/32G,,19/5] z/32 =B19/20 z/20 B10/7 z/14 _B19/20 z/20 
[=B,10/7E10/7G10/7E,19/5] z/14 [z/B,10/7E10/7G10/7] B, [B,19/20E19/20F19/20G,] z/20 
[z/F10/7=B10/7d10/7] B,,15/32 z/32 [z/B,,57/20] [z/F10/7B10/7d10/7] B,/ B,/ [B,/F19/20B19/20d19/20] _B,/ 
[^C10/7F10/7_B10/7F,,19/5] z/14 [zC10/7F10/7B10/7] B,/ [B,/C19/20F19/20B19/20] B,/ 
[B15/32=B,^D10/7G10/7] z/32 [G,,15/32=B19/20] z/32 [G,/G,,57/20] [G,/D10/7G10/7B10/7] B,/ B,/ [_B,/D19/20G19/20_B19/20] G,/ 
[=B,10/7E10/7G10/7E,19/5] z/14 [zB,10/7E10/7G10/7] G,/ [G,/B,19/20E19/20F19/20] G,/ 
[z/B,F10/7=B10/7d10/7] B,,15/32 z/32 [G,/B,,57/20] [G,/F10/7B10/7d10/7] B,/ B,/ [B,/F19/20B19/20d19/20] _B,/ 
[C10/7F10/7_B10/7F,,19/5] z/14 [C10/7F10/7B10/7] z/14 [C19/20F19/20B19/20] z/20 
[B15/32D10/7G10/7] z/32 [G,,15/32=B19/20] z/32 [z/G,,57/20] [D10/7G10/7B10/7] z/14 [z/D19/20G19/20_B19/20] C/ 
[E3/4E,19/20G,10/7E,,19/5] [z/4D/] [z/E,57/20] [C/G,10/7] E3/4 [z/4D/] [z/^F,19/20] C/ 
[B,,19/20ED10/7B,,,19/5] z/20 [D/B,,57/20] [CD10/7] [z/=B,3/] D19/20 z/20 
[F,,19/20_B,10/7^F,,,19/5] z/20 [z/F,,57/20] [D/B,10/7] F/ D/ [F/B,19/20] F/ 
[B,15/32G/G,,19/20^G,,,19/5] z/32 [z/=B,19/20D2] [z/G,,57/20] B,10/7 z/14 [z/_B,19/20] C/ 
[E3/4E,19/20G,10/7E,,19/5] [z/4D3/4] [z/E,57/20] [C/G,10/7] E3/4 [z/4D3/4] [z/F,19/20] C/ 
[E2/3B,,19/20D10/7B,,,19/5] [z/3D2/3] [z/3B,,57/20] [z/6C2/3] [z/D10/7] [z=B,2] D19/20 z/20 
[z/F,,19/20_B,10/7F,,,19/5] D/ [F/F,,57/20] [D/B,10/7] F/ D/ [F/B,19/20] F/ 
[B,15/32G/G,,19/20G,,,19/5] z/32 [z/=B,19/20D3/] [z/G,,57/20] [z/B,10/7] D2/3 [z/3C2/3] [z/3_B,19/20] =B,2/3 
[E,,,19/20E,,19/20FE,10/7G,10/7] z/20 [z/E,,,10/7E,,10/7] [z/E,10/7G,10/7] [z/E2/3] [z/6E,,,10/7E,,10/7] [z/3D2/3] [z/3E,19/20F,19/20] E2/3 
[B,,,19/20B,,19/20FB,10/7D10/7] z/20 [z/B,,,10/7B,,10/7] [z/B,10/7D10/7] [z/F2/3] [z/6B,,,10/7B,,10/7] [z/3D2/3] [z/3B,19/20D19/20] F2/3 
[F,,,19/20F,,19/20GF,10/7_B,10/7] z/20 [=B,/F,,,10/7F,,10/7] [B,/F,10/7_B,10/7] [z/G2/3] [z/6F,,,10/7F,,10/7] [z/3C2/3] [z/3F,19/20B,19/20] C2/3 
[B,15/32C/G,,,19/20G,,19/20G,10/7] z/32 [z/=B,19/20B,3/] [z/G,,,10/7G,,10/7] [z/G,10/7B,10/7] [z/G,2] [z/G,,,10/7G,,10/7] [G,19/20_B,19/20] z/20 
[=B2/3E,,,19/20E,,19/20E,10/7G,10/7] [z/3_B2/3] [z/3E,,,10/7E,,10/7] [z/6G2/3] [z/E,10/7G,10/7] [z/=B2/3] [z/6E,,,10/7E,,10/7] [z/3_B2/3] [z/3E,19/20F,19/20] G2/3 
[=B2/3B,,,19/20B,,19/20=B,10/7D10/7] [z/3_B2/3] [z/3B,,,10/7B,,10/7] [z/6G2/3] [z/B,10/7D10/7] [z/F2] [z/B,,,10/7B,,10/7] [B,19/20D19/20] z/20 
[F,,,19/20F,,19/20F,10/7_B,10/7] z/20 [z/F,,,10/7F,,10/7] [z/F,10/7B,10/7] [z/G2/3] [z/6F,,,10/7F,,10/7] [z/3F2/3] [z/3F,19/20B,19/20] E2/3 
[B,15/32DG,10/7G,,,10/7G,,10/7] z/32 =B,19/20 z/20 [G,/3B,/3G,,,/3G,,/3] z/6 G,2/3 G,2/3 E2/3 
[G19/20DG,,,57/20G,,57/20] z/20 G19/20 z/20 G15/32 z/32 A15/32 z/32 [G,,,19/20G,,19/20F10/7] z/20 
[z/G,,,93/28G,,93/28] G15/32 z/32 G19/20 z/20 G15/32 z/32 A15/32 z/32 [z/F19/20] [G,,,15/32G,,15/32] z/32 
[F19/20G,,,77/18G,,77/18] z/20 G15/32 z/32 G15/32 z/32 [G,2/3G19/20] [z/3G,2/3] [z/3G15/32] [z/6E2/3] G15/32 z/32 
[z/F19/20D3/] [G,,,15/32G,,15/32] z/32 [z/G19/20G,,,57/20G,,57/20] [z/B,3/] G15/32 z/32 A15/32 z/32 [F19/20G,] z/20 
[F,19/20G,,,57/20G,,57/20] z/20 G,19/20 z/20 G,15/32 z/32 A,15/32 z/32 [G,,,19/20G,,19/20F,10/7] z/20 
[z/G,,,93/28G,,93/28] G,15/32 z/32 G,19/20 z/20 G,15/32 z/32 A,15/32 z/32 [z/F,19/20] [G,,,15/32G,,15/32] z/32 
[F,19/20G,,,77/18G,,77/18] z/20 G,15/32 z/32 G,15/32 z/32 [G,2/3G,19/20] [z/3G,2/3] [z/3G,15/32] [z/6E2/3] G,15/32 z/32 
[z/F,19/20D3/] [G,,,15/32G,,15/32] z/32 [z/G,19/20G,,,57/20G,,57/20] [z/B,3/] G,15/32 z/32 A,15/32 z/32 [F,19/20G,] z/20 
[B,10/7E10/7G10/7E,19/5] z/14 [z/B,10/7E10/7G10/7] B, [B,19/20E19/20F19/20G,] z/20 
[z/F10/7=B10/7d10/7] B,,15/32 z/32 [z/B,,57/20] [z/F10/7B10/7d10/7] B,/ B,/ [B,/F19/20B19/20d19/20] _B,/ 
[C10/7F10/7_B10/7F,,19/5] z/14 [zC10/7F10/7B10/7] B,/ [B,/C19/20F19/20B19/20] B,/ 
[B15/32=B,D10/7G10/7] z/32 [G,,15/32=B19/20] z/32 [G,/G,,57/20] [G,/D10/7G10/7B10/7] B,/ B,/ [_B,/D19/20G19/20_B19/20] G,/ 
[=B,10/7E10/7G10/7E,19/5] z/14 [zB,10/7E10/7G10/7] G,/ [G,/B,19/20E19/20F19/20] G,/ 
[z/B,F10/7=B10/7d10/7] B,,15/32 z/32 [G,/B,,57/20] [G,/F10/7B10/7d10/7] B,/ B,/ [B,/F19/20B19/20d19/20] _B,/ 
[C10/7F10/7_B10/7F,,19/5] z/14 [C10/7F10/7B10/7] z/14 [C19/20F19/20B19/20] z/20 
[B15/32D10/7G10/7] z/32 [G,,15/32=B19/20] z/32 [z/G,,57/20] [D10/7G10/7B10/7] z/14 [z/D19/20G19/20_B19/20] C/ 
[E3/4E,19/20G,10/7E,,19/5] [z/4D/] [z/E,57/20] [C/G,10/7] E3/4 [z/4D/] [z/F,19/20] C/ 
[B,,19/20ED10/7B,,,19/5] z/20 [D/B,,57/20] [CD10/7] [z/=B,3/] D19/20 z/20 
[F,,19/20_B,10/7F,,,19/5] z/20 [z/F,,57/20] [D/B,10/7] F/ D/ [F/B,19/20] F/ 
[B,15/32G/G,,19/20G,,,19/5] z/32 [z/=B,19/20D2] [z/G,,57/20] B,10/7 z/14 [z/_B,19/20] C/ 
[E3/4E,19/20G,10/7E,,19/5] [z/4D3/4] [z/E,57/20] [C/G,10/7] E3/4 [z/4D3/4] [z/F,19/20] C/ 
[E2/3B,,19/20D10/7B,,,19/5] [z/3D2/3] [z/3B,,57/20] [z/6C2/3] [z/D10/7] [z=B,2] D19/20 z/20 
[z/F,,19/20_B,10/7F,,,19/5] D/ [F/F,,57/20] [D/B,10/7] F/ D/ [F/B,19/20] F/ 
[B,15/32G/G,,19/20G,,,19/5] z/32 [z/=B,19/20D3/] [z/G,,57/20] [z/B,10/7] D2/3 [z/3C2/3] [z/3_B,19/20] =B,2/3 
[E,,,19/20E,,19/20FE,10/7G,10/7] z/20 [z/E,,,10/7E,,10/7] [z/E,10/7G,10/7] [z/E2/3] [z/6E,,,10/7E,,10/7] [z/3D2/3] [z/3E,19/20F,19/20] E2/3 
[B,,,19/20B,,19/20FB,10/7D10/7] z/20 [z/B,,,10/7B,,10/7] [z/B,10/7D10/7] [z/F2/3] [z/6B,,,10/7B,,10/7] [z/3D2/3] [z/3B,19/20D19/20] F2/3 
[F,,,19/20F,,19/20GF,10/7_B,10/7] z/20 [=B,/F,,,10/7F,,10/7] [B,/F,10/7_B,10/7] [z/G2/3] [z/6F,,,10/7F,,10/7] [z/3C2/3] [z/3F,19/20B,19/20] C2/3 
[B,15/32C/G,,,19/20G,,19/20G,10/7] z/32 [z/=B,19/20B,3/] [z/G,,,10/7G,,10/7] [z/G,10/7B,10/7] [z/G,2] [z/G,,,10/7G,,10/7] [G,19/20_B,19/20] z/20 
[=B2/3E,,,19/20E,,19/20E,10/7G,10/7] [z/3_B2/3] [z/3E,,,10/7E,,10/7] [z/6G2/3] [z/E,10/7G,10/7] [z/=B2/3] [z/6E,,,10/7E,,10/7] [z/3_B2/3] [z/3E,19/20F,19/20] G2/3 
[=B2/3B,,,19/20B,,19/20=B,10/7D10/7] [z/3_B2/3] [z/3B,,,10/7B,,10/7] [z/6G2/3] [z/B,10/7D10/7] [z/F2] [z/B,,,10/7B,,10/7] [B,19/20D19/20] z/20 
[F,,,19/20F,,19/20F,10/7_B,10/7] z/20 [z/F,,,10/7F,,10/7] [z/F,10/7B,10/7] [z/G2/3] [z/6F,,,10/7F,,10/7] [z/3F2/3] [z/3F,19/20B,19/20] E2/3 
[B,15/32DG,10/7G,,,10/7G,,10/7] z/32 =B,19/20 z/20 [G,/3B,/3G,,,/3G,,/3] z/6 G,2/3 G,2/3 E2/3 
[G19/20DG,,,57/20G,,57/20] z/20 G19/20 z/20 G15/32 z/32 A15/32 z/32 [G,,,19/20G,,19/20F10/7] z/20 
[z/G,,,93/28G,,93/28] G15/32 z/32 G19/20 z/20 G15/32 z/32 A15/32 z/32 [z/F19/20] [G,,,15/32G,,15/32] z/32 
[F19/20G,,,77/18G,,77/18] z/20 G15/32 z/32 G15/32 z/32 [G,2/3G19/20] [z/3G,2/3] [z/3G15/32] [z/6E2/3] G15/32 z/32 
[z/F19/20D3/] [G,,,15/32G,,15/32] z/32 [z/G19/20G,,,57/20G,,57/20] [z/B,3/] G15/32 z/32 A15/32 z/32 [F19/20G,] z/20 
[F,19/20G,,,57/20G,,57/20] z/20 G,19/20 z/20 G,15/32 z/32 A,15/32 z/32 [G,,,19/20G,,19/20F,10/7] z/20 
[z/G,,,93/28G,,93/28] G,15/32 z/32 G,19/20 z/20 G,15/32 z/32 A,15/32 z/32 [z/F,19/20] [G,,,15/32G,,15/32] z/32 
[F,19/20G,,,77/18G,,77/18] z/20 G,15/32 z/32 G,15/32 z/32 [G,2/3G,19/20] [z/3G,2/3] [z/3G,15/32] [z/6E2/3] G,15/32 z/32 
[z/F,19/20D3/] [G,,,15/32G,,15/32] z/32 [z/G,19/20G,,,57/20G,,57/20] [z/B,3/] G,15/32 z/32 A,15/32 z/32 [F,19/20G,] z/20 
[G19/20^g19/20G,,,93/28G,,93/28] z/20 [G19/20g19/20] z/20 [G15/32g15/32] z/32 [A15/32a15/32] z/32 [z/F10/7^f10/7] [G,,,15/32G,,15/32] z/32 
[z/G,,,19/10G,,19/10] [G15/32g15/32] z/32 [G19/20g19/20] z/20 [G15/32g15/32G,,,19/10G,,19/10] z/32 [A15/32a15/32] z/32 [F19/20f19/20] z/20 
[F19/20f19/20G,,,93/28G,,93/28] z/20 [G15/32g15/32] z/32 [G15/32g15/32] z/32 [G,2/3G19/20g19/20] [z/3G,2/3] [z/3G15/32g15/32] [z/6E2/3] [G15/32g15/32G,,,15/32G,,15/32] z/32 
[F19/20f19/20D3/G,,,19/10G,,19/10] z/20 [z/G19/20g19/20] [z/B,3/] [G15/32g15/32G,,,19/10G,,19/10] z/32 [A15/32a15/32] z/32 [F19/20f19/20G,] z/20 
[F,19/20F19/20G,,,19/10G,,19/10] z/20 [G,19/20G19/20] z/20 [G,15/32G15/32G,,,10/7G,,10/7] z/32 [A,15/32A15/32] z/32 [z/F,10/7F10/7] [G,,,15/32G,,15/32] z/32 
[z/G,,,19/10G,,19/10] [G,15/32G15/32] z/32 [G,19/20G19/20] z/20 [G,15/32G15/32G,2/3G,,,19/10G,,19/10] z/32 [z/6A,15/32A15/32] [z/3G,2/3] [z/3F,19/20F19/20] E2/3 
[F,19/20F19/20DG,,,19/10G,,19/10] z/20 [G,15/32G15/32] z/32 [G,15/32G15/32] z/32 [G,2/3G,19/20G19/20G,,,10/7G,,10/7] [z/3G,2/3] [z/3G,15/32G15/32] [z/6E2/3] [G,15/32G15/32G,,,15/32G,,15/32] z/32 
[F,19/20F19/20D3/G,,,19/10G,,19/10] z/20 [z/G,19/20G19/20] [z/B,3/] [G,15/32G15/32G,,,19/10G,,19/10] z/32 [A,15/32A15/32] z/32 [F,19/20F19/20G,] z/20 
[E,19/20E,,19/5] z/20 E,19/20 z/20 E,19/20 z/20 E,19/20 z/20 
[z/B,,19/20B,,,19/5] ^c15/32 z/32 [c15/32B,,19/20] z/32 c15/32 z/32 [c15/32B,,19/20] z/32 [z/d10/7] [=B/B,,19/20] [z/_B] 
[z/F,,19/20F,,,19/5] [B/4c15/32] z/4 [B/4c15/32F,,19/20] z/4 [c15/32B/] z/32 [c15/32B/F,,19/20] z/32 [B/4d10/7] z/4 [B/4F,,19/20] z/4 B/ 
[=B/G,,19/20G,,,19/5] [c15/32G] z/32 [c15/32G,,19/20] z/32 [c15/32F/] z/32 [c15/32G/G,,19/20] z/32 [z/Bd10/7] [z/G,,19/20] C/ 
[E,19/20E,,19/5] z/20 E,19/20 z/20 E,19/20 z/20 E,19/20 z/20 
[z/B,,19/20B,,,19/5] c15/32 z/32 [c15/32B,,19/20] z/32 c15/32 z/32 [c15/32B,,19/20] z/32 [z/d10/7] [B/B,,19/20] [z/_B] 
[z/F,,19/20F,,,19/5] [B/4c15/32] z/4 [B/4c15/32F,,19/20] z/4 [c15/32B/] z/32 [c15/32B/F,,19/20] z/32 [B/4d10/7] z/4 [B/4F,,19/20] z/4 B/ 
[=B/G,,19/20G,,,19/5] [c15/32G] z/32 [c15/32G,,19/20] z/32 [c15/32F/] z/32 [c15/32G/G,,19/20] z/32 [z/Bd10/7] [z/G,,19/20] C/ 
[E3/4B,19/5G19/5E,,19/5] D/ z/4 C/ E3/4 D/ z/4 C/ 
[EB,19/5F19/5B,,19/5] D/ C B,3/ 
[z3/F19/5_B19/5F,19/5] D/ F/ D/ F/ F/ 
[G/G19/5=B19/5G,19/5] D2 z C/ 
[E3/4G19/5f19/5E,19/5] D3/4 C/ E3/4 D3/4 C/ 
[E2/3d19/5B,,19/5B,19/5] D2/3 C2/3 B,2 
[z/F19/5c19/5F,19/5] D/ F/ D/ F/ D/ F/ F/ 
[G/G19/5B19/5G,19/5] D3/ D2/3 C2/3 B,2/3 
[E,19/20FB,19/5G19/5E,,19/5] z/20 E,19/20 z/20 [E2/3E,] [z/3D2/3] [z/3E,19/20] E2/3 
[B,,19/20FB,19/5F19/5B,,,19/5] z/20 B,,19/20 z/20 [F2/3B,,] [z/3D2/3] [z/3B,,19/20] F2/3 
[F,,19/20GF19/5_B19/5F,,,19/5] z/20 [B,/F,,19/20] B,/ [G2/3F,,] [z/3C2/3] [z/3F,,19/20] C2/3 
[C/G,,19/20G19/5=B19/5G,,,19/5] [z/B,3/] G,,19/20 z/20 [G,,G,2] G,,19/20 z/20 
[B2/3E,19/20E,,19/10G19/5f19/5] [z/3_B2/3] [z/3E,19/20] G2/3 [=B2/3E,19/20E,,19/10] [z/3_B2/3] [z/3E,19/20] G2/3 
[=B2/3B,,19/20B,,,19/10B19/5d19/5] [z/3_B2/3] [z/3B,,19/20] G2/3 [B,,19/20B,,,19/10F2] z/20 B,,19/20 z/20 
[F,,19/20F,,,19/10F19/5c19/5] z/20 F,,19/20 z/20 [=B2/3F,,19/20F,,,19/10] [z/3_B2/3] [z/3F,,19/20] c2/3 
[cG19/10=B19/10G,,,19/10G,,19/10] B _B/ =B/ G 
[E,19/20B,10/7E10/7G10/7E,,19/5] z/20 [z/E,10/7] [zB,10/7E10/7G10/7] [z/E,10/7] [B,19/20E19/20F19/20] z/20 
[B,,19/20F10/7B10/7d10/7B,,,19/5] z/20 [z/B,,10/7] [zF10/7B10/7d10/7] [z/B,,10/7] [z/F19/20B19/20d19/20] B/ 
[F,,19/20C10/7F10/7_B10/7c2F,,,19/5] z/20 [z/F,,10/7] [z/C10/7F10/7B10/7] [z/=B3/4] [z/4F,,10/7] [z/4B3/4] [z/C19/20F19/20_B19/20] c/ 
[B15/32G,,19/20cD10/7G10/7G,,,19/5] z/32 [z/=B19/20] [z/BG,,10/7] [z/D10/7G10/7B10/7] _B/ [=B/G,,10/7] [G/D19/20G19/20_B19/20] [z/=B3/] 
[E,,19/20E,19/20B,10/7E10/7G10/7] z/20 [z/E,,10/7E,10/7] [zB,10/7E10/7G10/7] [z/E,,10/7E,10/7] [B,19/20E19/20F19/20] z/20 
[B,,,19/20B,,19/20F10/7B10/7d10/7] z/20 [z/B,,,10/7B,,10/7] [zF10/7B10/7d10/7] [z/B,,,10/7B,,10/7] [z/F19/20B19/20d19/20] B/ 
[F,,,19/20F,,19/20C10/7F10/7_B10/7c2] z/20 [z/F,,,10/7F,,10/7] [z/C10/7F10/7B10/7] [z/=B3/4] [z/4F,,,10/7F,,10/7] [z/4B3/4] [z/C19/20F19/20_B19/20] =B/ 
[_B15/32G,,,19/20G,,19/20=BD10/7G10/7] z/32 [z/B19/20] [z/_BG,,,10/7G,,10/7] [z/D10/7G10/7=B10/7] [z/G] [z/G,,,10/7G,,10/7] [F/D19/20G19/20_B19/20] C/6 z/84 [z9/28D37/28] 
[E,,19/20E,10/7B,19/5E19/5G19/5] z/20 [z/E,,10/7] [zE,10/7] [z/E,,10/7] E,19/20 z/20 
[z/B,,,19/20B,,10/7] [c15/32b15/32] z/32 [c15/32b15/32B,,,10/7] z/32 [c15/32b15/32B,,10/7] z/32 [c15/32b15/32] z/32 [z/d10/7_b10/7B,,,10/7] B,,19/20 z/20 
[z/F,,,19/20F,,10/7] [c15/32f15/32] z/32 [c15/32f15/32F,,,10/7] z/32 [c15/32f15/32F,,10/7] z/32 [c15/32f15/32=B3/4] z/32 [z/4d10/7F,,,10/7] [z/4B3/4] [z/F,,19/20] B/ 
[z/G,,,19/20G,,10/7G3/] [c15/32f15/32] z/32 [c15/32f15/32G,,,10/7] z/32 [c15/32f15/32G,,10/7B3/] z/32 [c15/32f15/32] z/32 [z/d19/20G,,,10/7] [z/G,,19/20G] c15/32 z/32 
[E,,19/20E,19/20B10/7e10/7g10/7] z/20 [z/E,,10/7E,10/7] [zB10/7e10/7g10/7] [z/E,,19/20E,19/20] [z/B19/20e19/20f19/20] [E,,15/32E,15/32] z/32 
[B,,,19/20B,,19/20f10/7=b10/7^d'10/7] z/20 [z/B,,,10/7B,,10/7] [_B/f10/7b10/7d'10/7] B/ [B/B,,,19/20B,,19/20] [z/f19/20b19/20d'19/20=B] [B,,,15/32B,,15/32] z/32 
[F,,,19/20F,,19/20Bc10/7f10/7_b10/7] z/20 [z/F,,,10/7F,,10/7] [z/c10/7f10/7b10/7] [z/G3/4] [z/4F,,,19/20F,,19/20] [z/4G3/4] [z/c19/20f19/20b19/20] [F,,,15/32F,,15/32G/] z/32 
[b15/32G,,,19/20G,,19/20Gd10/7g10/7] z/32 [z/=b19/20] [z/G,,,10/7G,,10/7] [z/d10/7g10/7b10/7] [z/F3/4] [z/4G,,,19/20G,,19/20] [z/4D3/4] [z/d19/20g19/20_b19/20] [G,,,15/32G,,15/32C/] z/32 
[B,G,19/5E,,19/5E,19/5] z3 
[z/B,,,19/5] C15/32 z/32 C15/32 z/32 C15/32 z/32 C15/32 z/32 D10/7 z/14 
[z/F,,,19/5] C15/32 z/32 C15/32 z/32 C15/32 z/32 [C15/32G,2/3] z/32 [z/6D10/7] G,2/3 E2/3 
[z/D3/G,,,19/5] C15/32 z/32 C15/32 z/32 [C15/32B,3/] z/32 C15/32 z/32 [z/D10/7] B,/ C/ 
