X: 1
T: Tokyo Ghoul - Unravel 
Z: ABC Generated by Starbound Composer v0.8.7
L: 1/4
M: 4/4
Q: 1/4=135
K: Bb
_b15/32 z/32 c'19/20 z/20 b19/20 z/20 =a15/32 z/32 g19/20 z/20 
c'19/20 z/20 b19/20 z/20 a19/20 z/20 g19/20 z/20 
g15/32 z/32 f17/24 z19/24 e15/32 z/32 e19/20 z/20 f15/32 z/32 
d19/20 z71/20 
d15/32 z/32 [E,15/32d19/20] z/32 _B,15/32 z/32 [d15/32E15/32] z/32 [d19/20E,19/20] z/20 [d'15/32E,15/32] z/32 [B,19/20d'10/7] z/20 
G,15/32 z/32 B,15/32 z/32 C15/32 z/32 [G,19/20F19/20] z/20 G,15/32 z/32 [z/B,19/20] b15/32 z/32 
[F,15/32a19/20] z/32 C15/32 z/32 [a15/32F15/32] z/32 [a19/20F,19/20] z/20 [b15/32F,15/32] z/32 [C19/20b10/7] z/20 
G,15/32 z/32 B,15/32 z/32 C15/32 z/32 G,19/20 z/20 G,15/32 z/32 [z/B,19/20] b15/32 z/32 
[E,15/32B,15/32c'19/20] z/32 B,15/32 z/32 [E15/32b19/20] z/32 [z/E,19/20] a15/32 z/32 [E,15/32g17/24] z/32 [z/E,19/20B,19/20] [z/c'19/20] 
[F,15/32D15/32] z/32 [B,15/32b19/20] z/32 C15/32 z/32 [a19/20G,19/20] z/20 [G,15/32g17/24] z/32 [z/B,19/20] g15/32 z/32 
[F,15/32C15/32f17/24] z/32 C15/32 z/32 F15/32 z/32 [e15/32F,19/20] z/32 [z/e19/20] F,15/32 z/32 [f15/32F,19/20C19/20] z/32 [z/d10/7] 
[G,15/32D15/32] z/32 B,15/32 z/32 C15/32 z/32 F,15/32 z/32 B,17/24 z/24 =A,17/24 z/24 [d15/32F,15/32] z/32 
[E,15/32B,15/32d19/20] z/32 B,15/32 z/32 [d15/32E15/32] z/32 [d19/20E,19/20] z/20 [d'15/32E,15/32] z/32 [E,19/20B,19/20d'10/7] z/20 
[G,15/32D15/32] z/32 B,15/32 z/32 C15/32 z/32 F,15/32 z/32 B,19/20 z/20 [z/A,19/20] b15/32 z/32 
[C,2/9a19/20] z/36 F,/4 C,2/9 z/36 F,/4 [C,2/9a15/32] z/36 F,/4 [C,2/9a19/20] z/36 F,/4 C,2/9 z/36 F,/4 [C,2/9b15/32] z/36 F,/4 [C,2/9b19/20] z/36 F,/4 C,2/9 z/36 F,/4 
[G2/9_B2/9G,,2/9D,2/9G,2/9] z/36 [G17/36B17/36G,,17/36D,17/36G,17/36] z/36 [G17/36B17/36G,,17/36D,17/36G,17/36] z/36 [G/4B/4G,,/4D,/4G,/4] [G15/32B15/32G,,15/32D,15/32G,15/32] z/32 [G2/9B2/9G,,2/9D,2/9G,2/9] z/36 [G17/36B17/36G,,17/36D,17/36G,17/36] z/36 [G/4B/4G,,/4D,/4G,/4] [G15/32B15/32G,,15/32D,15/32G,15/32] z/32 [F,,15/32C,15/32F,15/32] z/32 
d2/9 z/36 D/4 [G2/9G,2/9] z/36 c/4 D2/9 z/36 [G/4D/4] B2/9 z/36 G/4 d2/9 z/36 D/4 G2/9 z/36 c/4 D2/9 z/36 G/4 c15/32 z/32 
[d'2/9G,,2/9D,2/9G,2/9] z/36 [d17/36G,,17/36D,17/36G,17/36] z/36 [c'17/36G,,17/36D,17/36G,17/36] z/36 [d/4G,,/4D,/4G,/4] [b15/32G,,15/32D,15/32G,15/32] z/32 [d'2/9G,,2/9D,2/9G,2/9] z/36 [G,,/4D,/4G,/4d17/36] [G,,2/9D,2/9G,2/9] z/36 [c'/4G,,/4D,/4G,/4] [b19/20G,,19/20D,19/20G,19/20] z/20 
[d2/9G,,2/9] z/36 [G,/4d17/36b17/36] G,,2/9 z/36 [d/4G,/4] [G,,2/9d15/32g15/32] z/36 G,/4 [G,,2/9d15/32] z/36 G,/4 [D2/9F,,2/9] z/36 [G/4F,/4] [G2/9d2/9F,,2/9] z/36 [D/4F,/4] [G2/9F,,2/9] z/36 [F,/4G17/24c17/24] F,,2/9 z/36 F,/4 
[d2/9E,,2/9] z/36 [E,/4d17/36b17/36] E,,2/9 z/36 [d/4E,/4] [E,,2/9d15/32g15/32] z/36 E,/4 [E,,2/9d15/32] z/36 E,/4 [D,,2/9D15/32] z/36 D,/4 [D,,2/9d17/24b17/24] z/36 D,/4 D,,2/9 z/36 [D,/4d17/24a17/24] D,,2/9 z/36 D,/4 
[d2/9G,,2/9] z/36 [F,/4d17/36b17/36] G,,2/9 z/36 [d/4F,/4] [G,,2/9d15/32g15/32] z/36 F,/4 [G,,2/9d15/32] z/36 F,/4 [D2/9G,,2/9] z/36 [G/4F,/4] [G2/9d2/9G,,2/9] z/36 [D/4F,/4] [G2/9G,,2/9] z/36 [F,/4G17/24c17/24] G,,2/9 z/36 F,/4 
[d2/9E,,2/9] z/36 [E,/4d17/36b17/36] E,,2/9 z/36 [d/4E,/4] [E,,2/9d15/32g15/32] z/36 E,/4 [E,,2/9d15/32] z/36 E,/4 [D,,2/9D15/32] z/36 D,/4 [D,,2/9d17/24b17/24] z/36 D,/4 D,,2/9 z/36 [D,/4d17/24a17/24] D,,2/9 z/36 D,/4 
[=A2/9G,2/9] z/36 [D/4B/4B,/4] z/4 [G,/4D17/24G17/24] D,2/9 z5/18 [D15/32c15/32C15/32] z/32 [A2/9G,2/9] z/36 [D/4c/4B,/4] z/4 [A,/4D17/36G17/36] D,2/9 z5/18 [G,2/9a15/32] z5/18 
[b17/24G,19/5D19/5G19/5] z/24 b17/24 z/24 b10/7 z/14 b15/32 z/32 d'15/32 z/32 
[d'17/24E,19/5B,19/5E19/5] z/24 c'17/24 z/24 c'10/7 z4/7 b15/32 z/32 
[c'17/24F,19/5C19/5F19/5] z/24 b17/24 z/24 a19/20 z/20 f19/20 z/20 [z/d19/20] 
[z3/B,19/5D19/5B19/5] d15/32 z/32 c19/20 z11/20 f15/32 z/32 
[f15/32G,,15/32] z/32 [d2/9G,15/32] z/36 [z/4d17/24] G,,15/32 z/32 [d15/32G,15/32] z/32 [c15/32G,,15/32] z/32 [d2/9G,15/32] z/36 [z/4d17/36] G,,15/32 z/32 [f15/32G,15/32] z/32 
[f15/32G,,15/32] z/32 [d2/9G,15/32] z/36 [z/4d17/24] G,,15/32 z/32 [d15/32G,15/32] z/32 [c15/32G,,15/32] z/32 [d2/9G,15/32] z/36 [z/4d17/36] G,,15/32 z/32 [f15/32G,15/32] z/32 
[f15/32G,,15/32] z/32 [d2/9G,15/32] z/36 [z/4d17/24] G,,15/32 z/32 [d15/32G,15/32] z/32 [G,,15/32c17/24] z/32 [z/4G,15/32] [z/4d17/24] G,,2/9 z/36 D,/4 [G,2/9d17/24] z16/9 
[D15/32d15/32] z/32 [d19/20d'19/20G,,,19/20G,,19/20] z/20 [c15/32c'15/32G,,,19/20G,,19/20] z/32 [c15/32c'15/32] z/32 [d17/24f17/24d'17/24E,,19/20E,19/20] z/24 [z/4c17/24f17/24c'17/24] [_B,,15/32E,15/32] z/32 
[c15/32c'15/32B,,15/32] z/32 [c17/24c'17/24E,,17/24] z/24 [B,,/4B17/24b17/24] [B,,15/32E,15/32] z/32 [B,,15/32A19/20d19/20a19/20] z/32 [z/F,,19/20F,19/20] [z/B19/20b19/20] [C,15/32F,15/32] z/32 
[C,15/32A19/20d19/20a19/20] z/32 [z/F,,17/24] [z/4F19/20A19/20f19/20] C,/4 [C,15/32F,15/32] z/32 C,15/32 z/32 [d17/24d'17/24G,,19/20G,19/20] z/24 [z/4c17/24c'17/24] [D,15/32G,15/32] z/32 
[D,15/32c19/20c'19/20] z/32 [z/G,,17/24] [z/4B17/24d17/24b17/24] D,/4 [D,15/32G,15/32] z/32 [B15/32d15/32b15/32D,15/32] z/32 [A17/24c17/24a17/24D,,19/20D,19/20] z/24 [z/4B17/24b17/24] [=A,,15/32D,15/32] z/32 
[A,,15/32f19/20a19/20f'19/20] z/32 [z/D,,17/24] [z/4B15/32b15/32] A,,/4 [B2/9b2/9A,,15/32D,15/32] z5/18 [B15/32b15/32A,,15/32] z/32 [g17/24b17/24g'17/24E,,19/20E,19/20] z/24 [z/4f17/24f'17/24] [B,,15/32E,15/32] z/32 
[B,,15/32d19/20d'19/20] z/32 [z/E,,17/24] [z/4B17/24d17/24b17/24] B,,/4 [B,,15/32E,15/32] z/32 [B15/32b15/32B,,15/32] z/32 [B19/20d19/20b19/20F,,19/20F,19/20] z/20 [A15/32a15/32C,15/32F,15/32] z/32 
[C,15/32G19/20g19/20] z/32 [z/F,,17/24] [z/4A19/20a19/20] C,/4 [C,15/32F,15/32] z/32 [C,15/32B19/8d19/8b19/8] z/32 [G,,19/20G,19/20] z/20 [D,15/32G,15/32] z/32 
D,15/32 z/32 G,,15/32 z/32 G,,15/32 z/32 [D,15/32G,15/32] z/32 [A15/32D,15/32] z/32 [D,,15/32F17/24A17/24] z/32 [z/4D,,15/32] B/4 [B15/32G,,15/32] z/32 
[D,15/32A19/20] z/32 B,15/32 z/32 [A,15/32D17/24F17/24] z/32 [z/F,19/20] [F15/32f15/32] z/32 [d15/32f15/32d'15/32E,,19/20E,19/20] z/32 [c2/9c'2/9] z/36 [z/4c17/24f17/24c'17/24] [B,,15/32E,15/32] z/32 
[c15/32c'15/32B,,15/32] z/32 [c15/32c'15/32E,,17/24] z/32 [B2/9b2/9] z/36 [B,,/4B17/24b17/24] [B,,15/32E,15/32] z/32 [B15/32b15/32B,,15/32] z/32 [A17/24d17/24a17/24F,,19/20F,19/20] z/24 [z/4B17/24b17/24] [C,15/32F,15/32] z/32 
[C,15/32A17/24d17/24a17/24] z/32 [z/4F,,17/24] [F/4f/4] [z/4F17/24f17/24] C,/4 [C,15/32F,15/32] z/32 [F15/32f15/32C,15/32] z/32 [d15/32f15/32d'15/32G,,19/20G,19/20] z/32 [c2/9c'2/9] z/36 [z/4c17/24f17/24c'17/24] [D,15/32G,15/32] z/32 
[c15/32c'15/32D,15/32] z/32 [c17/24c'17/24G,,17/24] z/24 [D,/4B17/24d17/24b17/24] [D,15/32G,15/32] z/32 [B15/32b15/32D,15/32] z/32 [A17/24d17/24a17/24D,,19/20D,19/20] z/24 [z/4B17/24b17/24] [A,,15/32D,15/32] z/32 
[A,,15/32f19/20a19/20f'19/20] z/32 [z/D,,17/24] [z/4B17/24b17/24] A,,/4 [A,,15/32D,15/32] z/32 [B15/32b15/32A,,15/32] z/32 [E,,15/32g17/24b17/24g'17/24] z/32 [z/4B,,15/32E,15/32] [z/4f17/24f'17/24] E,,15/32 z/32 
[d15/32d'15/32B,,15/32E,15/32] z/32 [E,,15/32B19/20b19/20] z/32 [B,,15/32E,15/32] z/32 E,,15/32 z/32 [B15/32b15/32B,,15/32E,15/32] z/32 [B19/20b19/20F,,19/10C,19/10F,19/10] z/20 A15/32 z/32 
[z/G19/20] [z/F,,19/10C,19/10F,19/10] A19/20 z/20 B15/32 z/32 [d2/9D,133/10G,133/10] z/36 D/4 G2/9 z/36 c/4 D2/9 z/36 G/4 
B2/9 z/36 G/4 D2/9 z/36 G/4 B15/32 z/32 c2/9 z/36 D/4 G2/9 z/36 B/4 d2/9 z/36 D/4 G2/9 z/36 c/4 D2/9 z/36 G/4 
B2/9 z/36 G/4 D2/9 z/36 G/4 B15/32 z/32 c2/9 z/36 D/4 G15/32 z/32 B57/10 
