X: 1
T: VocaCircus feat Hatsune Miku & Luka Megumin - Deja Vu (Square Wave)
Z: ABC Generated by Starbound Composer v0.8.7
L: 1/4
M: 4/4
Q: 1/4=132
K: C
z164 
[G/g/G,,/G,/] [_B/_b/_B,,/_B,/] [f/f'/F,/F/] [d/d'/D,/D/] [B3/4b3/4B,,3/4B,3/4] [c3/4c'3/4C,3/4C3/4] [B/b/B,,/B,/] 
[G/g/G,,/G,/] [B/b/B,,/B,/] [f/f'/F,/F/] [d/d'/D,/D/] [B3/4b3/4B,,3/4B,3/4] [c3/4c'3/4C,3/4C3/4] [B/b/B,,/B,/] 
[c/c'/C,/C/] [d/d'/D,/D/] [c/c'/C,/C/] [B/b/B,,/B,/] [f3/4f'3/4F,3/4F3/4] [d3/4d'3/4D,3/4D3/4] [c/c'/C,/C/] 
[B/b/B,,/B,/] [c/c'/C,/C/] [f/f'/F,/F/] [d/d'/D,/D/] [A3/4a3/4A,,3/4A,3/4] [c3/4c'3/4C,3/4C3/4] [B/b/B,,/B,/] 
[G/g/G,,/G,/] [B/b/B,,/B,/] [f/f'/F,/F/] [d/d'/D,/D/] [B3/4b3/4B,,3/4B,3/4] [c3/4c'3/4C,3/4C3/4] [B/b/B,,/B,/] 
[G/g/G,,/G,/] [B/b/B,,/B,/] [f/f'/F,/F/] [d/d'/D,/D/] [B3/4b3/4B,,3/4B,3/4] [c3/4c'3/4C,3/4C3/4] [B/b/B,,/B,/] 
[c/c'/C,/C/] [d/d'/D,/D/] [c/c'/C,/C/] [B/b/B,,/B,/] [f3/4f'3/4F,3/4F3/4] [d3/4d'3/4D,3/4D3/4] [c/c'/C,/C/] 
[B/b/B,,/B,/] [c/c'/C,/C/] [f/f'/F,/F/] [d/d'/D,/D/] [A3/4a3/4A,,3/4A,3/4] [c3/4c'3/4C,3/4C3/4] [B/b/B,,/B,/] 
[G/g/G,,/G,/] [B/b/B,,/B,/] [f/f'/F,/F/] [d/d'/D,/D/] [B3/4b3/4B,,3/4B,3/4] [c3/4c'3/4C,3/4C3/4] [B/b/B,,/B,/] 
[G/g/G,,/G,/] [B/b/B,,/B,/] [f/f'/F,/F/] [d/d'/D,/D/] [B3/4b3/4B,,3/4B,3/4] [c3/4c'3/4C,3/4C3/4] [B/b/B,,/B,/] 
[c/c'/C,/C/] [d/d'/D,/D/] [c/c'/C,/C/] [B/b/B,,/B,/] [f3/4f'3/4F,3/4F3/4] [d3/4d'3/4D,3/4D3/4] [c/c'/C,/C/] 
[B/b/B,,/B,/] [c/c'/C,/C/] [f/f'/F,/F/] [d/d'/D,/D/] [A3/4a3/4A,,3/4A,3/4] [c3/4c'3/4C,3/4C3/4] [B/b/B,,/B,/] 
[G/g/G,,/G,/] [B/b/B,,/B,/] [f/f'/F,/F/] [d/d'/D,/D/] [B3/4b3/4B,,3/4B,3/4] [c3/4c'3/4C,3/4C3/4] [B/b/B,,/B,/] 
[G/g/G,,/G,/] [B/b/B,,/B,/] [f/f'/F,/F/] [d/d'/D,/D/] [B3/4b3/4B,,3/4B,3/4] [c3/4c'3/4C,3/4C3/4] [B/b/B,,/B,/] 
[c/c'/C,/C/] [d/d'/D,/D/] [c/c'/C,/C/] [B/b/B,,/B,/] [f3/4f'3/4F,3/4F3/4] [d3/4d'3/4D,3/4D3/4] [c/c'/C,/C/] 
[B/b/B,,/B,/] [c/c'/C,/C/] [f/f'/F,/F/] [d/d'/D,/D/] [A3/4a3/4A,,3/4A,3/4] [c3/4c'3/4C,3/4C3/4] [B/b/B,,/B,/] 
[G,/32G,,2G,2] z15/32 B,/ F/ D/ B,3/4 C3/4 B,/ 
G,/ B,/ F/ D/ B,3/4 C3/4 B,/ 
C/ D/ C/ B,/ F3/4 D3/4 C/ 
B,/ C/ F/ D/ A,3/4 C3/4 B,/ 
G,/ B,/ F/ D/ B,3/4 C3/4 B,/ 
G,/ B,/ F/ D/ B,3/4 C3/4 B,/ 
C/ D/ C/ B,/ F3/4 D3/4 C/ 
B,/ C/ F/ D/ A,3/4 C3/4 B,/ z128 
[G/g/G,,/G,/] [B/b/B,,/B,/] [f/f'/F,/F/] [d/d'/D,/D/] [B3/4b3/4B,,3/4B,3/4] [c3/4c'3/4C,3/4C3/4] [B/b/B,,/B,/] 
[G/g/G,,/G,/] [B/b/B,,/B,/] [f/f'/F,/F/] [d/d'/D,/D/] [B3/4b3/4B,,3/4B,3/4] [c3/4c'3/4C,3/4C3/4] [B/b/B,,/B,/] 
[c/c'/C,/C/] [d/d'/D,/D/] [c/c'/C,/C/] [B/b/B,,/B,/] [f3/4f'3/4F,3/4F3/4] [d3/4d'3/4D,3/4D3/4] [c/c'/C,/C/] 
[B/b/B,,/B,/] [c/c'/C,/C/] [f/f'/F,/F/] [d/d'/D,/D/] [A3/4a3/4A,,3/4A,3/4] [c3/4c'3/4C,3/4C3/4] [B/b/B,,/B,/] 
[G/g/G,,/G,/] [B/b/B,,/B,/] [f/f'/F,/F/] [d/d'/D,/D/] [B3/4b3/4B,,3/4B,3/4] [c3/4c'3/4C,3/4C3/4] [B/b/B,,/B,/] 
[G/g/G,,/G,/] [B/b/B,,/B,/] [f/f'/F,/F/] [d/d'/D,/D/] [B3/4b3/4B,,3/4B,3/4] [c3/4c'3/4C,3/4C3/4] [B/b/B,,/B,/] 
[c/c'/C,/C/] [d/d'/D,/D/] [c/c'/C,/C/] [B/b/B,,/B,/] [f3/4f'3/4F,3/4F3/4] [d3/4d'3/4D,3/4D3/4] [c/c'/C,/C/] 
[B/b/B,,/B,/] [c/c'/C,/C/] [f/f'/F,/F/] [d/d'/D,/D/] [A3/4a3/4A,,3/4A,3/4] [c3/4c'3/4C,3/4C3/4] [B/b/B,,/B,/] 
[G/g/G,,/G,/] [B/b/B,,/B,/] [f/f'/F,/F/] [d/d'/D,/D/] [B3/4b3/4B,,3/4B,3/4] [c3/4c'3/4C,3/4C3/4] [B/b/B,,/B,/] 
[G/g/G,,/G,/] [B/b/B,,/B,/] [f/f'/F,/F/] [d/d'/D,/D/] [B3/4b3/4B,,3/4B,3/4] [c3/4c'3/4C,3/4C3/4] [B/b/B,,/B,/] 
[c/c'/C,/C/] [d/d'/D,/D/] [c/c'/C,/C/] [B/b/B,,/B,/] [f3/4f'3/4F,3/4F3/4] [d3/4d'3/4D,3/4D3/4] [c/c'/C,/C/] 
[B/b/B,,/B,/] [c/c'/C,/C/] [f/f'/F,/F/] [d/d'/D,/D/] [A3/4a3/4A,,3/4A,3/4] [c3/4c'3/4C,3/4C3/4] [B/b/B,,/B,/] 
[G/g/G,,/G,/] [B/b/B,,/B,/] [f/f'/F,/F/] [d/d'/D,/D/] [B3/4b3/4B,,3/4B,3/4] [c3/4c'3/4C,3/4C3/4] [B/b/B,,/B,/] 
[G/g/G,,/G,/] [B/b/B,,/B,/] [f/f'/F,/F/] [d/d'/D,/D/] [B3/4b3/4B,,3/4B,3/4] [c3/4c'3/4C,3/4C3/4] [B/b/B,,/B,/] 
[c/c'/C,/C/] [d/d'/D,/D/] [c/c'/C,/C/] [B/b/B,,/B,/] [f3/4f'3/4F,3/4F3/4] [d3/4d'3/4D,3/4D3/4] [c/c'/C,/C/] 
[B/b/B,,/B,/] [c/c'/C,/C/] [f/f'/F,/F/] [d/d'/D,/D/] [A3/4a3/4A,,3/4A,3/4] [c3/4c'3/4C,3/4C3/4] [B/b/B,,/B,/] 
[G,/32G,,2G,2] z15/32 B,/ F/ D/ B,3/4 C3/4 B,/ 
G,/ B,/ F/ D/ B,3/4 C3/4 B,/ 
C/ D/ C/ B,/ F3/4 D3/4 C/ 
B,/ C/ F/ D/ A,3/4 C3/4 B,/ 
G,/ B,/ F/ D/ B,3/4 C3/4 B,/ 
G,/ B,/ F/ D/ B,3/4 C3/4 B,/ 
C/ D/ C/ B,/ F3/4 D3/4 C/ 
B,/ C/ F/ D/ A,3/4 C3/4 B,/ z68 
[G/g/G,,/G,/] [B/b/B,,/B,/] [f/f'/F,/F/] [d/d'/D,/D/] [B3/4b3/4B,,3/4B,3/4] [c3/4c'3/4C,3/4C3/4] [B/b/B,,/B,/] 
[G/g/G,,/G,/] [B/b/B,,/B,/] [f/f'/F,/F/] [d/d'/D,/D/] [B3/4b3/4B,,3/4B,3/4] [c3/4c'3/4C,3/4C3/4] [B/b/B,,/B,/] 
[c/c'/C,/C/] [d/d'/D,/D/] [c/c'/C,/C/] [B/b/B,,/B,/] [f3/4f'3/4F,3/4F3/4] [d3/4d'3/4D,3/4D3/4] [c/c'/C,/C/] 
[B/b/B,,/B,/] [c/c'/C,/C/] [f/f'/F,/F/] [d/d'/D,/D/] [A3/4a3/4A,,3/4A,3/4] [c3/4c'3/4C,3/4C3/4] [B/b/B,,/B,/] 
[G/g/G,,/G,/] [B/b/B,,/B,/] [f/f'/F,/F/] [d/d'/D,/D/] [B3/4b3/4B,,3/4B,3/4] [c3/4c'3/4C,3/4C3/4] [B/b/B,,/B,/] 
[G/g/G,,/G,/] [B/b/B,,/B,/] [f/f'/F,/F/] [d/d'/D,/D/] [B3/4b3/4B,,3/4B,3/4] [c3/4c'3/4C,3/4C3/4] [B/b/B,,/B,/] 
[c/c'/C,/C/] [d/d'/D,/D/] [c/c'/C,/C/] [B/b/B,,/B,/] [f3/4f'3/4F,3/4F3/4] [d3/4d'3/4D,3/4D3/4] [c/c'/C,/C/] 
[B/b/B,,/B,/] [c/c'/C,/C/] [f/f'/F,/F/] [d/d'/D,/D/] [A3/4a3/4A,,3/4A,3/4] [c3/4c'3/4C,3/4C3/4] [B/b/B,,/B,/] 
[G/g/G,,/G,/] [B/b/B,,/B,/] [f/f'/F,/F/] [d/d'/D,/D/] [B3/4b3/4B,,3/4B,3/4] [c3/4c'3/4C,3/4C3/4] [B/b/B,,/B,/] 
[G/g/G,,/G,/] [B/b/B,,/B,/] [f/f'/F,/F/] [d/d'/D,/D/] [B3/4b3/4B,,3/4B,3/4] [c3/4c'3/4C,3/4C3/4] [B/b/B,,/B,/] 
[c/c'/C,/C/] [d/d'/D,/D/] [c/c'/C,/C/] [B/b/B,,/B,/] [f3/4f'3/4F,3/4F3/4] [d3/4d'3/4D,3/4D3/4] [c/c'/C,/C/] 
[B/b/B,,/B,/] [c/c'/C,/C/] [f/f'/F,/F/] [d/d'/D,/D/] [A3/4a3/4A,,3/4A,3/4] [c3/4c'3/4C,3/4C3/4] [B/b/B,,/B,/] 
[G/g/G,,/G,/] [B/b/B,,/B,/] [f/f'/F,/F/] [d/d'/D,/D/] [B3/4b3/4B,,3/4B,3/4] [c3/4c'3/4C,3/4C3/4] [B/b/B,,/B,/] 
[G/g/G,,/G,/] [B/b/B,,/B,/] [f/f'/F,/F/] [d/d'/D,/D/] [B3/4b3/4B,,3/4B,3/4] [c3/4c'3/4C,3/4C3/4] [B/b/B,,/B,/] 
[c/c'/C,/C/] [d/d'/D,/D/] [c/c'/C,/C/] [B/b/B,,/B,/] [f3/4f'3/4F,3/4F3/4] [d3/4d'3/4D,3/4D3/4] [c/c'/C,/C/] 
[B/b/B,,/B,/] [c/c'/C,/C/] [f/f'/F,/F/] [d/d'/D,/D/] [A3/4a3/4A,,3/4A,3/4] [c3/4c'3/4C,3/4C3/4] [B/b/B,,/B,/] 
[G/g/G,,/G,/] [B/b/B,,/B,/] [f/f'/F,/F/] [d/d'/D,/D/] [B3/4b3/4B,,3/4B,3/4] [c3/4c'3/4C,3/4C3/4] [B/b/B,,/B,/] 
[G/g/G,,/G,/] [B/b/B,,/B,/] [f/f'/F,/F/] [d/d'/D,/D/] [B3/4b3/4B,,3/4B,3/4] [c3/4c'3/4C,3/4C3/4] [B/b/B,,/B,/] 
[c/c'/C,/C/] [d/d'/D,/D/] [c/c'/C,/C/] [B/b/B,,/B,/] [f3/4f'3/4F,3/4F3/4] [d3/4d'3/4D,3/4D3/4] [c/c'/C,/C/] 
[B/b/B,,/B,/] [c/c'/C,/C/] [f/f'/F,/F/] [d/d'/D,/D/] [A3/4a3/4A,,3/4A,3/4] [c3/4c'3/4C,3/4C3/4] [B/b/B,,/B,/] 
[G/g/G,,/G,/] [B/b/B,,/B,/] [f/f'/F,/F/] [d/d'/D,/D/] [B3/4b3/4B,,3/4B,3/4] [c3/4c'3/4C,3/4C3/4] [B/b/B,,/B,/] 
[G/g/G,,/G,/] [B/b/B,,/B,/] [f/f'/F,/F/] [d/d'/D,/D/] [B3/4b3/4B,,3/4B,3/4] [c3/4c'3/4C,3/4C3/4] [B/b/B,,/B,/] 
[c/c'/C,/C/] [d/d'/D,/D/] [c/c'/C,/C/] [B/b/B,,/B,/] [f3/4f'3/4F,3/4F3/4] [d3/4d'3/4D,3/4D3/4] [c/c'/C,/C/] 
[B/b/B,,/B,/] [c/c'/C,/C/] [f/f'/F,/F/] [d/d'/D,/D/] [A3/4a3/4A,,3/4A,3/4] [z/4c3/4c'3/4C,3/4C3/4] [z/FF,] [A/a/B,,/B,/] 
