X: 1
T: VocaCircus feat Hatsune Miku & Luka Megumin - Deja Vu (Nylon Guitar)
Z: ABC Generated by Starbound Composer v0.8.7
L: 1/4
M: 4/4
Q: 1/4=132
K: C
z52 
[D4G4] 
[_B,4^D4] 
[G,4C4] 
[A,4=D4] 
[D4G4] 
[B,4^D4] 
[G,4C4] 
[A,4=D4] 
[D4G4] 
[B,4^D4] 
[G,4C4] z64 
[F4A4] z/ 
[G/d/g/] z/ [G/d/g/] z/ [G/d/g/] z/ [G/d/g/] z/ 
[D/_B/^d/] z/ [D/B/d/] z/ [D/B/d/] z/ [D/B/d/] z/ 
[B/f/_b/] z/ [B/f/b/] z/ [B/f/b/] z/ [B/f/b/] z/ 
[A/e/a/] z/ [A/e/a/] z/ [A/e/a/] z/ [A/e/a/] z/ 
[G/=d/g/] z/ [G/d/g/] z/ [G/d/g/] z/ [G/d/g/] z/ 
[D/B/^d/] z/ [D/B/d/] z/ [D/B/d/] z/ [D/B/d/] z/ 
[B/f/b/] z/ [B/f/b/] z/ [B/f/b/] z/ [B/f/b/] z/ 
[A/e/a/] z/ [A/e/a/] z/ [A/e/a/] z/ [A/e/a/] z/ 
[G/=d/g/] z/ [G/d/g/] z/ [G/d/g/] z/ [G/d/g/] z/ 
[D/B/^d/] z/ [D/B/d/] z/ [D/B/d/] z/ [D/B/d/] z/ 
[B/f/b/] z/ [B/f/b/] z/ [B/f/b/] z/ [B/f/b/] z/ 
[A/e/a/] z/ [A/e/a/] z/ [A/e/a/] z/ [A/e/a/] z/ 
[G/=d/g/] z/ [G/d/g/] z/ [G/d/g/] z/ [G/d/g/] z/ 
[D/B/^d/] z/ [D/B/d/] z/ [D/B/d/] z/ [D/B/d/] z/ 
[B/f/b/] z/ [B/f/b/] z/ [B/f/b/] z/ [B/f/b/] z/ 
[A/e/a/] z/ [A/e/a/] z/ [A/e/a/] z/ [A/e/a/] z64 
[G/=d/] z/ [G/d/] z/ [G/d/] z/ [G/d/] z/ 
[D/B/] z/ [D/B/] z/ [D/B/] z/ [D/B/] z/ 
[C/G/] z/ [C/G/] z/ [C/G/] z/ [C/G/] z/ 
[=D/A/] z/ [D/A/] z/ [D/A/] z/ [D/A/] z/ 
[G/d/] z/ [G/d/] z/ [G/d/] z/ [G/d/] z/ 
[^D/B/] z/ [D/B/] z/ [D/B/] z/ [D/B/] z/ 
[C/G/] z/ [C/G/] z/ [C/G/] z/ [C/G/] z/ 
[=D/A/] z/ [D/A/] z/ [D/A/] z/ [D/A/] z65 
[G/d/g/] z/ [G/d/g/] z/ [G/d/g/] z/ [G/d/g/] z/ 
[^D/B/^d/] z/ [D/B/d/] z/ [D/B/d/] z/ [D/B/d/] z/ 
[B/f/b/] z/ [B/f/b/] z/ [B/f/b/] z/ [B/f/b/] z/ 
[A/e/a/] z/ [A/e/a/] z/ [A/e/a/] z/ [A/e/a/] z/ 
[G/=d/g/] z/ [G/d/g/] z/ [G/d/g/] z/ [G/d/g/] z/ 
[D/B/^d/] z/ [D/B/d/] z/ [D/B/d/] z/ [D/B/d/] z/ 
[B/f/b/] z/ [B/f/b/] z/ [B/f/b/] z/ [B/f/b/] z/ 
[A/e/a/] z/ [A/e/a/] z/ [A/e/a/] z/ [A/e/a/] z/ 
[G/=d/g/] z/ [G/d/g/] z/ [G/d/g/] z/ [G/d/g/] z/ 
[D/B/^d/] z/ [D/B/d/] z/ [D/B/d/] z/ [D/B/d/] z/ 
[B/f/b/] z/ [B/f/b/] z/ [B/f/b/] z/ [B/f/b/] z/ 
[A/e/a/] z/ [A/e/a/] z/ [A/e/a/] z/ [A/e/a/] z/ 
[G/=d/g/] z/ [G/d/g/] z/ [G/d/g/] z/ [G/d/g/] z/ 
[D/B/^d/] z/ [D/B/d/] z/ [D/B/d/] z/ [D/B/d/] z/ 
[B/f/b/] z/ [B/f/b/] z/ [B/f/b/] z/ [B/f/b/] z/ 
[A/e/a/] z/ [A/e/a/] z/ [A/e/a/] z/ [A/e/a/] z64 
G/ B/ f/ =d/ B3/4 c3/4 B/ 
G/ B/ f/ d/ B3/4 c3/4 B/ 
c/ d/ c/ B/ f3/4 d3/4 c/ 
B/ c/ f/ d/ A3/4 c3/4 B/ 
G/ B/ f/ d/ B3/4 c3/4 B/ 
G/ B/ f/ d/ B3/4 c3/4 B/ 
c/ d/ c/ B/ f3/4 d3/4 c/ 
B/ c/ f/ d/ c2 z9/ 
[G/d/g/] z/ [G/d/g/] z/ [G/d/g/] z/ [G/d/g/] z/ 
[D/B/^d/] z/ [D/B/d/] z/ [D/B/d/] z/ [D/B/d/] z/ 
[B/f/b/] z/ [B/f/b/] z/ [B/f/b/] z/ [B/f/b/] z/ 
[A/e/a/] z/ [A/e/a/] z/ [A/e/a/] z/ [A/e/a/] z/ 
[G/=d/g/] z/ [G/d/g/] z/ [G/d/g/] z/ [G/d/g/] z/ 
[D/B/^d/] z/ [D/B/d/] z/ [D/B/d/] z/ [D/B/d/] z/ 
[B/f/b/] z/ [B/f/b/] z/ [B/f/b/] z/ [B/f/b/] z/ 
[A/e/a/] z/ [A/e/a/] z/ [A/e/a/] z/ [A/e/a/] z/ 
[G/=d/g/] z/ [G/d/g/] z/ [G/d/g/] z/ [G/d/g/] z/ 
[D/B/^d/] z/ [D/B/d/] z/ [D/B/d/] z/ [D/B/d/] z/ 
[B/f/b/] z/ [B/f/b/] z/ [B/f/b/] z/ [B/f/b/] z/ 
[A/e/a/] z/ [A/e/a/] z/ [A/e/a/] z/ [A/e/a/] z/ 
[G/=d/g/] z/ [G/d/g/] z/ [G/d/g/] z/ [G/d/g/] z/ 
[D/B/^d/] z/ [D/B/d/] z/ [D/B/d/] z/ [D/B/d/] z/ 
[B/f/b/] z/ [B/f/b/] z/ [B/f/b/] z/ [B/f/b/] z/ 
[A/e/a/] z/ [A/e/a/] z/ [A/e/a/] z/ [A/e/a/] z/ 
[G/=d/g/] z/ [G/d/g/] z/ [G/d/g/] z/ [G/d/g/] z/ 
[D/B/^d/] z/ [D/B/d/] z/ [D/B/d/] z/ [D/B/d/] z/ 
[B/f/b/] z/ [B/f/b/] z/ [B/f/b/] z/ [B/f/b/] z/ 
[A/e/a/] z/ [A/e/a/] z/ [A/e/a/] z/ [A/e/a/] z/ 
[G/=d/g/] z/ [G/d/g/] z/ [G/d/g/] z/ [G/d/g/] z/ 
[D/B/^d/] z/ [D/B/d/] z/ [D/B/d/] z/ [D/B/d/] z/ 
[B/f/b/] z/ [B/f/b/] z/ [B/f/b/] z/ [B/f/b/] z/ 
[A/e/a/] z/ [A/e/a/] z/ [A/e/a/] z/ [A/e/a/] 
