X: 1
T: Wiz Khalifa & Charlie Puth - See You Again (Flute) 
Z: ABC Generated by Starbound Composer v0.8.7
L: 1/4
M: 4/4
Q: 1/4=79
K: Bb
z29/ 
_B15/32 z/32 d15/32 z/32 f15/32 z/32 g10/7 z/14 f10/7 z4/7 
B15/32 z/32 c15/32 z/32 c15/32 z/32 B15/32 z/32 d19/20 z11/20 d15/32 z/32 
f15/32 z/32 g15/32 z/32 =a15/32 z/32 g15/32 z/32 f15/32 z/32 d15/32 z/32 c15/32 z/32 c15/32 z/32 
B15/32 z/32 c15/32 z/32 c15/32 z/32 d15/32 z/32 B10/7 z9/28 c/4 
d2/9 z/36 f/4 e15/32 z/32 f2/9 z/36 e17/36 z/36 d10/7 z23/28 
G15/32 z/32 =A15/32 z/32 A15/32 z/32 G15/32 z/32 B10/7 z/14 d15/32 z/32 
f15/32 z/32 e15/32 z/32 e15/32 z/32 f15/32 z/32 f15/32 z/32 f15/32 z/32 e15/32 z/32 e15/32 z/32 
e15/32 z/32 c'15/32 z/32 c'15/32 z/32 _b15/32 z/32 b10/7 z/14 g15/32 z/32 
b15/32 z/32 c'15/32 z/32 c'15/32 z/32 b15/32 z/32 b10/7 z15/14 
G10/7 z/14 B19/10 z/10 F15/32 z/32 
E10/7 z/14 A19/8 z/8 
G10/7 z/14 B19/10 z/10 F15/32 z/32 
E10/7 z/14 B19/8 z129/8 
B10/7 z/14 d19/10 z3/5 
B10/7 z/14 B19/8 z/8 
B10/7 z/14 d19/10 z3/5 
B10/7 z/14 B17/24 z409/24 
c/4 d2/9 z/36 f/4 g15/32 z/32 a2/9 z/36 g17/36 z/36 f10/7 z23/28 
B15/32 z/32 c15/32 z/32 c15/32 z/32 B15/32 z/32 d10/7 z/14 d15/32 z/32 
f15/32 z/32 g15/32 z/32 b15/32 z/32 c'15/32 z/32 d'15/32 z/32 c'15/32 z/32 b15/32 z/32 g15/32 z/32 
b15/32 z/32 c'15/32 z/32 c'15/32 z/32 b15/32 z/32 b10/7 z/14 g15/32 z/32 
b15/32 z/32 c'15/32 z/32 c'15/32 z/32 b15/32 z/32 b19/20 z11/20 b15/32 z/32 
a15/32 z/32 g10/7 z/14 f15/32 z33/32 b15/32 z/32 
a15/32 z/32 g17/24 z/24 a/4 g15/32 z/32 f15/32 z/32 d19/20 z/20 f2/9 z/36 g/4 
b2/9 z/36 c'/4 e2/9 z/36 f17/36 z/36 e/4 f17/24 z/24 e/4 f17/24 z/24 e/4 f2/9 z/36 a/4 
f2/9 z/36 e/4 B17/24 z/24 G/4 B15/32 z/32 c2/9 z/36 B10/7 z71/14 
G/4 G2/9 z/36 G/4 G2/9 z/36 G/4 G2/9 z/36 B17/36 z/36 G/4 G2/9 z/36 G/4 G2/9 z/36 G/4 G2/9 z/36 B/4 B2/9 z/36 
G/4 G2/9 z/36 G/4 G2/9 z/36 G/4 G2/9 z/36 B/4 G2/9 z/36 G/4 G2/9 z/36 G/4 G2/9 z/36 G/4 G2/9 z/36 B/4 G2/9 z/36 
G/4 G2/9 z/36 G/4 B2/9 z/36 G/4 G2/9 z/36 B/4 G2/9 z/36 G/4 G2/9 z/36 G/4 G19/20 z33/10 
g/4 g2/9 z/36 b/4 g2/9 z/36 g/4 g15/32 z/32 g2/9 z/36 g/4 g2/9 z/36 b/4 g2/9 z/36 g/4 g2/9 z/36 g/4 g15/32 z/32 
g2/9 z/36 b/4 g2/9 z/36 g/4 g2/9 z/36 g/4 g2/9 z/36 g/4 g2/9 z/36 b17/36 z/36 g/4 g2/9 z/36 g/4 g2/9 z/36 g/4 
g2/9 z/36 b17/36 z/36 g/4 g2/9 z/36 g/4 g2/9 z/36 g/4 g2/9 z/36 b/4 g2/9 z/36 g/4 g2/9 z/36 g/4 g19/20 z/20 
G10/7 z/14 B19/10 z3/5 
E10/7 z/14 B19/8 z/8 
G10/7 z/14 B19/10 z3/5 
E10/7 z/14 B17/24 z247/24 
G15/32 z/32 G15/32 z/32 G2/9 z/36 G17/24 z/24 F15/32 z/32 F15/32 z/32 D2/9 z/36 F17/24 z/24 
G19/20 z341/20 
B15/32 z/32 d15/32 z/32 f15/32 z/32 g10/7 z/14 f10/7 z4/7 
B15/32 z/32 c15/32 z/32 c15/32 z/32 B15/32 z/32 d19/20 z44/5 
c/4 d2/9 z/36 f/4 g15/32 z/32 a2/9 z/36 g17/36 z/36 f10/7 z23/28 
B15/32 z/32 c15/32 z/32 c15/32 z/32 B15/32 z/32 d10/7 z/14 d15/32 z/32 
f15/32 z/32 B15/32 z/32 d15/32 z/32 e15/32 z/32 f15/32 z/32 e15/32 z/32 d15/32 z/32 B15/32 z/32 
d15/32 z/32 e15/32 z/32 e15/32 z/32 d15/32 z/32 d10/7 z/14 G15/32 z/32 
B15/32 z/32 c15/32 z/32 c15/32 z/32 B15/32 z/32 d10/7 z/14 b15/32 z/32 
a15/32 z/32 g10/7 z/14 f10/7 z/14 b15/32 z/32 
a15/32 z/32 g17/24 z/24 a/4 g15/32 z/32 f15/32 z/32 d19/20 z/20 f2/9 z/36 g/4 
b2/9 z/36 c'/4 c2/9 z/36 d17/36 z/36 c/4 d17/24 z/24 c/4 d17/24 z/24 c/4 d2/9 z/36 f/4 
d2/9 z/36 B/4 B17/24 z/24 G/4 B15/32 z/32 c2/9 z/36 B19/16 z145/16 
c2/9 z/36 d17/36 z/36 c/4 d17/24 z/24 c/4 d15/32 z/32 c15/32 z/32 G15/32 z/32 B15/32 z/32 
c15/32 z/32 c15/32 z/32 B15/32 z/32 B10/7 
