{
	"margin" : 0,
	"name" : "felin-objects",
	"properties" : {},
	"spacing" : 0,
	"tilecount" : 108,
	"tileheight" : 64,
	"tileproperties" : {
			"0" : {
					"//description" : "A felin banner made from cheap but sturdy fabric.",
					"//name" : "felinbanner",
					"//shortdescription" : "Large Felin Banner",
					"imagePositionX" : "-8",
					"imagePositionY" : "-24",
					"object" : "felinbanner",
					"tilesetDirection" : "right"
			},
			"1" : {
					"//description" : "A slightly faded depiction of three felin.",
					"//name" : "felinbathmural",
					"//shortdescription" : "Felin Bathhouse Mural",
					"imagePositionX" : "-52",
					"imagePositionY" : "0",
					"object" : "felinbathmural",
					"tilesetDirection" : "right"
			},
			"2" : {
					"//description" : "It's a beanbag chair!",
					"//name" : "felinbeanbagchair",
					"//shortdescription" : "Beanbag Chair",
					"imagePositionX" : "-12",
					"imagePositionY" : "0",
					"object" : "felinbeanbagchair",
					"tilesetDirection" : "left"
			},
			"3" : {
					"//description" : "A super-comfy foam bed.",
					"//name" : "felinbeanbagchair",
					"//shortdescription" : "Felin Bed",
					"imagePositionX" : "-24",
					"imagePositionY" : "0",
					"object" : "felinbeanbagchair",
					"tilesetDirection" : "right"
			},
			"4" : {
					"//description" : "A simple but comfortable bench, minor claw damage.",
					"//name" : "felinbench",
					"//shortdescription" : "Felin Bench",
					"imagePositionX" : "-16",
					"imagePositionY" : "0",
					"object" : "felinbench",
					"tilesetDirection" : "right"
			},
			"5" : {
					"//description" : "A simple but comfortable bench.",
					"//name" : "felinbenchintact",
					"//shortdescription" : "Felin Bench",
					"imagePositionX" : "-16",
					"imagePositionY" : "0",
					"object" : "felinbenchintact",
					"tilesetDirection" : "right"
			},
			"6" : {
					"//description" : "Someone's old bike, worthless junk.",
					"//name" : "felinbike",
					"//shortdescription" : "Old Bicycle",
					"imagePositionX" : "-8",
					"imagePositionY" : "0",
					"object" : "felinbike",
					"tilesetDirection" : "left"
			},
			"7" : {
					"//description" : "Bath.",
					"//name" : "felinbathsign",
					"//shortdescription" : "Felin Bathhouse Sign",
					"imagePositionX" : "-8",
					"imagePositionY" : "-8",
					"object" : "felinbathsign",
					"tilesetDirection" : "left"
			},
			"8" : {
					"//description" : "Clothing.",
					"//name" : "felinclothingsign",
					"//shortdescription" : "Felin Clothing Sign",
					"imagePositionX" : "-8",
					"imagePositionY" : "-8",
					"object" : "felinclothingsign",
					"tilesetDirection" : "left"
			},
			"9" : {
					"//description" : "Food.",
					"//name" : "felinfoodsign",
					"//shortdescription" : "Felin Food Sign",
					"imagePositionX" : "-8",
					"imagePositionY" : "-8",
					"object" : "felinfoodsign",
					"tilesetDirection" : "left"
			},
			"10" : {
					"//description" : "Love.",
					"//name" : "felinlovesign",
					"//shortdescription" : "Felin Love Sign",
					"imagePositionX" : "-8",
					"imagePositionY" : "-8",
					"object" : "felinlovesign",
					"tilesetDirection" : "left"
			},
			"11" : {
					"//description" : "School.",
					"//name" : "felinschoolsign",
					"//shortdescription" : "Felin School Sign",
					"imagePositionX" : "-8",
					"imagePositionY" : "-8",
					"object" : "felinschoolsign",
					"tilesetDirection" : "left"
			},
			"12" : {
					"//description" : "Weapons.",
					"//name" : "felinweaponsign",
					"//shortdescription" : "Felin Weapon Sign",
					"imagePositionX" : "-8",
					"imagePositionY" : "-8",
					"object" : "felinweaponsign",
					"tilesetDirection" : "left"
			},
			"13" : {
					"//description" : "A sturdy wooden cabinet, felin design",
					"//name" : "felincabinet1",
					"//shortdescription" : "Small Felin Cabinet",
					"imagePositionX" : "-16",
					"imagePositionY" : "0",
					"object" : "felincabinet1",
					"tilesetDirection" : "right"
			},
			"14" : {
					"//description" : "A sturdy wooden cabinet, felin design",
					"//name" : "felincabinet2",
					"//shortdescription" : "Tall Felin Cabinet",
					"imagePositionX" : "-16",
					"imagePositionY" : "0",
					"object" : "felincabinet2",
					"tilesetDirection" : "right"
			},
			"15" : {
					"//description" : "A sturdy wooden cabinet, felin design",
					"//name" : "felincabinet3",
					"//shortdescription" : "Long Felin Cabinet",
					"imagePositionX" : "-16",
					"imagePositionY" : "0",
					"object" : "felincabinet3",
					"tilesetDirection" : "right"
			},
			"16" : {
					"//description" : "A sturdy suspended cabinet, felin design",
					"//name" : "felinceilingcabinet1",
					"//shortdescription" : "Suspended Felin Cabinet",
					"imagePositionX" : "-16",
					"imagePositionY" : "-8",
					"object" : "felinceilingcabinet1",
					"tilesetDirection" : "right"
			},
			"17" : {
					"//description" : "Framed calligraphy for 'cat'.",
					"//name" : "felincalligraphy1",
					"//shortdescription" : "Felin 'Cat' Art",
					"imagePositionX" : "-8",
					"imagePositionY" : "-10",
					"object" : "felincalligraphy1",
					"tilesetDirection" : "right"
			},
			"18" : {
					"//description" : "Framed picture of a catspaw.",
					"//name" : "felincalligraphy2",
					"//shortdescription" : "Felin Catspaw Art",
					"imagePositionX" : "-8",
					"imagePositionY" : "-10",
					"object" : "felincalligraphy2",
					"tilesetDirection" : "right"
			},
			"19" : {
					"//description" : "Engage!",
					"//name" : "felincaptainschair",
					"//shortdescription" : "Captain's Chair",
					"imagePositionX" : "-12",
					"imagePositionY" : "0",
					"object" : "felincaptainschair",
					"tilesetDirection" : "left"
			},
			"20" : {
					"//description" : "A schoolroom's board, filled with felin knowledge.",
					"//name" : "felinchalkboard",
					"//shortdescription" : "Felin chalkboard",
					"imagePositionX" : "-32",
					"imagePositionY" : "-16",
					"object" : "felinchalkboard",
					"tilesetDirection" : "left"
			},
			"21" : {
					"//description" : "This computer is busy doing nothing at all.",
					"//name" : "felincomputer",
					"//shortdescription" : "Idling Computer",
					"imagePositionX" : "-8",
					"imagePositionY" : "0",
					"object" : "felincomputer",
					"tilesetDirection" : "right"
			},
			"22" : {
					"//description" : "-todo-",
					"//name" : "felinconsole",
					"//shortdescription" : "Small Console",
					"imagePositionX" : "-8",
					"imagePositionY" : "0",
					"object" : "felinconsole",
					"tilesetDirection" : "right"
			},
			"23" : {
					"//description" : "It's a sitting cushion of oddly familiar shape.",
					"//name" : "felincushion",
					"//shortdescription" : "Sitting Pillow",
					"imagePositionX" : "-8",
					"imagePositionY" : "0",
					"object" : "felincushion",
					"tilesetDirection" : "left"
			},
			"24" : {
					"//description" : "A decorated wooden door.",
					"//name" : "felindoor",
					"//shortdescription" : "Paw Print Door",
					"imagePositionX" : "-16",
					"imagePositionY" : "0",
					"object" : "felindoor",
					"tilesetDirection" : "left"
			},
			"25" : {
					"//description" : "Careful with that match, Eugene.",
					"//name" : "felinfireplace",
					"//shortdescription" : "Wooden Fireplace",
					"imagePositionX" : "-16",
					"imagePositionY" : "0",
					"object" : "felinfireplace",
					"tilesetDirection" : "right"
			},
			"26" : {
					"//description" : "Don't breathe this!",
					"//name" : "felinsmokestack",
					"//shortdescription" : "Smokestack",
					"imagePositionX" : "-8",
					"imagePositionY" : "0",
					"object" : "felinsmokestack",
					"tilesetDirection" : "right"
			},
			"27" : {
					"//description" : "The felin flag. Bookmarks a teleportation location.",
					"//name" : "flagfelin",
					"//shortdescription" : "Felin Flag",
					"imagePositionX" : "-17",
					"imagePositionY" : "0",
					"object" : "flagfelin",
					"tilesetDirection" : "right"
			},
			"28" : {
					"//description" : "-todo-",
					"//name" : "felingenerator",
					"//shortdescription" : "Felin Shield Generator",
					"imagePositionX" : "-40",
					"imagePositionY" : "0",
					"object" : "felingenerator",
					"tilesetDirection" : "right"
			},
			"29" : {
					"//description" : "Chelise is cool.",
					"//name" : "felingraffiti1",
					"//shortdescription" : "Felin Graffiti",
					"imagePositionX" : "-12",
					"imagePositionY" : "-8",
					"object" : "felingraffiti1",
					"tilesetDirection" : "right"
			},
			"30" : {
					"//description" : "Behold the holy pogo stick.",
					"//name" : "felingraffiti2",
					"//shortdescription" : "Felin Graffiti",
					"imagePositionX" : "-16",
					"imagePositionY" : "-16",
					"object" : "felingraffiti2",
					"tilesetDirection" : "right"
			},
			"31" : {
					"//description" : "Lirith was here. Goodbye!",
					"//name" : "felingraffiti3",
					"//shortdescription" : "Felin Graffiti",
					"imagePositionX" : "-20",
					"imagePositionY" : "-8",
					"object" : "felingraffiti3",
					"tilesetDirection" : "right"
			},
			"32" : {
					"//description" : "Cruel Lialair, why do you not love me?",
					"//name" : "felingraffiti4",
					"//shortdescription" : "Felin Graffiti",
					"imagePositionX" : "-16",
					"imagePositionY" : "-12",
					"object" : "felingraffiti4",
					"tilesetDirection" : "right"
			},
			"33" : {
					"//description" : "Femine is sweet and charming.",
					"//name" : "felingraffiti5",
					"//shortdescription" : "Felin Graffiti",
					"imagePositionX" : "-16",
					"imagePositionY" : "-12",
					"object" : "felingraffiti5",
					"tilesetDirection" : "right"
			},
			"34" : {
					"//description" : "Once you are dead, you are nothing.",
					"//name" : "felingraffiti6",
					"//shortdescription" : "Felin Graffiti",
					"imagePositionX" : "-16",
					"imagePositionY" : "-12",
					"object" : "felingraffiti6",
					"tilesetDirection" : "right"
			},
			"35" : {
					"//description" : "A messily drawn felin catspaw symbol.",
					"//name" : "felinlogograffiti",
					"//shortdescription" : "Felin Catspaw Graffiti",
					"imagePositionX" : "-8",
					"imagePositionY" : "-8",
					"object" : "felinlogograffiti",
					"tilesetDirection" : "right"
			},
			"36" : {
					"//description" : "A messily drawn felin peace symbol.",
					"//name" : "felinpeacegraffiti",
					"//shortdescription" : "Peace Graffiti",
					"imagePositionX" : "-12",
					"imagePositionY" : "-12",
					"object" : "felinpeacegraffiti",
					"tilesetDirection" : "right"
			},
			"37" : {
					"//description" : "A hologram displaying a felin feeling frisky.",
					"//name" : "felinhologram",
					"//shortdescription" : "Frisky Felin Hologram",
					"imagePositionX" : "-12",
					"imagePositionY" : "0",
					"object" : "felinhologram",
					"tilesetDirection" : "left"
			},
			"38" : {
					"//description" : "A simple fluorescent gas-based light source.",
					"//name" : "felinlight",
					"//shortdescription" : "Felin Gas Lamp",
					"imagePositionX" : "0",
					"imagePositionY" : "0",
					"object" : "felinlight",
					"tilesetDirection" : "right"
			},
			"39" : {
					"//description" : "It's a loudspeaker that plays shopping music.",
					"//name" : "felinmarketspeaker",
					"//shortdescription" : "Market Music Speaker",
					"imagePositionX" : "-8",
					"imagePositionY" : "-8",
					"object" : "felinmarketspeaker",
					"tilesetDirection" : "right"
			},
			"40" : {
					"//description" : "I wonder what kind of food they sell on this planet.",
					"//name" : "felinmarketstall1",
					"//shortdescription" : "Felin Food Stall",
					"imagePositionX" : "-24",
					"imagePositionY" : "0",
					"object" : "felinmarketstall1",
					"tilesetDirection" : "right"
			},
			"41" : {
					"//description" : "Beautiful fabrics and clothing adorn this cute little stall.",
					"//name" : "felinmarketstall2",
					"//shortdescription" : "Felin Clothes Stall",
					"imagePositionX" : "-24",
					"imagePositionY" : "0",
					"object" : "felinmarketstall2",
					"tilesetDirection" : "right"
			},
			"42" : {
					"//description" : "An assortment of blingy things.",
					"//name" : "felinmarketstall3",
					"//shortdescription" : "Felin Weapon Stall",
					"imagePositionX" : "-24",
					"imagePositionY" : "0",
					"object" : "felinmarketstall3",
					"tilesetDirection" : "right"
			},
			"43" : {
					"//description" : "A small empty stall. It looks sad.",
					"//name" : "felinmarketstall4",
					"//shortdescription" : "Small Felin Empty Stall",
					"imagePositionX" : "-16",
					"imagePositionY" : "0",
					"object" : "felinmarketstall4",
					"tilesetDirection" : "right"
			},
			"44" : {
					"//description" : "A large empty stall. I bet business is slow.",
					"//name" : "felinmarketstall5",
					"//shortdescription" : "Large Empty Felin Stall",
					"imagePositionX" : "-24",
					"imagePositionY" : "0",
					"object" : "felinmarketstall5",
					"tilesetDirection" : "right"
			},
			"45" : {
					"//description" : "A small mirror.",
					"//name" : "felinmirror1",
					"//shortdescription" : "Small Mirror",
					"imagePositionX" : "-8",
					"imagePositionY" : "0",
					"object" : "felinmirror1",
					"tilesetDirection" : "right"
			},
			"46" : {
					"//description" : "A small mirror.",
					"//name" : "felinmirror1",
					"//shortdescription" : "Small Mirror",
					"imagePositionX" : "-8",
					"imagePositionY" : "-8",
					"object" : "felinmirror1",
					"tilesetDirection" : "right"
			},
			"47" : {
					"//description" : "A small mirror in an elliptical frame",
					"//name" : "felinmirror2",
					"//shortdescription" : "Circular Mirror",
					"imagePositionX" : "-8",
					"imagePositionY" : "0",
					"object" : "felinmirror2",
					"tilesetDirection" : "right"
			},
			"48" : {
					"//description" : "A small mirror in an elliptical frame",
					"//name" : "felinmirror2",
					"//shortdescription" : "Circular Mirror",
					"imagePositionX" : "-8",
					"imagePositionY" : "-8",
					"object" : "felinmirror2",
					"tilesetDirection" : "right"
			},
			"49" : {
					"//description" : "A small mirror in a heart-shaped frame.",
					"//name" : "felinmirror3",
					"//shortdescription" : "Heart-shaped Mirror",
					"imagePositionX" : "-8",
					"imagePositionY" : "0",
					"object" : "felinmirror3",
					"tilesetDirection" : "right"
			},
			"50" : {
					"//description" : "A small mirror in a heart-shaped frame.",
					"//name" : "felinmirror3",
					"//shortdescription" : "Heart-shaped Mirror",
					"imagePositionX" : "-8",
					"imagePositionY" : "-8",
					"object" : "felinmirror3",
					"tilesetDirection" : "right"
			},
			"51" : {
					"//description" : "A nice pinup poster of a felin model.",
					"//name" : "felinposter1",
					"//shortdescription" : "Felin Model Poster",
					"imagePositionX" : "-20",
					"imagePositionY" : "-16",
					"object" : "felinposter1",
					"tilesetDirection" : "right"
			},
			"52" : {
					"//description" : "A nice pinup poster of a felin model.",
					"//name" : "felinposter2",
					"//shortdescription" : "Felin Model Poster",
					"imagePositionX" : "-20",
					"imagePositionY" : "-16",
					"object" : "felinposter2",
					"tilesetDirection" : "right"
			},
			"53" : {
					"//description" : "A nice pinup poster of a felin hero.",
					"//name" : "felinposter3",
					"//shortdescription" : "Felin Hero Poster",
					"imagePositionX" : "-20",
					"imagePositionY" : "-16",
					"object" : "felinposter3",
					"tilesetDirection" : "right"
			},
			"54" : {
					"//description" : "Make love, not war.",
					"//name" : "felinposter4",
					"//shortdescription" : "Calming Felin Poster",
					"imagePositionX" : "-20",
					"imagePositionY" : "-16",
					"object" : "felinposter4",
					"tilesetDirection" : "right"
			},
			"55" : {
					"//description" : "A nice pinup poster of a felin model.",
					"//name" : "felinposter5",
					"//shortdescription" : "Felin Model Poster",
					"imagePositionX" : "-12",
					"imagePositionY" : "-16",
					"object" : "felinposter5",
					"tilesetDirection" : "right"
			},
			"56" : {
					"//description" : "A nice pinup poster of a felin model.",
					"//name" : "felinposter6",
					"//shortdescription" : "Felin Model Poster",
					"imagePositionX" : "-12",
					"imagePositionY" : "-16",
					"object" : "felinposter6",
					"tilesetDirection" : "right"
			},
			"57" : {
					"//description" : "Join the Wildcats!",
					"//name" : "felinposter7",
					"//shortdescription" : "Felin Recruitment Poster",
					"imagePositionX" : "-12",
					"imagePositionY" : "-16",
					"object" : "felinposter7",
					"tilesetDirection" : "right"
			},
			"58" : {
					"//description" : "A nice pinup poster of a felin hero.",
					"//name" : "felinposter8",
					"//shortdescription" : "Felin Hero Poster",
					"imagePositionX" : "-8",
					"imagePositionY" : "-12",
					"object" : "felinposter8",
					"tilesetDirection" : "right"
			},
			"59" : {
					"//description" : "A nice pinup poster of a felin model.",
					"//name" : "felinposter9",
					"//shortdescription" : "Felin Model Poster",
					"imagePositionX" : "-8",
					"imagePositionY" : "-12",
					"object" : "felinposter9",
					"tilesetDirection" : "right"
			},
			"60" : {
					"//description" : "A nice pinup poster of a felin hero.",
					"//name" : "felinposter10",
					"//shortdescription" : "Felin Hero Poster",
					"imagePositionX" : "-8",
					"imagePositionY" : "-12",
					"object" : "felinposter10",
					"tilesetDirection" : "right"
			},
			"61" : {
					"//description" : "A nice pinup poster of a felin scholar.",
					"//name" : "felinposter11",
					"//shortdescription" : "Felin Scholar Poster",
					"imagePositionX" : "-8",
					"imagePositionY" : "-12",
					"object" : "felinposter11",
					"tilesetDirection" : "right"
			},
			"62" : {
					"//description" : "Hang in there, baby.",
					"//name" : "felinposter12",
					"//shortdescription" : "Felin Motivational Poster",
					"imagePositionX" : "-12",
					"imagePositionY" : "-16",
					"object" : "felinposter12",
					"tilesetDirection" : "right"
			},
			"63" : {
					"//description" : "Ripped from a magazine.",
					"//name" : "felinposter13",
					"//shortdescription" : "Felin Centerfold",
					"imagePositionX" : "-12",
					"imagePositionY" : "-16",
					"object" : "felinposter13",
					"tilesetDirection" : "right"
			},
			"64" : {
					"//description" : "A succulent piece of roast animal.",
					"//name" : "felinroast1",
					"//shortdescription" : "Roast Critter",
					"imagePositionX" : "-12",
					"imagePositionY" : "-32",
					"object" : "felinroast1",
					"tilesetDirection" : "right"
			},
			"65" : {
					"//description" : "A succulent piece of roast animal.",
					"//name" : "felinroast2",
					"//shortdescription" : "Roast Critter",
					"imagePositionX" : "-8",
					"imagePositionY" : "-24",
					"object" : "felinroast2",
					"tilesetDirection" : "right"
			},
			"66" : {
					"//description" : "Store some stuff, why don't you?",
					"//name" : "felinshiplocker",
					"//shortdescription" : "Shiplocker",
					"imagePositionX" : "-16",
					"imagePositionY" : "-8",
					"object" : "felinshiplocker",
					"tilesetDirection" : "right"
			},
			"67" : {
					"//description" : "That's one way of putting it.",
					"//name" : "felinsign1",
					"//shortdescription" : "Felin Wisdom Sign",
					"imagePositionX" : "-24",
					"imagePositionY" : "0",
					"object" : "felinsign1",
					"tilesetDirection" : "right"
			},
			"68" : {
					"//description" : "Oh my.",
					"//name" : "felinsign2",
					"//shortdescription" : "Felin Prices Sign",
					"imagePositionX" : "-24",
					"imagePositionY" : "0",
					"object" : "felinsign2",
					"tilesetDirection" : "right"
			},
			"69" : {
					"//description" : "It's a statue of Chelsie, a famed felin warrior.",
					"//name" : "felinstatue1",
					"//shortdescription" : "Large Hunter Statue",
					"imagePositionX" : "-24",
					"imagePositionY" : "0",
					"object" : "felinstatuel1",
					"tilesetDirection" : "right"
			},
			"70" : {
					"//description" : "It's a statue of Chelsie, a famed felin warrior.",
					"//name" : "felinstatue1",
					"//shortdescription" : "Hunter Statue",
					"imagePositionX" : "-16",
					"imagePositionY" : "0",
					"object" : "felinstatue1",
					"tilesetDirection" : "right"
			},
			"71" : {
					"//description" : "It's a statue of Letrune, a famed felin healer.",
					"//name" : "felinstatue2",
					"//shortdescription" : "Healer Statue",
					"imagePositionX" : "-16",
					"imagePositionY" : "0",
					"object" : "felinstatue2",
					"tilesetDirection" : "right"
			},
			"72" : {
					"//description" : "It's a statue of Laenathin, a famed felin warlord.",
					"//name" : "felinstatue3",
					"//shortdescription" : "Leader Statue",
					"imagePositionX" : "-16",
					"imagePositionY" : "0",
					"object" : "felinstatue3",
					"tilesetDirection" : "right"
			},
			"73" : {
					"//description" : "A nice, spacious, wall-mounted storage solution.",
					"//name" : "felinstoragelocker",
					"//shortdescription" : "Storage Locker",
					"imagePositionX" : "-16",
					"imagePositionY" : "-8",
					"object" : "felinstoragelocker",
					"tilesetDirection" : "right"
			},
			"74" : {
					"//description" : "This tech station allows me to communicate with S.A.I.L and enable tech!",
					"//name" : "felintechstation",
					"//shortdescription" : "Tech Station",
					"imagePositionX" : "-16",
					"imagePositionY" : "-8",
					"object" : "felintechstation",
					"tilesetDirection" : "right"
			},
			"75" : {
					"//description" : "This will let me teleport from anywhere!",
					"//name" : "felinteleporter",
					"//shortdescription" : "Felin Teleporter",
					"imagePositionX" : "-16",
					"imagePositionY" : "0",
					"object" : "felinteleporter",
					"tilesetDirection" : "right"
			},
			"76" : {
					"//description" : "An oddly nostalgic trash can.",
					"//name" : "felintrashcan",
					"//shortdescription" : "Trash Can",
					"imagePositionX" : "-8",
					"imagePositionY" : "0",
					"object" : "felintrashcan",
					"tilesetDirection" : "right"
			},
			"77" : {
					"//description" : "A cake made of chocolate! On a wooden plate!",
					"//name" : "chocolatecakeplatter",
					"//shortdescription" : "Plate of Chocolate Cake",
					"imagePositionX" : "-8",
					"imagePositionY" : "0",
					"object" : "chocolatecakeplatter",
					"tilesetDirection" : "right"
			},
			"78" : {
					"//description" : "Bacon strips & bacon strips & bacon strips & bacon strips!",
					"//name" : "baconplatter",
					"//shortdescription" : "Plate of Bacon",
					"imagePositionX" : "-8",
					"imagePositionY" : "0",
					"object" : "baconplatter",
					"tilesetDirection" : "right"
			},
			"79" : {
					"//description" : "It's a delicious carrot cake! Tastes better than it sounds.",
					"//name" : "carrotcakeplatter",
					"//shortdescription" : "Plate of Carrot Cake",
					"imagePositionX" : "-8",
					"imagePositionY" : "0",
					"object" : "carrotcakeplatter",
					"tilesetDirection" : "right"
			},
			"80" : {
					"//description" : "A haunch of roasted ham.",
					"//name" : "hamplatter",
					"//shortdescription" : "Plate of Ham",
					"imagePositionX" : "-8",
					"imagePositionY" : "0",
					"object" : "hamplatter",
					"tilesetDirection" : "right"
			},
			"81" : {
					"//description" : "A slab of delicious cooked steak.",
					"//name" : "meatplatter",
					"//shortdescription" : "Plate of Steak",
					"imagePositionX" : "-8",
					"imagePositionY" : "0",
					"object" : "meatplatter",
					"tilesetDirection" : "right"
			},
			"82" : {
					"//description" : "Conserve space - stack up your empty plates.",
					"//name" : "plateofplates",
					"//shortdescription" : "Stack of Plates",
					"imagePositionX" : "-8",
					"imagePositionY" : "0",
					"object" : "plateofplates",
					"tilesetDirection" : "right"
			},
			"83" : {
					"//description" : "A nice, roasted bird.",
					"//name" : "poultryplatter",
					"//shortdescription" : "Plate of Poultry",
					"imagePositionX" : "-8",
					"imagePositionY" : "0",
					"object" : "poultryplatter",
					"tilesetDirection" : "right"
			},
			"84" : {
					"//description" : "A slice of banana cream pie. The fruity smell is a little off-putting.",
					"//name" : "bananacreampieplatter",
					"//shortdescription" : "Plate of Banana Cream Pie",
					"imagePositionX" : "-8",
					"imagePositionY" : "0",
					"object" : "bananacreampieplatter",
					"tilesetDirection" : "right"
			},
			"85" : {
					"//description" : "Pass the barbecue sauce!",
					"//name" : "ribplatter",
					"//shortdescription" : "Plate of Ribs",
					"imagePositionX" : "-8",
					"imagePositionY" : "0",
					"object" : "ribplatter",
					"tilesetDirection" : "right"
			},
			"86" : {
					"//description" : "It's a roasted tentacle. Chewy...but still pretty good?",
					"//name" : "tentacleplatter",
					"//shortdescription" : "Plate of Tentacle",
					"imagePositionX" : "-8",
					"imagePositionY" : "0",
					"object" : "tentacleplatter",
					"tilesetDirection" : "right"
			},
			"87" : {
					"//description" : "A cute little plushie of a fearsome warrior.",
					"//name" : "chelsieplush",
					"//shortdescription" : "Chelsie Plushie",
					"imagePositionX" : "-8",
					"imagePositionY" : "0",
					"object" : "chelsieplush",
					"tilesetDirection" : "right"
			},
			"88" : {
					"//description" : "A cute little plushie of a most excellent nurse.",
					"//name" : "lettieplush",
					"//shortdescription" : "Letrune Plushie",
					"imagePositionX" : "-8",
					"imagePositionY" : "0",
					"object" : "lettieplush",
					"tilesetDirection" : "right"
			},
			"89" : {
					"//description" : "A cute little plushie of a fearsome warlord.",
					"//name" : "laenathinplush",
					"//shortdescription" : "Laenathin Plushie",
					"imagePositionX" : "-8",
					"imagePositionY" : "0",
					"object" : "laenathinplush",
					"tilesetDirection" : "right"
			},
			"90" : {
					"//description" : "A cute little plushie of a fearsome warrior.",
					"//name" : "jalmineplush",
					"//shortdescription" : "Jalmine Plushie",
					"imagePositionX" : "-8",
					"imagePositionY" : "0",
					"object" : "jalmineplush",
					"tilesetDirection" : "right"
			},
			"91" : {
					"//description" : "A plush tentacle?",
					"//name" : "tentacleplush",
					"//shortdescription" : "Tentacle Plushie",
					"imagePositionX" : "-8",
					"imagePositionY" : "0",
					"object" : "tentacleplush",
					"tilesetDirection" : "right"
			},
			"92" : {
					"//description" : "A comfy armchair.",
					"//name" : "felinarmchair",
					"//shortdescription" : "Felin Armchair",
					"imagePositionX" : "-8",
					"imagePositionY" : "0",
					"object" : "felinarmchair",
					"tilesetDirection" : "right"
			},
			"93" : {
					"//description" : "A comfy, foamy couch.",
					"//name" : "felincouch",
					"//shortdescription" : "Felin Couch",
					"imagePositionX" : "-16",
					"imagePositionY" : "0",
					"object" : "felincouch",
					"tilesetDirection" : "right"
			},
			"94" : {
					"//description" : "A bookcase of sturdy Felin design.",
					"//name" : "felinbookcase",
					"//shortdescription" : "Large Felin Bookcase",
					"imagePositionX" : "-16",
					"imagePositionY" : "0",
					"object" : "felinbookcase",
					"tilesetDirection" : "right"
			},
			"95" : {
					"//description" : "An apex-made TV showing Felin 'fun' shows.",
					"//name" : "felinfuntv",
					"//shortdescription" : "Felin Fun TV",
					"imagePositionX" : "-32",
					"imagePositionY" : "-16",
					"object" : "felinfuntv",
					"tilesetDirection" : "right"
			},
			"96" : {
					"//description" : "Open for business.",
					"//name" : "felinstorecounter",
					"//shortdescription" : "Felin Store Counter",
					"imagePositionX" : "0",
					"imagePositionY" : "0",
					"object" : "felinstorecounter",
					"tilesetDirection" : "right"
			},
			"97" : {
					"//description" : "Cake and congratulations at the end.",
					"//name" : "felinlevel42sign",
					"//shortdescription" : "Felin Level 42 Sign",
					"imagePositionX" : "-16",
					"imagePositionY" : "-16",
					"object" : "felinlevel42sign",
					"tilesetDirection" : "right"
			},
			"98" : {
					"//description" : "A basic wooden table with foam edging.",
					"//name" : "felintable",
					"//shortdescription" : "Felin Table",
					"imagePositionX" : "-16",
					"imagePositionY" : "0",
					"object" : "felintable",
					"tilesetDirection" : "right"
			},
			"99" : {
					"//description" : "",
					"//name" : "felinquartermaster",
					"//shortdescription" : "Quartermaster",
					"imagePositionX" : "-40",
					"imagePositionY" : "0",
					"object" : "felinquartermaster",
					"tilesetDirection" : "right"
			},
			"100" : {
					"//description" : "An apex-made TV showing... the Earth exploding.",
					"//name" : "felinintronews",
					"//shortdescription" : "Felin News TV",
					"imagePositionX" : "-32",
					"imagePositionY" : "-16",
					"object" : "felinintronews",
					"tilesetDirection" : "right"
			},
			"101" : {
					"//description" : "Ah, an old classic.",
					"//name" : "felinshmupgame",
					"//shortdescription" : "Sela Kravchu",
					"imagePositionX" : "-8",
					"imagePositionY" : "0",
					"object" : "felinshmupgame",
					"tilesetDirection" : "right"
			},
			"102" : {
					"//description" : "Useless for now.",
					"//name" : "felinstorecounterempty",
					"//shortdescription" : "Felin Store Counter (unmanned)",
					"imagePositionX" : "0",
					"imagePositionY" : "0",
					"object" : "felinstorecounterempty",
					"tilesetDirection" : "right"
			},
			"103" : {
					"//description" : "A torn bit of fabric...",
					"//name" : "felinintrocape",
					"//shortdescription" : "Leftover Rag",
					"imagePositionX" : "0",
					"imagePositionY" : "0",
					"object" : "felinintrocape",
					"tilesetDirection" : "right"
			},
			"104" : {
					"//description" : "Felin oven.",
					"//name" : "felinoven",
					"//shortdescription" : "Felin Oven",
					"imagePositionX" : "-16",
					"imagePositionY" : "0",
					"object" : "felinoven",
					"tilesetDirection" : "right"
			},
			"105" : {
					"//description" : "Felin sink.",
					"//name" : "felinsink",
					"//shortdescription" : "Felin Sink",
					"imagePositionX" : "-20",
					"imagePositionY" : "0",
					"object" : "felinoven",
					"tilesetDirection" : "right"
			},
			"106" : {
					"//description" : "Felin fridge.",
					"//name" : "felinfridge",
					"//shortdescription" : "Felin Fridge",
					"imagePositionX" : "-8",
					"imagePositionY" : "0",
					"object" : "felinfridge",
					"tilesetDirection" : "right"
			},
			"107" : {
					"//description" : "Giant lava lamp.",
					"//name" : "giantlavalamp",
					"//shortdescription" : "Giant lava lamp",
					"imagePositionX" : "-8",
					"imagePositionY" : "0",
					"object" : "giantlavalamp",
					"tilesetDirection" : "right"
			}
	},
	"tiles" : {
		"0" : {
				"image" : "./../../../../tiled/packed/felin/felinbanner.png"
		},
		"1" : {
				"image" : "./../../../../tiled/packed/felin/felinbathmural.png"
		},
		"2" : {
				"image" : "./../../../../tiled/packed/felin/felinbeanbagchair.png"
		},
		"3" : {
				"image" : "./../../../../tiled/packed/felin/felinbed.png"
		},
		"4" : {
				"image" : "./../../../../tiled/packed/felin/felinbench_0.png"
		},
		"5" : {
				"image" : "./../../../../tiled/packed/felin/felinbench_1.png"
		},
		"6" : {
				"image" : "./../../../../tiled/packed/felin/felinbike.png"
		},
		"7" : {
				"image" : "./../../../../tiled/packed/felin/felinbuildingsign_0.png"
		},
		"8" : {
				"image" : "./../../../../tiled/packed/felin/felinbuildingsign_1.png"
		},
		"9" : {
				"image" : "./../../../../tiled/packed/felin/felinbuildingsign_2.png"
		},
		"10" : {
				"image" : "./../../../../tiled/packed/felin/felinbuildingsign_3.png"
		},
		"11" : {
				"image" : "./../../../../tiled/packed/felin/felinbuildingsign_4.png"
		},
		"12" : {
				"image" : "./../../../../tiled/packed/felin/felinbuildingsign_5.png"
		},
		"13" : {
				"image" : "./../../../../tiled/packed/felin/felincabinet1.png"
		},
		"14" : {
				"image" : "./../../../../tiled/packed/felin/felincabinet2.png"
		},
		"15" : {
				"image" : "./../../../../tiled/packed/felin/felincabinet3.png"
		},
		"16" : {
				"image" : "./../../../../tiled/packed/felin/felinceilingcabinet1.png"
		},
		"17" : {
				"image" : "./../../../../tiled/packed/felin/felincalligraphy_0.png"
		},
		"18" : {
				"image" : "./../../../../tiled/packed/felin/felincalligraphy_1.png"
		},
		"19" : {
				"image" : "./../../../../tiled/packed/felin/felincaptainschair.png"
		},
		"20" : {
				"image" : "./../../../../tiled/packed/felin/felinchalkboard.png"
		},
		"21" : {
				"image" : "./../../../../tiled/packed/felin/felincomputer.png"
		},
		"22" : {
				"image" : "./../../../../tiled/packed/felin/felinconsole.png"
		},
		"23" : {
				"image" : "./../../../../tiled/packed/felin/felincushion.png"
		},
		"24" : {
				"image" : "./../../../../tiled/packed/felin/felindoor.png"
		},
		"25" : {
				"image" : "./../../../../tiled/packed/felin/felinfireplace.png"
		},
		"26" : {
				"image" : "./../../../../tiled/packed/felin/felinsmokestack.png"
		},
		"27" : {
				"image" : "./../../../../tiled/packed/felin/flagfelin.png"
		},
		"28" : {
				"image" : "./../../../../tiled/packed/felin/felingenerator.png"
		},
		"29" : {
				"image" : "./../../../../tiled/packed/felin/felingraffiti1.png"
		},
		"30" : {
				"image" : "./../../../../tiled/packed/felin/felingraffiti2.png"
		},
		"31" : {
				"image" : "./../../../../tiled/packed/felin/felingraffiti3.png"
		},
		"32" : {
				"image" : "./../../../../tiled/packed/felin/felingraffiti4.png"
		},
		"33" : {
				"image" : "./../../../../tiled/packed/felin/felingraffiti5.png"
		},
		"34" : {
				"image" : "./../../../../tiled/packed/felin/felingraffiti6.png"
		},
		"35" : {
				"image" : "./../../../../tiled/packed/felin/felinlogograffiti.png"
		},
		"36" : {
				"image" : "./../../../../tiled/packed/felin/felinpeacegraffiti.png"
		},
		"37" : {
				"image" : "./../../../../tiled/packed/felin/felinhologram.png"
		},
		"38" : {
				"image" : "./../../../../tiled/packed/felin/felinlight.png"
		},
		"39" : {
				"image" : "./../../../../tiled/packed/felin/felinmarketspeaker.png"
		},
		"40" : {
				"image" : "./../../../../tiled/packed/felin/felinmarketstall1.png"
		},
		"41" : {
				"image" : "./../../../../tiled/packed/felin/felinmarketstall2.png"
		},
		"42" : {
				"image" : "./../../../../tiled/packed/felin/felinmarketstall3.png"
		},
		"43" : {
				"image" : "./../../../../tiled/packed/felin/felinmarketstall4.png"
		},
		"44" : {
				"image" : "./../../../../tiled/packed/felin/felinmarketstall5.png"
		},
		"45" : {
				"image" : "./../../../../tiled/packed/felin/felinmirror1_0.png"
		},
		"46" : {
				"image" : "./../../../../tiled/packed/felin/felinmirror1_1.png"
		},
		"47" : {
				"image" : "./../../../../tiled/packed/felin/felinmirror2_0.png"
		},
		"48" : {
				"image" : "./../../../../tiled/packed/felin/felinmirror2_1.png"
		},
		"49" : {
				"image" : "./../../../../tiled/packed/felin/felinmirror3_0.png"
		},
		"50" : {
				"image" : "./../../../../tiled/packed/felin/felinmirror3_1.png"
		},
		"51" : {
				"image" : "./../../../../tiled/packed/felin/felinposter40_0.png"
		},
		"52" : {
				"image" : "./../../../../tiled/packed/felin/felinposter40_1.png"
		},
		"53" : {
				"image" : "./../../../../tiled/packed/felin/felinposter40_2.png"
		},
		"54" : {
				"image" : "./../../../../tiled/packed/felin/felinposter40_3.png"
		},
		"55" : {
				"image" : "./../../../../tiled/packed/felin/felinposter24_0.png"
		},
		"56" : {
				"image" : "./../../../../tiled/packed/felin/felinposter24_1.png"
		},
		"57" : {
				"image" : "./../../../../tiled/packed/felin/felinposter24_2.png"
		},
		"58" : {
				"image" : "./../../../../tiled/packed/felin/felinposter16_0.png"
		},
		"59" : {
				"image" : "./../../../../tiled/packed/felin/felinposter16_1.png"
		},
		"60" : {
				"image" : "./../../../../tiled/packed/felin/felinposter16_2.png"
		},
		"61" : {
				"image" : "./../../../../tiled/packed/felin/felinposter16_3.png"
		},
		"62" : {
				"image" : "./../../../../tiled/packed/felin/felinposter24_3.png"
		},
		"63" : {
				"image" : "./../../../../tiled/packed/felin/felinposter24_4.png"
		},
		"64" : {
				"image" : "./../../../../tiled/packed/felin/felinroast1.png"
		},
		"65" : {
				"image" : "./../../../../tiled/packed/felin/felinroast2.png"
		},
		"66" : {
				"image" : "./../../../../tiled/packed/felin/felinshiplocker.png"
		},
		"67" : {
				"image" : "./../../../../tiled/packed/felin/felinsign1.png"
		},
		"68" : {
				"image" : "./../../../../tiled/packed/felin/felinsign2.png"
		},
		"69" : {
				"image" : "./../../../../tiled/packed/felin/felinstatuel1.png"
		},
		"70" : {
				"image" : "./../../../../tiled/packed/felin/felinstatue1.png"
		},
		"71" : {
				"image" : "./../../../../tiled/packed/felin/felinstatue2.png"
		},
		"72" : {
				"image" : "./../../../../tiled/packed/felin/felinstatue3.png"
		},
		"73" : {
				"image" : "./../../../../tiled/packed/felin/felinstoragelocker.png"
		},
		"74" : {
				"image" : "./../../../../tiled/packed/felin/felintechstation.png"
		},
		"75" : {
				"image" : "./../../../../tiled/packed/felin/felinteleporter.png"
		},
		"76" : {
				"image" : "./../../../../tiled/packed/felin/felintrashcan.png"
		},
		"77" : {
				"image" : "./../../../../tiled/packed/felin/chocolatecakeplatter.png"
		},
		"78" : {
				"image" : "./../../../../tiled/packed/felin/baconplatter.png"
		},
		"79" : {
				"image" : "./../../../../tiled/packed/felin/carrotcakeplatter.png"
		},
		"80" : {
				"image" : "./../../../../tiled/packed/felin/hamplatter.png"
		},
		"81" : {
				"image" : "./../../../../tiled/packed/felin/meatplatter.png"
		},
		"82" : {
				"image" : "./../../../../tiled/packed/felin/plateofplates.png"
		},
		"83" : {
				"image" : "./../../../../tiled/packed/felin/poultryplatter.png"
		},
		"84" : {
				"image" : "./../../../../tiled/packed/felin/bananacreampieplatter.png"
		},
		"85" : {
				"image" : "./../../../../tiled/packed/felin/ribplatter.png"
		},
		"86" : {
				"image" : "./../../../../tiled/packed/felin/tentacleplatter.png"
		},
		"87" : {
				"image" : "./../../../../tiled/packed/felin/plushies_0.png"
		},
		"88" : {
				"image" : "./../../../../tiled/packed/felin/plushies_1.png"
		},
		"89" : {
				"image" : "./../../../../tiled/packed/felin/plushies_2.png"
		},
		"90" : {
				"image" : "./../../../../tiled/packed/felin/plushies_3.png"
		},
		"91" : {
				"image" : "./../../../../tiled/packed/felin/plushies_4.png"
		},
		"92" : {
				"image" : "./../../../../tiled/packed/felin/felinarmchair.png"
		},
		"93" : {
				"image" : "./../../../../tiled/packed/felin/felincouch.png"
		},
		"94" : {
				"image" : "./../../../../tiled/packed/felin/felinbookcase.png"
		},
		"95" : {
				"image" : "./../../../../tiled/packed/felin/felinfuntv.png"
		},
		"96" : {
				"image" : "./../../../../tiled/packed/felin/felinstorecounter.png"
		},
		"97" : {
				"image" : "./../../../../tiled/packed/felin/felinlevel42sign.png"
		},
		"98" : {
				"image" : "./../../../../tiled/packed/felin/felintable.png"
		},
		"99" : {
				"image" : "./../../../../tiled/packed/felin/felinquartermaster.png"
		},
		"100" : {
				"image" : "./../../../../tiled/packed/felin/felinintronews.png"
		},
		"101" : {
				"image" : "./../../../../tiled/packed/felin/felinshmupgame.png"
		},
		"102" : {
				"image" : "./../../../../tiled/packed/felin/felinstorecounterempty.png"
		},
		"103" : {
				"image" : "./../../../../tiled/packed/objects/protectoratecape.png"
		},
		"104" : {
				"image" : "./../../../../tiled/packed/felin/felinoven.png"
		},
		"105" : {
				"image" : "./../../../../tiled/packed/felin/felinsink.png"
		},
		"106" : {
				"image" : "./../../../../tiled/packed/felin/felinfridge.png"
		},
		"107" : {
				"image" : "./../../../../tiled/packed/felin/giantlavalamp.png"
		}
	},
	"tilewidth" : 160
}